G04 #@! TF.GenerationSoftware,KiCad,Pcbnew,(6.0.6)*
G04 #@! TF.CreationDate,2022-07-11T23:29:22+02:00*
G04 #@! TF.ProjectId,pcb_plate,7063625f-706c-4617-9465-2e6b69636164,rev?*
G04 #@! TF.SameCoordinates,Original*
G04 #@! TF.FileFunction,Copper,L1,Top*
G04 #@! TF.FilePolarity,Positive*
%FSLAX46Y46*%
G04 Gerber Fmt 4.6, Leading zero omitted, Abs format (unit mm)*
G04 Created by KiCad (PCBNEW (6.0.6)) date 2022-07-11 23:29:22*
%MOMM*%
%LPD*%
G01*
G04 APERTURE LIST*
G04 Aperture macros list*
%AMRoundRect*
0 Rectangle with rounded corners*
0 $1 Rounding radius*
0 $2 $3 $4 $5 $6 $7 $8 $9 X,Y pos of 4 corners*
0 Add a 4 corners polygon primitive as box body*
4,1,4,$2,$3,$4,$5,$6,$7,$8,$9,$2,$3,0*
0 Add four circle primitives for the rounded corners*
1,1,$1+$1,$2,$3*
1,1,$1+$1,$4,$5*
1,1,$1+$1,$6,$7*
1,1,$1+$1,$8,$9*
0 Add four rect primitives between the rounded corners*
20,1,$1+$1,$2,$3,$4,$5,0*
20,1,$1+$1,$4,$5,$6,$7,0*
20,1,$1+$1,$6,$7,$8,$9,0*
20,1,$1+$1,$8,$9,$2,$3,0*%
G04 Aperture macros list end*
%ADD10C,0.500000*%
G04 #@! TA.AperFunction,NonConductor*
%ADD11C,0.500000*%
G04 #@! TD*
G04 #@! TA.AperFunction,SMDPad,CuDef*
%ADD12RoundRect,0.150000X0.825000X0.150000X-0.825000X0.150000X-0.825000X-0.150000X0.825000X-0.150000X0*%
G04 #@! TD*
G04 #@! TA.AperFunction,SMDPad,CuDef*
%ADD13RoundRect,0.237500X-0.237500X0.300000X-0.237500X-0.300000X0.237500X-0.300000X0.237500X0.300000X0*%
G04 #@! TD*
G04 #@! TA.AperFunction,ComponentPad*
%ADD14C,4.700000*%
G04 #@! TD*
G04 #@! TA.AperFunction,SMDPad,CuDef*
%ADD15RoundRect,0.237500X0.300000X0.237500X-0.300000X0.237500X-0.300000X-0.237500X0.300000X-0.237500X0*%
G04 #@! TD*
G04 #@! TA.AperFunction,SMDPad,CuDef*
%ADD16RoundRect,0.237500X0.237500X-0.300000X0.237500X0.300000X-0.237500X0.300000X-0.237500X-0.300000X0*%
G04 #@! TD*
G04 #@! TA.AperFunction,SMDPad,CuDef*
%ADD17RoundRect,0.125000X-0.537500X-0.125000X0.537500X-0.125000X0.537500X0.125000X-0.537500X0.125000X0*%
G04 #@! TD*
G04 #@! TA.AperFunction,SMDPad,CuDef*
%ADD18RoundRect,0.237500X-0.300000X-0.237500X0.300000X-0.237500X0.300000X0.237500X-0.300000X0.237500X0*%
G04 #@! TD*
G04 #@! TA.AperFunction,ComponentPad*
%ADD19C,1.500000*%
G04 #@! TD*
G04 #@! TA.AperFunction,ViaPad*
%ADD20C,0.900000*%
G04 #@! TD*
G04 #@! TA.AperFunction,ViaPad*
%ADD21C,0.800000*%
G04 #@! TD*
G04 #@! TA.AperFunction,Conductor*
%ADD22C,0.250000*%
G04 #@! TD*
G04 #@! TA.AperFunction,Conductor*
%ADD23C,0.130000*%
G04 #@! TD*
G04 APERTURE END LIST*
D10*
D11*
X-34455837Y-3302720D02*
X-29122504Y-3302720D01*
D10*
D11*
X27544162Y2244898D02*
X32877495Y-40815D01*
X27544162Y-2326529D01*
D12*
X2473750Y-20855000D03*
X2473750Y-19585000D03*
X2473750Y-18315000D03*
X2473750Y-17045000D03*
X-2476250Y-17045000D03*
X-2476250Y-18315000D03*
X-2476250Y-19585000D03*
X-2476250Y-20855000D03*
D13*
X-4801250Y-19987500D03*
X-4801250Y-21712500D03*
D14*
X-70331508Y479463D03*
X70331508Y479463D03*
D15*
X-2738750Y-23850000D03*
X-4463750Y-23850000D03*
D16*
X-1250Y-26812500D03*
X-1250Y-25087500D03*
D17*
X2561250Y-25975000D03*
X2561250Y-26625000D03*
X2561250Y-27275000D03*
X2561250Y-27925000D03*
X4836250Y-27925000D03*
X4836250Y-27275000D03*
X4836250Y-26625000D03*
X4836250Y-25975000D03*
D18*
X3286250Y-30550000D03*
X5011250Y-30550000D03*
D14*
X115138496Y-53070671D03*
X30755374Y-8163367D03*
X-25874515Y-89861688D03*
D19*
X2225000Y-2558655D03*
X-17675000Y1191345D03*
X-22975000Y2691345D03*
X8825000Y1191345D03*
X-21625000Y1941345D03*
X-425000Y1941345D03*
X14125000Y-308655D03*
X7525000Y-1058655D03*
X875000Y1191345D03*
X15475000Y1941345D03*
X-9725000Y2691345D03*
X18125000Y-1058655D03*
X2225000Y441345D03*
X10175000Y1941345D03*
X-15025000Y-3308655D03*
X14125000Y2691345D03*
X-7075000Y-1808655D03*
X12825000Y1941345D03*
X875000Y-3308655D03*
X16775000Y1191345D03*
X10175000Y-2558655D03*
X875000Y-1808655D03*
X-425000Y-1058655D03*
X-9725000Y-308655D03*
X7525000Y1941345D03*
X20775000Y1941345D03*
X-11025000Y-2558655D03*
X-21625000Y441345D03*
X20775000Y-2558655D03*
X-21625000Y-1058655D03*
X8825000Y-3308655D03*
X-9725000Y-3308655D03*
X-1775000Y-1808655D03*
X-20325000Y-1808655D03*
X19425000Y-308655D03*
X20775000Y-1058655D03*
X10175000Y-1058655D03*
X19425000Y1191345D03*
X23425000Y-1108655D03*
X3525000Y2691345D03*
X24725000Y2641345D03*
X-9725000Y1191345D03*
X-25625000Y-3308655D03*
X6175000Y-1808655D03*
X14125000Y-1808655D03*
X11475000Y-308655D03*
X18125000Y1941345D03*
X11475000Y-1808655D03*
X8825000Y-308655D03*
X-12375000Y1191345D03*
X-11025000Y1941345D03*
X14125000Y1191345D03*
X12825000Y-2558655D03*
X2225000Y-1058655D03*
X4875000Y-1058655D03*
X-24275000Y-2558655D03*
X-15025000Y1191345D03*
X-12375000Y2691345D03*
X-3075000Y-2558655D03*
X19425000Y-1808655D03*
X-13675000Y-1058655D03*
X6175000Y1191345D03*
X22075000Y-1858655D03*
X-9725000Y-1808655D03*
X-24275000Y1941345D03*
X2225000Y1941345D03*
X-12375000Y-3308655D03*
X22075000Y1141345D03*
X15475000Y-1058655D03*
X4875000Y1941345D03*
X-7075000Y2691345D03*
X6175000Y-3308655D03*
X-15025000Y-308655D03*
X-16325000Y-1058655D03*
X3525000Y-308655D03*
X11475000Y1191345D03*
X6175000Y2691345D03*
X7525000Y441345D03*
X-18975000Y1941345D03*
X8825000Y2691345D03*
X-11025000Y441345D03*
X-17675000Y-1808655D03*
X24725000Y1141345D03*
X24725000Y-358655D03*
X-18975000Y-1058655D03*
X-25625000Y-308655D03*
X16775000Y-308655D03*
X15475000Y441345D03*
X-7075000Y1191345D03*
X20775000Y441345D03*
X-8375000Y1941345D03*
X-15025000Y-1808655D03*
X-25625000Y-1808655D03*
X-8375000Y-1058655D03*
X-21625000Y-2558655D03*
X-22975000Y1191345D03*
X8825000Y-1808655D03*
X-4425000Y-308655D03*
X-24275000Y441345D03*
X875000Y-308655D03*
X-25625000Y2691345D03*
X-12375000Y-308655D03*
X875000Y2691345D03*
X-20325000Y1191345D03*
X-425000Y441345D03*
X-3075000Y1941345D03*
X14125000Y-3308655D03*
X-17675000Y-3308655D03*
X23425000Y391345D03*
X22075000Y-3358655D03*
X18125000Y441345D03*
X-5725000Y441345D03*
X-425000Y-2558655D03*
X3525000Y-1808655D03*
X23425000Y-2608655D03*
X-1775000Y-308655D03*
X-17675000Y-308655D03*
X-22975000Y-308655D03*
X-16325000Y-2558655D03*
X-5725000Y-2558655D03*
X-3075000Y-1058655D03*
X-15025000Y2691345D03*
X7525000Y-2558655D03*
X4875000Y441345D03*
X-13675000Y-2558655D03*
X3525000Y-3308655D03*
X10175000Y441345D03*
X-24275000Y-1058655D03*
X-18975000Y441345D03*
X-18975000Y-2558655D03*
X-13675000Y1941345D03*
X-8375000Y441345D03*
X-13675000Y441345D03*
X11475000Y-3308655D03*
X19425000Y2691345D03*
X18125000Y-2558655D03*
X-20325000Y-3308655D03*
X15475000Y-2558655D03*
X-4425000Y-3308655D03*
X-12375000Y-1808655D03*
X-4425000Y2691345D03*
X-3075000Y441345D03*
X6175000Y-308655D03*
X22075000Y-358655D03*
X-4425000Y-1808655D03*
X-1775000Y2691345D03*
X-20325000Y2691345D03*
X-4425000Y1191345D03*
X-16325000Y441345D03*
X19425000Y-3308655D03*
X-1775000Y1191345D03*
X-5725000Y1941345D03*
X-16325000Y1941345D03*
X22075000Y2641345D03*
X-7075000Y-3308655D03*
X16775000Y-3308655D03*
X24725000Y-3358655D03*
X-22975000Y-3308655D03*
X-25625000Y1191345D03*
X16775000Y2691345D03*
X-1775000Y-3308655D03*
X-22975000Y-1808655D03*
X12825000Y-1058655D03*
X16775000Y-1808655D03*
X-11025000Y-1058655D03*
X11475000Y2691345D03*
X3525000Y1191345D03*
X-8375000Y-2558655D03*
X24725000Y-1858655D03*
X-5725000Y-1058655D03*
X-20325000Y-308655D03*
X23425000Y1891345D03*
X-17675000Y2691345D03*
X4875000Y-2558655D03*
X12825000Y441345D03*
X-7075000Y-308655D03*
D14*
X62735950Y-80072559D03*
D16*
X-1250Y-30312500D03*
X-1250Y-28587500D03*
D14*
X25874515Y-89861688D03*
D18*
X2736250Y-24150000D03*
X4461250Y-24150000D03*
D14*
X108539821Y-15647984D03*
D16*
X4798750Y-21812500D03*
X4798750Y-20087500D03*
D15*
X1011250Y-22750000D03*
X-713750Y-22750000D03*
D18*
X-4063750Y-30550000D03*
X-2338750Y-30550000D03*
D14*
X-30755374Y-8163367D03*
D17*
X-4938750Y-25975000D03*
X-4938750Y-26625000D03*
X-4938750Y-27275000D03*
X-4938750Y-27925000D03*
X-2663750Y-27925000D03*
X-2663750Y-27275000D03*
X-2663750Y-26625000D03*
X-2663750Y-25975000D03*
D14*
X-115138496Y-53070671D03*
X-62735950Y-80072559D03*
X-108539821Y-15647984D03*
D20*
X-7301250Y-19750000D03*
D21*
X1500000Y-34425500D03*
D20*
X-2101250Y-22550000D03*
D21*
X-4484500Y-14850000D03*
X-3500000Y-16150000D03*
D20*
X-100000Y-21000000D03*
D21*
X7100000Y-27350000D03*
X6700000Y-20150000D03*
X-1250000Y-15700000D03*
X200000Y-18249375D03*
X2698750Y-21850000D03*
X-1400000Y-24950000D03*
X-4300000Y-25050000D03*
X-4300000Y-18600000D03*
X800000Y-19450000D03*
X-1500000Y-31750000D03*
X6324250Y-22550000D03*
X7900000Y-33350000D03*
X6300000Y-25550000D03*
D22*
X-7063750Y-19987500D02*
X-4801250Y-19987500D01*
X5537500Y-20087500D02*
X4798750Y-20087500D01*
X3493750Y-17045000D02*
X2473750Y-17045000D01*
X6649375Y-23350000D02*
X6998750Y-23000625D01*
X-900000Y-26435134D02*
X-1935134Y-25400000D01*
X-3800000Y-26339562D02*
X-4085438Y-26625000D01*
X-1250Y-32924250D02*
X-1250Y-30312500D01*
X-3401250Y-25400000D02*
X-3800000Y-25798750D01*
X1500000Y-34425500D02*
X-1250Y-32924250D01*
X-2738750Y-23187500D02*
X-2101250Y-22550000D01*
X-4085438Y-26625000D02*
X-4938750Y-26625000D01*
X-2351250Y-24237500D02*
X-2738750Y-23850000D01*
X-2351250Y-25400000D02*
X-3401250Y-25400000D01*
X-2351250Y-25400000D02*
X-2351250Y-24237500D01*
X-2738750Y-23850000D02*
X-2738750Y-23187500D01*
X1108750Y-29040000D02*
X-1250Y-30150000D01*
X3700000Y-25351250D02*
X1098750Y-22750000D01*
X3700000Y-26135146D02*
X3700000Y-25351250D01*
X-4484500Y-14850000D02*
X-4384500Y-14950000D01*
X1108750Y-27025956D02*
X1108750Y-29040000D01*
X-1935134Y-25400000D02*
X-2351250Y-25400000D01*
X4798750Y-18350000D02*
X3493750Y-17045000D01*
X2561250Y-26625000D02*
X3210146Y-26625000D01*
X6998750Y-21548750D02*
X5537500Y-20087500D01*
X378750Y-14950000D02*
X2473750Y-17045000D01*
X3536250Y-23350000D02*
X6649375Y-23350000D01*
X-900000Y-29451250D02*
X-900000Y-26435134D01*
X3210146Y-26625000D02*
X3700000Y-26135146D01*
X6998750Y-23000625D02*
X6998750Y-21548750D01*
X-1250Y-30150000D02*
X-1250Y-30350000D01*
X2561250Y-26625000D02*
X1509706Y-26625000D01*
X1509706Y-26625000D02*
X1108750Y-27025956D01*
X4798750Y-20087500D02*
X4798750Y-18350000D01*
X2736250Y-24150000D02*
X3536250Y-23350000D01*
X-3800000Y-25798750D02*
X-3800000Y-26339562D01*
X-1250Y-30350000D02*
X-900000Y-29451250D01*
X-4384500Y-14950000D02*
X378750Y-14950000D01*
X-3500000Y-16150000D02*
X-3371250Y-16150000D01*
X-3371250Y-16150000D02*
X-2476250Y-17045000D01*
X-5913750Y-26962500D02*
X-5663749Y-27212500D01*
X7025000Y-26625000D02*
X4836250Y-26625000D01*
X-4099042Y-27275000D02*
X-3449042Y-26625000D01*
X-4938750Y-27275000D02*
X-4099042Y-27275000D01*
X-2876250Y-22262500D02*
X-2876250Y-22228984D01*
X7400000Y-20850000D02*
X6700000Y-20150000D01*
X7400000Y-24050000D02*
X7400000Y-20850000D01*
X3375000Y-27275000D02*
X4025000Y-26625000D01*
X-3449042Y-26625000D02*
X-2663750Y-26625000D01*
X4461250Y-24150000D02*
X7300000Y-24150000D01*
X-4585134Y-23850000D02*
X-4463750Y-23850000D01*
X-5601250Y-27275000D02*
X-5913750Y-26962500D01*
X-2501250Y-21853984D02*
X-2501250Y-20680000D01*
X-4938750Y-27275000D02*
X-5601250Y-27275000D01*
X-801250Y-22750000D02*
X-801250Y-22530000D01*
X7100000Y-26700000D02*
X7025000Y-26625000D01*
X-4463750Y-23850000D02*
X-2876250Y-22262500D01*
X-245000Y-20855000D02*
X-2476250Y-20855000D01*
X7300000Y-24150000D02*
X7400000Y-24050000D01*
X7100000Y-27350000D02*
X7100000Y-26700000D01*
X-2876250Y-22228984D02*
X-2501250Y-21853984D01*
X7400000Y-26250000D02*
X7400000Y-24050000D01*
X-6201250Y-25466116D02*
X-4585134Y-23850000D01*
X-801250Y-24237500D02*
X-1250Y-25037500D01*
X4025000Y-26625000D02*
X4836250Y-26625000D01*
X7025000Y-26625000D02*
X7400000Y-26250000D01*
X-5913750Y-26962500D02*
X-6201250Y-26674999D01*
X-100000Y-21000000D02*
X-245000Y-20855000D01*
X2561250Y-27275000D02*
X3375000Y-27275000D01*
X-801250Y-22530000D02*
X-2476250Y-20855000D01*
X-801250Y-22750000D02*
X-801250Y-24237500D01*
X-6201250Y-26674999D02*
X-6201250Y-25466116D01*
X-1250000Y-15700000D02*
X-1226250Y-15723750D01*
X-1226250Y-17371041D02*
X-2170209Y-18315000D01*
X-2170209Y-18315000D02*
X-2476250Y-18315000D01*
X-1226250Y-15723750D02*
X-1226250Y-17371041D01*
X200000Y-18249375D02*
X-500625Y-18249375D01*
X-500625Y-18249375D02*
X-1836250Y-19585000D01*
X-1836250Y-19585000D02*
X-2476250Y-19585000D01*
X2473750Y-20855000D02*
X2473750Y-21625000D01*
X2473750Y-21625000D02*
X2698750Y-21850000D01*
X-1400000Y-24951034D02*
X-1250Y-26349784D01*
X-1250Y-26349784D02*
X-1250Y-26812500D01*
X-1400000Y-24950000D02*
X-1400000Y-24951034D01*
X836250Y-25975000D02*
X2561250Y-25975000D01*
X-4938750Y-25688750D02*
X-4300000Y-25050000D01*
X-4938750Y-25975000D02*
X-4938750Y-25688750D01*
X-1250Y-26812500D02*
X836250Y-25975000D01*
X-1250Y-26812500D02*
X-1250Y-28587500D01*
X-6800000Y-26850000D02*
X-5700000Y-27950000D01*
X800000Y-19450000D02*
X1000000Y-19450000D01*
X-4938750Y-27925000D02*
X-5675000Y-27925000D01*
X-6800000Y-24850000D02*
X-6800000Y-26850000D01*
X-4051250Y-18848750D02*
X-4051250Y-20962500D01*
X-4801250Y-22851250D02*
X-6800000Y-24850000D01*
X-4801250Y-21712500D02*
X-4801250Y-22851250D01*
X-4051250Y-20962500D02*
X-4801250Y-21712500D01*
X-4300000Y-18600000D02*
X-4051250Y-18848750D01*
X1000000Y-19450000D02*
X1200000Y-19650000D01*
X-5675000Y-27925000D02*
X-5700000Y-27950000D01*
X2408750Y-19650000D02*
X2473750Y-19585000D01*
X1200000Y-19650000D02*
X2408750Y-19650000D01*
X-2338750Y-28250000D02*
X-2663750Y-27925000D01*
X-2338750Y-30550000D02*
X-2338750Y-28250000D01*
X-3951250Y-30437500D02*
X-3951250Y-27763604D01*
X-3462646Y-27275000D02*
X-2663750Y-27275000D01*
X-3951250Y-27763604D02*
X-3462646Y-27275000D01*
X-4063750Y-30550000D02*
X-3951250Y-30437500D01*
X-1350000Y-26639854D02*
X-2014854Y-25975000D01*
X-1500000Y-31750000D02*
X-1350000Y-31600000D01*
X-2014854Y-25975000D02*
X-2663750Y-25975000D01*
X-1350000Y-31600000D02*
X-1350000Y-26639854D01*
X1100000Y-29750000D02*
X2700000Y-28150000D01*
X2700000Y-28150000D02*
X2700000Y-27850000D01*
X1100000Y-31750000D02*
X1100000Y-29750000D01*
X7900000Y-33350000D02*
X2700000Y-33350000D01*
D23*
X3363750Y-18315000D02*
X2473750Y-18315000D01*
D22*
X2700000Y-33350000D02*
X1100000Y-31750000D01*
D23*
X4798750Y-21900000D02*
X3713750Y-20815000D01*
D22*
X5448750Y-22550000D02*
X4798750Y-21900000D01*
D23*
X3713750Y-20815000D02*
X3713750Y-18665000D01*
X3713750Y-18665000D02*
X3363750Y-18315000D01*
D22*
X6324250Y-22550000D02*
X5448750Y-22550000D01*
X4836250Y-27925000D02*
X4836250Y-30375000D01*
X4836250Y-30375000D02*
X5011250Y-30550000D01*
X3848750Y-27613604D02*
X4187354Y-27275000D01*
X3286250Y-30550000D02*
X3848750Y-29987500D01*
X4187354Y-27275000D02*
X4836250Y-27275000D01*
X3848750Y-29987500D02*
X3848750Y-27613604D01*
X6300000Y-25550000D02*
X5875000Y-25975000D01*
X5875000Y-25975000D02*
X4836250Y-25975000D01*
M02*
