(footprint "DIODES_UDFN-8-1.2x1.6" (version 20211014) (generator pcbnew)
  (layer "F.Cu")
  (tedit 620D47D5)
  (attr smd)
  (fp_text reference "REF**" (at -12.7 -20.32 unlocked) (layer "F.SilkS")
    (effects (font (size 1 1) (thickness 0.15)))
    (tstamp e8276d7a-599d-4ddf-b976-d27fd2070882)
  )
  (fp_text value "DIODES_UDFN-8-1.2x1.6" (at -12.7 -18.82 unlocked) (layer "F.Fab")
    (effects (font (size 1 1) (thickness 0.15)))
    (tstamp 2c8d589a-b9f4-4b08-9a5c-2a4974fdd278)
  )
  (fp_line (start -0.875 -0.6125) (end -0.875 0.0125) (layer "F.SilkS") (width 0.12) (tstamp e1360a52-83ec-4633-ac0d-9a4359674898))
  (fp_line (start 0.875 0.6125) (end 0.875 -0.6125) (layer "F.SilkS") (width 0.12) (tstamp f56f6875-4390-4a0c-84da-2c317b7753ff))
  (fp_rect (start 1.175 0.95) (end -1.15 -0.975) (layer "F.CrtYd") (width 0.12) (fill none) (tstamp acda3ee3-98f3-4bf8-a7dd-b741d5c51884))
  (fp_poly (pts
      (xy 0.775 0.6)
      (xy -0.5 0.6)
      (xy -0.775 0.3)
      (xy -0.775 -0.625)
      (xy 0.775 -0.625)
    ) (layer "F.Fab") (width 0.1) (fill none) (tstamp 120eb548-bc5f-4ef2-8bcc-cb3ae49d13e5))
  (pad "1" smd rect (at -0.65 0.42) (size 0.32 0.66) (layers "F.Cu" "F.Paste" "F.Mask") (tstamp 6df613c0-4dbb-43d3-a8fb-3dd61a1c4368))
  (pad "2" smd rect (at -0.2 0.42) (size 0.22 0.66) (layers "F.Cu" "F.Paste" "F.Mask") (tstamp 3d8e68eb-013b-43ae-94e1-88766341d7da))
  (pad "3" smd rect (at 0.2 0.42) (size 0.22 0.66) (layers "F.Cu" "F.Paste" "F.Mask") (tstamp 43fbe001-5a90-4f75-893f-4d518ae0b700))
  (pad "4" smd rect (at 0.6 0.42) (size 0.22 0.66) (layers "F.Cu" "F.Paste" "F.Mask") (tstamp d96a8990-232e-4b5e-861d-3b22040f8010))
  (pad "5" smd rect (at 0.6 -0.42) (size 0.22 0.66) (layers "F.Cu" "F.Paste" "F.Mask") (tstamp fa6097e4-1863-463f-9234-912fde1fb831))
  (pad "6" smd rect (at 0.2 -0.42) (size 0.22 0.66) (layers "F.Cu" "F.Paste" "F.Mask") (tstamp 805b4aeb-c4c4-43dd-ae94-787bdec328da))
  (pad "7" smd rect (at -0.2 -0.42) (size 0.22 0.66) (layers "F.Cu" "F.Paste" "F.Mask") (tstamp a1007db8-59b6-4ff5-a49f-e60c02cf7716))
  (pad "8" smd rect (at -0.6 -0.42) (size 0.22 0.66) (layers "F.Cu" "F.Paste" "F.Mask") (tstamp 8458200c-52eb-4e5a-863f-d1b2f7bfbd89))
)
