M48
; DRILL file {KiCad (6.0.6)} date Mon Jul 11 16:15:05 2022
; FORMAT={-:-/ absolute / metric / decimal}
; #@! TF.CreationDate,2022-07-11T16:15:05+02:00
; #@! TF.GenerationSoftware,Kicad,Pcbnew,(6.0.6)
; #@! TF.FileFunction,Plated,1,2,PTH
FMAT,2
METRIC
; #@! TA.AperFunction,Plated,PTH,ViaDrill
T1C0.200
; #@! TA.AperFunction,Plated,PTH,ViaDrill
T2C0.300
; #@! TA.AperFunction,Plated,PTH,ComponentDrill
T3C0.600
%
G90
G05
T1
X-5.95Y-12.35
X-0.58Y-4.264
X-0.494Y-5.05
X0.25Y-5.1
X0.57Y-4.425
X1.291Y-4.525
X1.548Y-5.623
X2.075Y-5.225
X5.15Y-8.25
X5.589Y-7.811
T2
X-5.025Y-5.8
X-5.025Y-6.55
X-1.136Y-5.186
X-1.1Y-5.84
X2.906Y-4.456
X3.55Y-12.15
X3.634Y-4.456
X4.35Y-12.15
T3
X-5.62Y2.6G85X-5.62Y1.4
G05
X-5.62Y-1.6G85X-5.62Y-2.4
G05
X5.62Y2.6G85X5.62Y1.4
G05
X5.62Y-1.6G85X5.62Y-2.4
G05
T0
M30
