EESchema Schematic File Version 4
EELAYER 30 0
EELAYER END
$Descr A4 11693 8268
encoding utf-8
Sheet 1 1
Title ""
Date ""
Rev ""
Comp ""
Comment1 ""
Comment2 ""
Comment3 ""
Comment4 ""
$EndDescr
$Comp
L Switch:SW_Push SW41
U 1 1 6156E46C
P 9150 1400
F 0 "SW41" H 9150 1685 50  0000 C CNN
F 1 "SW_Push" H 9150 1594 50  0000 C CNN
F 2 "Button_Switch_Keyboard:SW_Cherry_MX_1.00u_PCB" H 9150 1600 50  0001 C CNN
F 3 "~" H 9150 1600 50  0001 C CNN
	1    9150 1400
	1    0    0    -1  
$EndComp
$Comp
L Switch:SW_Push SW42
U 1 1 6156F29A
P 9150 1900
F 0 "SW42" H 9150 2185 50  0000 C CNN
F 1 "SW_Push" H 9150 2094 50  0000 C CNN
F 2 "Button_Switch_Keyboard:SW_Cherry_MX_1.00u_PCB" H 9150 2100 50  0001 C CNN
F 3 "~" H 9150 2100 50  0001 C CNN
	1    9150 1900
	1    0    0    -1  
$EndComp
$Comp
L Switch:SW_Push SW43
U 1 1 6156F56F
P 9150 2550
F 0 "SW43" H 9150 2835 50  0000 C CNN
F 1 "SW_Push" H 9150 2744 50  0000 C CNN
F 2 "Button_Switch_Keyboard:SW_Cherry_MX_1.00u_PCB" H 9150 2750 50  0001 C CNN
F 3 "~" H 9150 2750 50  0001 C CNN
	1    9150 2550
	1    0    0    -1  
$EndComp
$Comp
L Switch:SW_Push SW44
U 1 1 6156F7D5
P 9150 3200
F 0 "SW44" H 9150 3485 50  0000 C CNN
F 1 "SW_Push" H 9150 3394 50  0000 C CNN
F 2 "Button_Switch_Keyboard:SW_Cherry_MX_1.00u_PCB" H 9150 3400 50  0001 C CNN
F 3 "~" H 9150 3400 50  0001 C CNN
	1    9150 3200
	1    0    0    -1  
$EndComp
$Comp
L Switch:SW_Push SW37
U 1 1 6157134E
P 8550 1400
F 0 "SW37" H 8550 1685 50  0000 C CNN
F 1 "SW_Push" H 8550 1594 50  0000 C CNN
F 2 "Button_Switch_Keyboard:SW_Cherry_MX_1.00u_PCB" H 8550 1600 50  0001 C CNN
F 3 "~" H 8550 1600 50  0001 C CNN
	1    8550 1400
	1    0    0    -1  
$EndComp
$Comp
L Switch:SW_Push SW38
U 1 1 61571354
P 8550 1900
F 0 "SW38" H 8550 2185 50  0000 C CNN
F 1 "SW_Push" H 8550 2094 50  0000 C CNN
F 2 "Button_Switch_Keyboard:SW_Cherry_MX_1.00u_PCB" H 8550 2100 50  0001 C CNN
F 3 "~" H 8550 2100 50  0001 C CNN
	1    8550 1900
	1    0    0    -1  
$EndComp
$Comp
L Switch:SW_Push SW39
U 1 1 6157135A
P 8550 2550
F 0 "SW39" H 8550 2835 50  0000 C CNN
F 1 "SW_Push" H 8550 2744 50  0000 C CNN
F 2 "Button_Switch_Keyboard:SW_Cherry_MX_1.00u_PCB" H 8550 2750 50  0001 C CNN
F 3 "~" H 8550 2750 50  0001 C CNN
	1    8550 2550
	1    0    0    -1  
$EndComp
$Comp
L Switch:SW_Push SW40
U 1 1 61571360
P 8550 3200
F 0 "SW40" H 8550 3485 50  0000 C CNN
F 1 "SW_Push" H 8550 3394 50  0000 C CNN
F 2 "Button_Switch_Keyboard:SW_Cherry_MX_1.00u_PCB" H 8550 3400 50  0001 C CNN
F 3 "~" H 8550 3400 50  0001 C CNN
	1    8550 3200
	1    0    0    -1  
$EndComp
$Comp
L Switch:SW_Push SW33
U 1 1 6157336C
P 7950 1400
F 0 "SW33" H 7950 1685 50  0000 C CNN
F 1 "SW_Push" H 7950 1594 50  0000 C CNN
F 2 "Button_Switch_Keyboard:SW_Cherry_MX_1.00u_PCB" H 7950 1600 50  0001 C CNN
F 3 "~" H 7950 1600 50  0001 C CNN
	1    7950 1400
	1    0    0    -1  
$EndComp
$Comp
L Switch:SW_Push SW34
U 1 1 61573372
P 7950 1900
F 0 "SW34" H 7950 2185 50  0000 C CNN
F 1 "SW_Push" H 7950 2094 50  0000 C CNN
F 2 "Button_Switch_Keyboard:SW_Cherry_MX_1.00u_PCB" H 7950 2100 50  0001 C CNN
F 3 "~" H 7950 2100 50  0001 C CNN
	1    7950 1900
	1    0    0    -1  
$EndComp
$Comp
L Switch:SW_Push SW35
U 1 1 61573378
P 7950 2550
F 0 "SW35" H 7950 2835 50  0000 C CNN
F 1 "SW_Push" H 7950 2744 50  0000 C CNN
F 2 "Button_Switch_Keyboard:SW_Cherry_MX_1.00u_PCB" H 7950 2750 50  0001 C CNN
F 3 "~" H 7950 2750 50  0001 C CNN
	1    7950 2550
	1    0    0    -1  
$EndComp
$Comp
L Switch:SW_Push SW36
U 1 1 6157337E
P 7950 3200
F 0 "SW36" H 7950 3485 50  0000 C CNN
F 1 "SW_Push" H 7950 3394 50  0000 C CNN
F 2 "Button_Switch_Keyboard:SW_Cherry_MX_1.00u_PCB" H 7950 3400 50  0001 C CNN
F 3 "~" H 7950 3400 50  0001 C CNN
	1    7950 3200
	1    0    0    -1  
$EndComp
$Comp
L Switch:SW_Push SW29
U 1 1 615782EE
P 7350 1400
F 0 "SW29" H 7350 1685 50  0000 C CNN
F 1 "SW_Push" H 7350 1594 50  0000 C CNN
F 2 "Button_Switch_Keyboard:SW_Cherry_MX_1.00u_PCB" H 7350 1600 50  0001 C CNN
F 3 "~" H 7350 1600 50  0001 C CNN
	1    7350 1400
	1    0    0    -1  
$EndComp
$Comp
L Switch:SW_Push SW30
U 1 1 615782F4
P 7350 1900
F 0 "SW30" H 7350 2185 50  0000 C CNN
F 1 "SW_Push" H 7350 2094 50  0000 C CNN
F 2 "Button_Switch_Keyboard:SW_Cherry_MX_1.00u_PCB" H 7350 2100 50  0001 C CNN
F 3 "~" H 7350 2100 50  0001 C CNN
	1    7350 1900
	1    0    0    -1  
$EndComp
$Comp
L Switch:SW_Push SW31
U 1 1 615782FA
P 7350 2550
F 0 "SW31" H 7350 2835 50  0000 C CNN
F 1 "SW_Push" H 7350 2744 50  0000 C CNN
F 2 "Button_Switch_Keyboard:SW_Cherry_MX_1.00u_PCB" H 7350 2750 50  0001 C CNN
F 3 "~" H 7350 2750 50  0001 C CNN
	1    7350 2550
	1    0    0    -1  
$EndComp
$Comp
L Switch:SW_Push SW32
U 1 1 61578300
P 7350 3200
F 0 "SW32" H 7350 3485 50  0000 C CNN
F 1 "SW_Push" H 7350 3394 50  0000 C CNN
F 2 "Button_Switch_Keyboard:SW_Cherry_MX_1.00u_PCB" H 7350 3400 50  0001 C CNN
F 3 "~" H 7350 3400 50  0001 C CNN
	1    7350 3200
	1    0    0    -1  
$EndComp
$Comp
L Switch:SW_Push SW25
U 1 1 6157B596
P 6750 1400
F 0 "SW25" H 6750 1685 50  0000 C CNN
F 1 "SW_Push" H 6750 1594 50  0000 C CNN
F 2 "Button_Switch_Keyboard:SW_Cherry_MX_1.00u_PCB" H 6750 1600 50  0001 C CNN
F 3 "~" H 6750 1600 50  0001 C CNN
	1    6750 1400
	1    0    0    -1  
$EndComp
$Comp
L Switch:SW_Push SW26
U 1 1 6157B59C
P 6750 1900
F 0 "SW26" H 6750 2185 50  0000 C CNN
F 1 "SW_Push" H 6750 2094 50  0000 C CNN
F 2 "Button_Switch_Keyboard:SW_Cherry_MX_1.00u_PCB" H 6750 2100 50  0001 C CNN
F 3 "~" H 6750 2100 50  0001 C CNN
	1    6750 1900
	1    0    0    -1  
$EndComp
$Comp
L Switch:SW_Push SW27
U 1 1 6157B5A2
P 6750 2550
F 0 "SW27" H 6750 2835 50  0000 C CNN
F 1 "SW_Push" H 6750 2744 50  0000 C CNN
F 2 "Button_Switch_Keyboard:SW_Cherry_MX_1.00u_PCB" H 6750 2750 50  0001 C CNN
F 3 "~" H 6750 2750 50  0001 C CNN
	1    6750 2550
	1    0    0    -1  
$EndComp
$Comp
L Switch:SW_Push SW28
U 1 1 6157B5A8
P 6750 3200
F 0 "SW28" H 6750 3485 50  0000 C CNN
F 1 "SW_Push" H 6750 3394 50  0000 C CNN
F 2 "Button_Switch_Keyboard:SW_Cherry_MX_1.00u_PCB" H 6750 3400 50  0001 C CNN
F 3 "~" H 6750 3400 50  0001 C CNN
	1    6750 3200
	1    0    0    -1  
$EndComp
$Comp
L Switch:SW_Push SW23
U 1 1 6157C206
P 6150 2550
F 0 "SW23" H 6150 2835 50  0000 C CNN
F 1 "SW_Push" H 6150 2744 50  0000 C CNN
F 2 "Button_Switch_Keyboard:SW_Cherry_MX_1.00u_PCB" H 6150 2750 50  0001 C CNN
F 3 "~" H 6150 2750 50  0001 C CNN
	1    6150 2550
	1    0    0    -1  
$EndComp
$Comp
L Switch:SW_Push SW24
U 1 1 6157C20C
P 6150 3200
F 0 "SW24" H 6150 3485 50  0000 C CNN
F 1 "SW_Push" H 6150 3394 50  0000 C CNN
F 2 "Button_Switch_Keyboard:SW_Cherry_MX_1.00u_PCB" H 6150 3400 50  0001 C CNN
F 3 "~" H 6150 3400 50  0001 C CNN
	1    6150 3200
	1    0    0    -1  
$EndComp
$Comp
L Switch:SW_Push SW17
U 1 1 61583DFE
P 4600 1400
F 0 "SW17" H 4600 1685 50  0000 C CNN
F 1 "SW_Push" H 4600 1594 50  0000 C CNN
F 2 "Button_Switch_Keyboard:SW_Cherry_MX_1.00u_PCB" H 4600 1600 50  0001 C CNN
F 3 "~" H 4600 1600 50  0001 C CNN
	1    4600 1400
	1    0    0    -1  
$EndComp
$Comp
L Switch:SW_Push SW18
U 1 1 61583E04
P 4600 1900
F 0 "SW18" H 4600 2185 50  0000 C CNN
F 1 "SW_Push" H 4600 2094 50  0000 C CNN
F 2 "Button_Switch_Keyboard:SW_Cherry_MX_1.00u_PCB" H 4600 2100 50  0001 C CNN
F 3 "~" H 4600 2100 50  0001 C CNN
	1    4600 1900
	1    0    0    -1  
$EndComp
$Comp
L Switch:SW_Push SW19
U 1 1 61583E0A
P 4600 2550
F 0 "SW19" H 4600 2835 50  0000 C CNN
F 1 "SW_Push" H 4600 2744 50  0000 C CNN
F 2 "Button_Switch_Keyboard:SW_Cherry_MX_1.00u_PCB" H 4600 2750 50  0001 C CNN
F 3 "~" H 4600 2750 50  0001 C CNN
	1    4600 2550
	1    0    0    -1  
$EndComp
$Comp
L Switch:SW_Push SW20
U 1 1 61583E10
P 4600 3200
F 0 "SW20" H 4600 3485 50  0000 C CNN
F 1 "SW_Push" H 4600 3394 50  0000 C CNN
F 2 "Button_Switch_Keyboard:SW_Cherry_MX_1.00u_PCB" H 4600 3400 50  0001 C CNN
F 3 "~" H 4600 3400 50  0001 C CNN
	1    4600 3200
	1    0    0    -1  
$EndComp
$Comp
L Switch:SW_Push SW13
U 1 1 61583E16
P 4000 1400
F 0 "SW13" H 4000 1685 50  0000 C CNN
F 1 "SW_Push" H 4000 1594 50  0000 C CNN
F 2 "Button_Switch_Keyboard:SW_Cherry_MX_1.00u_PCB" H 4000 1600 50  0001 C CNN
F 3 "~" H 4000 1600 50  0001 C CNN
	1    4000 1400
	1    0    0    -1  
$EndComp
$Comp
L Switch:SW_Push SW14
U 1 1 61583E1C
P 4000 1900
F 0 "SW14" H 4000 2185 50  0000 C CNN
F 1 "SW_Push" H 4000 2094 50  0000 C CNN
F 2 "Button_Switch_Keyboard:SW_Cherry_MX_1.00u_PCB" H 4000 2100 50  0001 C CNN
F 3 "~" H 4000 2100 50  0001 C CNN
	1    4000 1900
	1    0    0    -1  
$EndComp
$Comp
L Switch:SW_Push SW15
U 1 1 61583E22
P 4000 2550
F 0 "SW15" H 4000 2835 50  0000 C CNN
F 1 "SW_Push" H 4000 2744 50  0000 C CNN
F 2 "Button_Switch_Keyboard:SW_Cherry_MX_1.00u_PCB" H 4000 2750 50  0001 C CNN
F 3 "~" H 4000 2750 50  0001 C CNN
	1    4000 2550
	1    0    0    -1  
$EndComp
$Comp
L Switch:SW_Push SW16
U 1 1 61583E28
P 4000 3200
F 0 "SW16" H 4000 3485 50  0000 C CNN
F 1 "SW_Push" H 4000 3394 50  0000 C CNN
F 2 "Button_Switch_Keyboard:SW_Cherry_MX_1.00u_PCB" H 4000 3400 50  0001 C CNN
F 3 "~" H 4000 3400 50  0001 C CNN
	1    4000 3200
	1    0    0    -1  
$EndComp
$Comp
L Switch:SW_Push SW9
U 1 1 61583E2E
P 3400 1400
F 0 "SW9" H 3400 1685 50  0000 C CNN
F 1 "SW_Push" H 3400 1594 50  0000 C CNN
F 2 "Button_Switch_Keyboard:SW_Cherry_MX_1.00u_PCB" H 3400 1600 50  0001 C CNN
F 3 "~" H 3400 1600 50  0001 C CNN
	1    3400 1400
	1    0    0    -1  
$EndComp
$Comp
L Switch:SW_Push SW10
U 1 1 61583E34
P 3400 1900
F 0 "SW10" H 3400 2185 50  0000 C CNN
F 1 "SW_Push" H 3400 2094 50  0000 C CNN
F 2 "Button_Switch_Keyboard:SW_Cherry_MX_1.00u_PCB" H 3400 2100 50  0001 C CNN
F 3 "~" H 3400 2100 50  0001 C CNN
	1    3400 1900
	1    0    0    -1  
$EndComp
$Comp
L Switch:SW_Push SW11
U 1 1 61583E3A
P 3400 2550
F 0 "SW11" H 3400 2835 50  0000 C CNN
F 1 "SW_Push" H 3400 2744 50  0000 C CNN
F 2 "Button_Switch_Keyboard:SW_Cherry_MX_1.00u_PCB" H 3400 2750 50  0001 C CNN
F 3 "~" H 3400 2750 50  0001 C CNN
	1    3400 2550
	1    0    0    -1  
$EndComp
$Comp
L Switch:SW_Push SW12
U 1 1 61583E40
P 3400 3200
F 0 "SW12" H 3400 3485 50  0000 C CNN
F 1 "SW_Push" H 3400 3394 50  0000 C CNN
F 2 "Button_Switch_Keyboard:SW_Cherry_MX_1.00u_PCB" H 3400 3400 50  0001 C CNN
F 3 "~" H 3400 3400 50  0001 C CNN
	1    3400 3200
	1    0    0    -1  
$EndComp
$Comp
L Switch:SW_Push SW5
U 1 1 61583E46
P 2800 1400
F 0 "SW5" H 2800 1685 50  0000 C CNN
F 1 "SW_Push" H 2800 1594 50  0000 C CNN
F 2 "Button_Switch_Keyboard:SW_Cherry_MX_1.00u_PCB" H 2800 1600 50  0001 C CNN
F 3 "~" H 2800 1600 50  0001 C CNN
	1    2800 1400
	1    0    0    -1  
$EndComp
$Comp
L Switch:SW_Push SW6
U 1 1 61583E4C
P 2800 1900
F 0 "SW6" H 2800 2185 50  0000 C CNN
F 1 "SW_Push" H 2800 2094 50  0000 C CNN
F 2 "Button_Switch_Keyboard:SW_Cherry_MX_1.00u_PCB" H 2800 2100 50  0001 C CNN
F 3 "~" H 2800 2100 50  0001 C CNN
	1    2800 1900
	1    0    0    -1  
$EndComp
$Comp
L Switch:SW_Push SW7
U 1 1 61583E52
P 2800 2550
F 0 "SW7" H 2800 2835 50  0000 C CNN
F 1 "SW_Push" H 2800 2744 50  0000 C CNN
F 2 "Button_Switch_Keyboard:SW_Cherry_MX_1.00u_PCB" H 2800 2750 50  0001 C CNN
F 3 "~" H 2800 2750 50  0001 C CNN
	1    2800 2550
	1    0    0    -1  
$EndComp
$Comp
L Switch:SW_Push SW8
U 1 1 61583E58
P 2800 3200
F 0 "SW8" H 2800 3485 50  0000 C CNN
F 1 "SW_Push" H 2800 3394 50  0000 C CNN
F 2 "Button_Switch_Keyboard:SW_Cherry_MX_1.00u_PCB" H 2800 3400 50  0001 C CNN
F 3 "~" H 2800 3400 50  0001 C CNN
	1    2800 3200
	1    0    0    -1  
$EndComp
$Comp
L Switch:SW_Push SW1
U 1 1 61583E5E
P 2200 1400
F 0 "SW1" H 2200 1685 50  0000 C CNN
F 1 "SW_Push" H 2200 1594 50  0000 C CNN
F 2 "Button_Switch_Keyboard:SW_Cherry_MX_1.00u_PCB" H 2200 1600 50  0001 C CNN
F 3 "~" H 2200 1600 50  0001 C CNN
	1    2200 1400
	1    0    0    -1  
$EndComp
$Comp
L Switch:SW_Push SW2
U 1 1 61583E64
P 2200 1900
F 0 "SW2" H 2200 2185 50  0000 C CNN
F 1 "SW_Push" H 2200 2094 50  0000 C CNN
F 2 "Button_Switch_Keyboard:SW_Cherry_MX_1.00u_PCB" H 2200 2100 50  0001 C CNN
F 3 "~" H 2200 2100 50  0001 C CNN
	1    2200 1900
	1    0    0    -1  
$EndComp
$Comp
L Switch:SW_Push SW3
U 1 1 61583E6A
P 2200 2550
F 0 "SW3" H 2200 2835 50  0000 C CNN
F 1 "SW_Push" H 2200 2744 50  0000 C CNN
F 2 "Button_Switch_Keyboard:SW_Cherry_MX_1.00u_PCB" H 2200 2750 50  0001 C CNN
F 3 "~" H 2200 2750 50  0001 C CNN
	1    2200 2550
	1    0    0    -1  
$EndComp
$Comp
L Switch:SW_Push SW4
U 1 1 61583E70
P 2200 3200
F 0 "SW4" H 2200 3485 50  0000 C CNN
F 1 "SW_Push" H 2200 3394 50  0000 C CNN
F 2 "Button_Switch_Keyboard:SW_Cherry_MX_1.00u_PCB" H 2200 3400 50  0001 C CNN
F 3 "~" H 2200 3400 50  0001 C CNN
	1    2200 3200
	1    0    0    -1  
$EndComp
$Comp
L Switch:SW_Push SW21
U 1 1 61583E76
P 5200 2550
F 0 "SW21" H 5200 2835 50  0000 C CNN
F 1 "SW_Push" H 5200 2744 50  0000 C CNN
F 2 "Button_Switch_Keyboard:SW_Cherry_MX_1.00u_PCB" H 5200 2750 50  0001 C CNN
F 3 "~" H 5200 2750 50  0001 C CNN
	1    5200 2550
	1    0    0    -1  
$EndComp
$Comp
L Switch:SW_Push SW22
U 1 1 61583E7C
P 5200 3200
F 0 "SW22" H 5200 3485 50  0000 C CNN
F 1 "SW_Push" H 5200 3394 50  0000 C CNN
F 2 "Button_Switch_Keyboard:SW_Cherry_MX_1.00u_PCB" H 5200 3400 50  0001 C CNN
F 3 "~" H 5200 3400 50  0001 C CNN
	1    5200 3200
	1    0    0    -1  
$EndComp
$Comp
L Device:D D1
U 1 1 615A0690
P 2000 1250
F 0 "D1" V 2046 1170 50  0000 R CNN
F 1 "D" V 1955 1170 50  0000 R CNN
F 2 "Diode_THT:D_DO-34_SOD68_P12.70mm_Horizontal" H 2000 1250 50  0001 C CNN
F 3 "~" H 2000 1250 50  0001 C CNN
	1    2000 1250
	0    1    1    0   
$EndComp
$Comp
L Device:D D5
U 1 1 615A0C28
P 2600 1250
F 0 "D5" V 2646 1170 50  0000 R CNN
F 1 "D" V 2555 1170 50  0000 R CNN
F 2 "Diode_THT:D_DO-34_SOD68_P12.70mm_Horizontal" H 2600 1250 50  0001 C CNN
F 3 "~" H 2600 1250 50  0001 C CNN
	1    2600 1250
	0    1    1    0   
$EndComp
$Comp
L Device:D D9
U 1 1 615A1033
P 3200 1250
F 0 "D9" V 3246 1170 50  0000 R CNN
F 1 "D" V 3155 1170 50  0000 R CNN
F 2 "Diode_THT:D_DO-34_SOD68_P12.70mm_Horizontal" H 3200 1250 50  0001 C CNN
F 3 "~" H 3200 1250 50  0001 C CNN
	1    3200 1250
	0    1    1    0   
$EndComp
$Comp
L Device:D D13
U 1 1 615A14CF
P 3800 1250
F 0 "D13" V 3846 1170 50  0000 R CNN
F 1 "D" V 3755 1170 50  0000 R CNN
F 2 "Diode_THT:D_DO-34_SOD68_P12.70mm_Horizontal" H 3800 1250 50  0001 C CNN
F 3 "~" H 3800 1250 50  0001 C CNN
	1    3800 1250
	0    1    1    0   
$EndComp
$Comp
L Device:D D17
U 1 1 615A1970
P 4400 1250
F 0 "D17" V 4446 1170 50  0000 R CNN
F 1 "D" V 4355 1170 50  0000 R CNN
F 2 "Diode_THT:D_DO-34_SOD68_P12.70mm_Horizontal" H 4400 1250 50  0001 C CNN
F 3 "~" H 4400 1250 50  0001 C CNN
	1    4400 1250
	0    1    1    0   
$EndComp
$Comp
L Device:D D2
U 1 1 615A3BC1
P 2000 1750
F 0 "D2" V 2046 1670 50  0000 R CNN
F 1 "D" V 1955 1670 50  0000 R CNN
F 2 "Diode_THT:D_DO-34_SOD68_P12.70mm_Horizontal" H 2000 1750 50  0001 C CNN
F 3 "~" H 2000 1750 50  0001 C CNN
	1    2000 1750
	0    1    1    0   
$EndComp
$Comp
L Device:D D6
U 1 1 615A3BC7
P 2600 1750
F 0 "D6" V 2646 1670 50  0000 R CNN
F 1 "D" V 2555 1670 50  0000 R CNN
F 2 "Diode_THT:D_DO-34_SOD68_P12.70mm_Horizontal" H 2600 1750 50  0001 C CNN
F 3 "~" H 2600 1750 50  0001 C CNN
	1    2600 1750
	0    1    1    0   
$EndComp
$Comp
L Device:D D10
U 1 1 615A3BCD
P 3200 1750
F 0 "D10" V 3246 1670 50  0000 R CNN
F 1 "D" V 3155 1670 50  0000 R CNN
F 2 "Diode_THT:D_DO-34_SOD68_P12.70mm_Horizontal" H 3200 1750 50  0001 C CNN
F 3 "~" H 3200 1750 50  0001 C CNN
	1    3200 1750
	0    1    1    0   
$EndComp
$Comp
L Device:D D14
U 1 1 615A3BD3
P 3800 1750
F 0 "D14" V 3846 1670 50  0000 R CNN
F 1 "D" V 3755 1670 50  0000 R CNN
F 2 "Diode_THT:D_DO-34_SOD68_P12.70mm_Horizontal" H 3800 1750 50  0001 C CNN
F 3 "~" H 3800 1750 50  0001 C CNN
	1    3800 1750
	0    1    1    0   
$EndComp
$Comp
L Device:D D18
U 1 1 615A3BD9
P 4400 1750
F 0 "D18" V 4446 1670 50  0000 R CNN
F 1 "D" V 4355 1670 50  0000 R CNN
F 2 "Diode_THT:D_DO-34_SOD68_P12.70mm_Horizontal" H 4400 1750 50  0001 C CNN
F 3 "~" H 4400 1750 50  0001 C CNN
	1    4400 1750
	0    1    1    0   
$EndComp
$Comp
L Device:D D3
U 1 1 615A5AA0
P 2000 2400
F 0 "D3" V 2046 2320 50  0000 R CNN
F 1 "D" V 1955 2320 50  0000 R CNN
F 2 "Diode_THT:D_DO-34_SOD68_P12.70mm_Horizontal" H 2000 2400 50  0001 C CNN
F 3 "~" H 2000 2400 50  0001 C CNN
	1    2000 2400
	0    1    1    0   
$EndComp
$Comp
L Device:D D7
U 1 1 615A5AA6
P 2600 2400
F 0 "D7" V 2646 2320 50  0000 R CNN
F 1 "D" V 2555 2320 50  0000 R CNN
F 2 "Diode_THT:D_DO-34_SOD68_P12.70mm_Horizontal" H 2600 2400 50  0001 C CNN
F 3 "~" H 2600 2400 50  0001 C CNN
	1    2600 2400
	0    1    1    0   
$EndComp
$Comp
L Device:D D11
U 1 1 615A5AAC
P 3200 2400
F 0 "D11" V 3246 2320 50  0000 R CNN
F 1 "D" V 3155 2320 50  0000 R CNN
F 2 "Diode_THT:D_DO-34_SOD68_P12.70mm_Horizontal" H 3200 2400 50  0001 C CNN
F 3 "~" H 3200 2400 50  0001 C CNN
	1    3200 2400
	0    1    1    0   
$EndComp
$Comp
L Device:D D15
U 1 1 615A5AB2
P 3800 2400
F 0 "D15" V 3846 2320 50  0000 R CNN
F 1 "D" V 3755 2320 50  0000 R CNN
F 2 "Diode_THT:D_DO-34_SOD68_P12.70mm_Horizontal" H 3800 2400 50  0001 C CNN
F 3 "~" H 3800 2400 50  0001 C CNN
	1    3800 2400
	0    1    1    0   
$EndComp
$Comp
L Device:D D19
U 1 1 615A5AB8
P 4400 2400
F 0 "D19" V 4446 2320 50  0000 R CNN
F 1 "D" V 4355 2320 50  0000 R CNN
F 2 "Diode_THT:D_DO-34_SOD68_P12.70mm_Horizontal" H 4400 2400 50  0001 C CNN
F 3 "~" H 4400 2400 50  0001 C CNN
	1    4400 2400
	0    1    1    0   
$EndComp
$Comp
L Device:D D4
U 1 1 615A6CEF
P 2000 3050
F 0 "D4" V 2046 2970 50  0000 R CNN
F 1 "D" V 1955 2970 50  0000 R CNN
F 2 "Diode_THT:D_DO-34_SOD68_P12.70mm_Horizontal" H 2000 3050 50  0001 C CNN
F 3 "~" H 2000 3050 50  0001 C CNN
	1    2000 3050
	0    1    1    0   
$EndComp
$Comp
L Device:D D8
U 1 1 615A6CF5
P 2600 3050
F 0 "D8" V 2646 2970 50  0000 R CNN
F 1 "D" V 2555 2970 50  0000 R CNN
F 2 "Diode_THT:D_DO-34_SOD68_P12.70mm_Horizontal" H 2600 3050 50  0001 C CNN
F 3 "~" H 2600 3050 50  0001 C CNN
	1    2600 3050
	0    1    1    0   
$EndComp
$Comp
L Device:D D12
U 1 1 615A6CFB
P 3200 3050
F 0 "D12" V 3246 2970 50  0000 R CNN
F 1 "D" V 3155 2970 50  0000 R CNN
F 2 "Diode_THT:D_DO-34_SOD68_P12.70mm_Horizontal" H 3200 3050 50  0001 C CNN
F 3 "~" H 3200 3050 50  0001 C CNN
	1    3200 3050
	0    1    1    0   
$EndComp
$Comp
L Device:D D16
U 1 1 615A6D01
P 3800 3050
F 0 "D16" V 3846 2970 50  0000 R CNN
F 1 "D" V 3755 2970 50  0000 R CNN
F 2 "Diode_THT:D_DO-34_SOD68_P12.70mm_Horizontal" H 3800 3050 50  0001 C CNN
F 3 "~" H 3800 3050 50  0001 C CNN
	1    3800 3050
	0    1    1    0   
$EndComp
$Comp
L Device:D D20
U 1 1 615A6D07
P 4400 3050
F 0 "D20" V 4446 2970 50  0000 R CNN
F 1 "D" V 4355 2970 50  0000 R CNN
F 2 "Diode_THT:D_DO-34_SOD68_P12.70mm_Horizontal" H 4400 3050 50  0001 C CNN
F 3 "~" H 4400 3050 50  0001 C CNN
	1    4400 3050
	0    1    1    0   
$EndComp
$Comp
L Device:D D28
U 1 1 615A8AFE
P 6550 3050
F 0 "D28" V 6596 2970 50  0000 R CNN
F 1 "D" V 6505 2970 50  0000 R CNN
F 2 "Diode_THT:D_DO-34_SOD68_P12.70mm_Horizontal" H 6550 3050 50  0001 C CNN
F 3 "~" H 6550 3050 50  0001 C CNN
	1    6550 3050
	0    1    1    0   
$EndComp
$Comp
L Device:D D32
U 1 1 615A8B04
P 7150 3050
F 0 "D32" V 7196 2970 50  0000 R CNN
F 1 "D" V 7105 2970 50  0000 R CNN
F 2 "Diode_THT:D_DO-34_SOD68_P12.70mm_Horizontal" H 7150 3050 50  0001 C CNN
F 3 "~" H 7150 3050 50  0001 C CNN
	1    7150 3050
	0    1    1    0   
$EndComp
$Comp
L Device:D D36
U 1 1 615A8B0A
P 7750 3050
F 0 "D36" V 7796 2970 50  0000 R CNN
F 1 "D" V 7705 2970 50  0000 R CNN
F 2 "Diode_THT:D_DO-34_SOD68_P12.70mm_Horizontal" H 7750 3050 50  0001 C CNN
F 3 "~" H 7750 3050 50  0001 C CNN
	1    7750 3050
	0    1    1    0   
$EndComp
$Comp
L Device:D D40
U 1 1 615A8B10
P 8350 3050
F 0 "D40" V 8396 2970 50  0000 R CNN
F 1 "D" V 8305 2970 50  0000 R CNN
F 2 "Diode_THT:D_DO-34_SOD68_P12.70mm_Horizontal" H 8350 3050 50  0001 C CNN
F 3 "~" H 8350 3050 50  0001 C CNN
	1    8350 3050
	0    1    1    0   
$EndComp
$Comp
L Device:D D44
U 1 1 615A8B16
P 8950 3050
F 0 "D44" V 8996 2970 50  0000 R CNN
F 1 "D" V 8905 2970 50  0000 R CNN
F 2 "Diode_THT:D_DO-34_SOD68_P12.70mm_Horizontal" H 8950 3050 50  0001 C CNN
F 3 "~" H 8950 3050 50  0001 C CNN
	1    8950 3050
	0    1    1    0   
$EndComp
$Comp
L Device:D D27
U 1 1 615AA367
P 6550 2400
F 0 "D27" V 6596 2320 50  0000 R CNN
F 1 "D" V 6505 2320 50  0000 R CNN
F 2 "Diode_THT:D_DO-34_SOD68_P12.70mm_Horizontal" H 6550 2400 50  0001 C CNN
F 3 "~" H 6550 2400 50  0001 C CNN
	1    6550 2400
	0    1    1    0   
$EndComp
$Comp
L Device:D D31
U 1 1 615AA36D
P 7150 2400
F 0 "D31" V 7196 2320 50  0000 R CNN
F 1 "D" V 7105 2320 50  0000 R CNN
F 2 "Diode_THT:D_DO-34_SOD68_P12.70mm_Horizontal" H 7150 2400 50  0001 C CNN
F 3 "~" H 7150 2400 50  0001 C CNN
	1    7150 2400
	0    1    1    0   
$EndComp
$Comp
L Device:D D35
U 1 1 615AA373
P 7750 2400
F 0 "D35" V 7796 2320 50  0000 R CNN
F 1 "D" V 7705 2320 50  0000 R CNN
F 2 "Diode_THT:D_DO-34_SOD68_P12.70mm_Horizontal" H 7750 2400 50  0001 C CNN
F 3 "~" H 7750 2400 50  0001 C CNN
	1    7750 2400
	0    1    1    0   
$EndComp
$Comp
L Device:D D39
U 1 1 615AA379
P 8350 2400
F 0 "D39" V 8396 2320 50  0000 R CNN
F 1 "D" V 8305 2320 50  0000 R CNN
F 2 "Diode_THT:D_DO-34_SOD68_P12.70mm_Horizontal" H 8350 2400 50  0001 C CNN
F 3 "~" H 8350 2400 50  0001 C CNN
	1    8350 2400
	0    1    1    0   
$EndComp
$Comp
L Device:D D43
U 1 1 615AA37F
P 8950 2400
F 0 "D43" V 8996 2320 50  0000 R CNN
F 1 "D" V 8905 2320 50  0000 R CNN
F 2 "Diode_THT:D_DO-34_SOD68_P12.70mm_Horizontal" H 8950 2400 50  0001 C CNN
F 3 "~" H 8950 2400 50  0001 C CNN
	1    8950 2400
	0    1    1    0   
$EndComp
$Comp
L Device:D D26
U 1 1 615AC50D
P 6550 1750
F 0 "D26" V 6596 1670 50  0000 R CNN
F 1 "D" V 6505 1670 50  0000 R CNN
F 2 "Diode_THT:D_DO-34_SOD68_P12.70mm_Horizontal" H 6550 1750 50  0001 C CNN
F 3 "~" H 6550 1750 50  0001 C CNN
	1    6550 1750
	0    1    1    0   
$EndComp
$Comp
L Device:D D30
U 1 1 615AC513
P 7150 1750
F 0 "D30" V 7196 1670 50  0000 R CNN
F 1 "D" V 7105 1670 50  0000 R CNN
F 2 "Diode_THT:D_DO-34_SOD68_P12.70mm_Horizontal" H 7150 1750 50  0001 C CNN
F 3 "~" H 7150 1750 50  0001 C CNN
	1    7150 1750
	0    1    1    0   
$EndComp
$Comp
L Device:D D34
U 1 1 615AC519
P 7750 1750
F 0 "D34" V 7796 1670 50  0000 R CNN
F 1 "D" V 7705 1670 50  0000 R CNN
F 2 "Diode_THT:D_DO-34_SOD68_P12.70mm_Horizontal" H 7750 1750 50  0001 C CNN
F 3 "~" H 7750 1750 50  0001 C CNN
	1    7750 1750
	0    1    1    0   
$EndComp
$Comp
L Device:D D38
U 1 1 615AC51F
P 8350 1750
F 0 "D38" V 8396 1670 50  0000 R CNN
F 1 "D" V 8305 1670 50  0000 R CNN
F 2 "Diode_THT:D_DO-34_SOD68_P12.70mm_Horizontal" H 8350 1750 50  0001 C CNN
F 3 "~" H 8350 1750 50  0001 C CNN
	1    8350 1750
	0    1    1    0   
$EndComp
$Comp
L Device:D D42
U 1 1 615AC525
P 8950 1750
F 0 "D42" V 8996 1670 50  0000 R CNN
F 1 "D" V 8905 1670 50  0000 R CNN
F 2 "Diode_THT:D_DO-34_SOD68_P12.70mm_Horizontal" H 8950 1750 50  0001 C CNN
F 3 "~" H 8950 1750 50  0001 C CNN
	1    8950 1750
	0    1    1    0   
$EndComp
$Comp
L Device:D D25
U 1 1 615ACF1A
P 6550 1250
F 0 "D25" V 6596 1170 50  0000 R CNN
F 1 "D" V 6505 1170 50  0000 R CNN
F 2 "Diode_THT:D_DO-34_SOD68_P12.70mm_Horizontal" H 6550 1250 50  0001 C CNN
F 3 "~" H 6550 1250 50  0001 C CNN
	1    6550 1250
	0    1    1    0   
$EndComp
$Comp
L Device:D D29
U 1 1 615ACF20
P 7150 1250
F 0 "D29" V 7196 1170 50  0000 R CNN
F 1 "D" V 7105 1170 50  0000 R CNN
F 2 "Diode_THT:D_DO-34_SOD68_P12.70mm_Horizontal" H 7150 1250 50  0001 C CNN
F 3 "~" H 7150 1250 50  0001 C CNN
	1    7150 1250
	0    1    1    0   
$EndComp
$Comp
L Device:D D33
U 1 1 615ACF26
P 7750 1250
F 0 "D33" V 7796 1170 50  0000 R CNN
F 1 "D" V 7705 1170 50  0000 R CNN
F 2 "Diode_THT:D_DO-34_SOD68_P12.70mm_Horizontal" H 7750 1250 50  0001 C CNN
F 3 "~" H 7750 1250 50  0001 C CNN
	1    7750 1250
	0    1    1    0   
$EndComp
$Comp
L Device:D D37
U 1 1 615ACF2C
P 8350 1250
F 0 "D37" V 8396 1170 50  0000 R CNN
F 1 "D" V 8305 1170 50  0000 R CNN
F 2 "Diode_THT:D_DO-34_SOD68_P12.70mm_Horizontal" H 8350 1250 50  0001 C CNN
F 3 "~" H 8350 1250 50  0001 C CNN
	1    8350 1250
	0    1    1    0   
$EndComp
$Comp
L Device:D D41
U 1 1 615ACF32
P 8950 1250
F 0 "D41" V 8996 1170 50  0000 R CNN
F 1 "D" V 8905 1170 50  0000 R CNN
F 2 "Diode_THT:D_DO-34_SOD68_P12.70mm_Horizontal" H 8950 1250 50  0001 C CNN
F 3 "~" H 8950 1250 50  0001 C CNN
	1    8950 1250
	0    1    1    0   
$EndComp
Wire Wire Line
	8950 1100 8350 1100
Connection ~ 7150 1100
Wire Wire Line
	7150 1100 6550 1100
Connection ~ 7750 1100
Wire Wire Line
	7750 1100 7150 1100
Connection ~ 8350 1100
Wire Wire Line
	8350 1100 7750 1100
Wire Wire Line
	6550 1600 7150 1600
Connection ~ 7150 1600
Wire Wire Line
	7150 1600 7750 1600
Connection ~ 7750 1600
Wire Wire Line
	7750 1600 8350 1600
Connection ~ 8350 1600
Wire Wire Line
	8350 1600 8950 1600
Wire Wire Line
	8950 2250 8350 2250
Connection ~ 7150 2250
Wire Wire Line
	7150 2250 6550 2250
Connection ~ 7750 2250
Wire Wire Line
	7750 2250 7150 2250
Connection ~ 8350 2250
Wire Wire Line
	8350 2250 7750 2250
$Comp
L Device:D D24
U 1 1 615B05F0
P 5950 3050
F 0 "D24" V 5996 2970 50  0000 R CNN
F 1 "D" V 5905 2970 50  0000 R CNN
F 2 "Diode_THT:D_DO-34_SOD68_P12.70mm_Horizontal" H 5950 3050 50  0001 C CNN
F 3 "~" H 5950 3050 50  0001 C CNN
	1    5950 3050
	0    1    1    0   
$EndComp
$Comp
L Device:D D23
U 1 1 615B0895
P 5950 2400
F 0 "D23" V 5996 2320 50  0000 R CNN
F 1 "D" V 5905 2320 50  0000 R CNN
F 2 "Diode_THT:D_DO-34_SOD68_P12.70mm_Horizontal" H 5950 2400 50  0001 C CNN
F 3 "~" H 5950 2400 50  0001 C CNN
	1    5950 2400
	0    1    1    0   
$EndComp
$Comp
L Device:D D21
U 1 1 615B0EFA
P 5000 2400
F 0 "D21" V 5046 2320 50  0000 R CNN
F 1 "D" V 4955 2320 50  0000 R CNN
F 2 "Diode_THT:D_DO-34_SOD68_P12.70mm_Horizontal" H 5000 2400 50  0001 C CNN
F 3 "~" H 5000 2400 50  0001 C CNN
	1    5000 2400
	0    1    1    0   
$EndComp
$Comp
L Device:D D22
U 1 1 615B12F3
P 5000 3050
F 0 "D22" V 5046 2970 50  0000 R CNN
F 1 "D" V 4955 2970 50  0000 R CNN
F 2 "Diode_THT:D_DO-34_SOD68_P12.70mm_Horizontal" H 5000 3050 50  0001 C CNN
F 3 "~" H 5000 3050 50  0001 C CNN
	1    5000 3050
	0    1    1    0   
$EndComp
Wire Wire Line
	6550 1100 4400 1100
Connection ~ 6550 1100
Connection ~ 2600 1100
Wire Wire Line
	2600 1100 2000 1100
Connection ~ 3200 1100
Wire Wire Line
	3200 1100 2600 1100
Connection ~ 3800 1100
Wire Wire Line
	3800 1100 3200 1100
Connection ~ 4400 1100
Wire Wire Line
	4400 1100 3800 1100
Wire Wire Line
	2000 1600 2600 1600
Connection ~ 6550 1600
Connection ~ 2600 1600
Wire Wire Line
	2600 1600 3200 1600
Connection ~ 3200 1600
Wire Wire Line
	3200 1600 3800 1600
Connection ~ 3800 1600
Wire Wire Line
	3800 1600 4400 1600
Connection ~ 4400 1600
Wire Wire Line
	4400 1600 6550 1600
Wire Wire Line
	6550 2250 5950 2250
Connection ~ 6550 2250
Connection ~ 2600 2250
Wire Wire Line
	2600 2250 2000 2250
Connection ~ 3200 2250
Wire Wire Line
	3200 2250 2600 2250
Connection ~ 3800 2250
Wire Wire Line
	3800 2250 3200 2250
Connection ~ 4400 2250
Wire Wire Line
	4400 2250 3800 2250
Connection ~ 5000 2250
Wire Wire Line
	5000 2250 4400 2250
Connection ~ 5950 2250
Wire Wire Line
	5950 2250 5000 2250
Wire Wire Line
	2000 2900 2600 2900
Connection ~ 2600 2900
Wire Wire Line
	2600 2900 3200 2900
Connection ~ 3200 2900
Wire Wire Line
	3200 2900 3800 2900
Connection ~ 3800 2900
Wire Wire Line
	3800 2900 4400 2900
Connection ~ 4400 2900
Wire Wire Line
	4400 2900 5000 2900
Connection ~ 5000 2900
Wire Wire Line
	5000 2900 5950 2900
Connection ~ 5950 2900
Wire Wire Line
	5950 2900 6550 2900
Connection ~ 6550 2900
Wire Wire Line
	6550 2900 7150 2900
Connection ~ 7150 2900
Wire Wire Line
	7150 2900 7750 2900
Connection ~ 7750 2900
Wire Wire Line
	7750 2900 8350 2900
Connection ~ 8350 2900
Wire Wire Line
	8350 2900 8950 2900
Wire Wire Line
	2400 1400 2400 1900
Connection ~ 2400 1900
Wire Wire Line
	2400 1900 2400 2550
Connection ~ 2400 2550
Wire Wire Line
	2400 2550 2400 3200
Wire Wire Line
	3600 3200 3600 2550
Connection ~ 3600 1900
Wire Wire Line
	3600 1900 3600 1400
Connection ~ 3600 2550
Wire Wire Line
	3600 2550 3600 1900
Wire Wire Line
	3000 1400 3000 1900
Connection ~ 3000 1900
Wire Wire Line
	3000 1900 3000 2550
Connection ~ 3000 2550
Wire Wire Line
	3000 2550 3000 3200
Wire Wire Line
	4200 3200 4200 2550
Connection ~ 4200 1900
Wire Wire Line
	4200 1900 4200 1400
Connection ~ 4200 2550
Wire Wire Line
	4200 2550 4200 1900
Wire Wire Line
	4800 1400 4800 1900
Connection ~ 4800 1900
Wire Wire Line
	4800 1900 4800 2550
Connection ~ 4800 2550
Wire Wire Line
	4800 2550 4800 3200
Wire Wire Line
	5400 2550 5400 3200
Wire Wire Line
	6350 2550 6350 3200
Wire Wire Line
	6950 3200 6950 2550
Connection ~ 6950 1900
Wire Wire Line
	6950 1900 6950 1400
Connection ~ 6950 2550
Wire Wire Line
	6950 2550 6950 1900
Wire Wire Line
	7550 1400 7550 1900
Connection ~ 7550 1900
Wire Wire Line
	7550 1900 7550 2550
Connection ~ 7550 2550
Wire Wire Line
	7550 2550 7550 3200
Wire Wire Line
	8150 3200 8150 2550
Connection ~ 8150 1900
Wire Wire Line
	8150 1900 8150 1400
Connection ~ 8150 2550
Wire Wire Line
	8150 2550 8150 1900
Wire Wire Line
	8750 1400 8750 1900
Connection ~ 8750 1900
Wire Wire Line
	8750 1900 8750 2550
Connection ~ 8750 2550
Wire Wire Line
	8750 2550 8750 3200
Wire Wire Line
	9350 3200 9350 2550
Connection ~ 9350 1900
Wire Wire Line
	9350 1900 9350 1400
Connection ~ 9350 2550
Wire Wire Line
	9350 2550 9350 1900
$Comp
L MCU_Microchip_ATmega:ATmega32U4-A U1
U 1 1 61575E0E
P 4900 4850
F 0 "U1" H 4900 2961 50  0000 C CNN
F 1 "ATmega32U4-A" H 4900 2870 50  0000 C CNN
F 2 "Package_QFP:TQFP-44_10x10mm_P0.8mm" H 4900 4850 50  0001 C CIN
F 3 "http://ww1.microchip.com/downloads/en/DeviceDoc/Atmel-7766-8-bit-AVR-ATmega16U4-32U4_Datasheet.pdf" H 4900 4850 50  0001 C CNN
	1    4900 4850
	0    -1   -1   0   
$EndComp
Text GLabel 2000 2900 0    50   Input ~ 0
row3
Text GLabel 3600 3200 3    50   Input ~ 0
col2
Text GLabel 4200 3200 3    50   Input ~ 0
col3
Text GLabel 4800 3200 3    50   Input ~ 0
col4
Text GLabel 5400 3200 3    50   Input ~ 0
col5
Text GLabel 6350 3200 3    50   Input ~ 0
col6
Text GLabel 6950 3200 3    50   Input ~ 0
col7
Text GLabel 2000 2250 0    50   Input ~ 0
row2
Text GLabel 2000 1600 0    50   Input ~ 0
row1
Text GLabel 7550 3200 3    50   Input ~ 0
col8
Text GLabel 8150 3200 3    50   Input ~ 0
col9
Text GLabel 8750 3200 3    50   Input ~ 0
col10
Text GLabel 9350 3200 3    50   Input ~ 0
col11
Text GLabel 2000 1100 0    50   Input ~ 0
row0
Text GLabel 3000 3200 3    50   Input ~ 0
col1
Text GLabel 2400 3200 3    50   Input ~ 0
col0
Text GLabel 6200 4250 1    50   Input ~ 0
row0
Text GLabel 6100 4250 1    50   Input ~ 0
row1
Text GLabel 6000 4250 1    50   Input ~ 0
row2
Text GLabel 5900 4250 1    50   Input ~ 0
row3
Text GLabel 6300 4250 1    50   Input ~ 0
col0
Text GLabel 5500 4250 1    50   Input ~ 0
col1
Text GLabel 4400 4250 1    50   Input ~ 0
col2
Text GLabel 4300 4250 1    50   Input ~ 0
col3
Text GLabel 4000 4250 1    50   Input ~ 0
col4
Text GLabel 3900 4250 1    50   Input ~ 0
col5
Text GLabel 3800 4250 1    50   Input ~ 0
col6
Text GLabel 5300 4250 1    50   Input ~ 0
col7
Text GLabel 5000 4250 1    50   Input ~ 0
col8
Text GLabel 5200 4250 1    50   Input ~ 0
col9
Text GLabel 4900 4250 1    50   Input ~ 0
col10
Text GLabel 4700 4250 1    50   Input ~ 0
col11
$Comp
L Connector:USB_C_Receptacle_USB2.0 J1
U 1 1 61591DC6
P 5700 6500
F 0 "J1" V 5853 7229 50  0000 L CNN
F 1 "USB_C_Receptacle_USB2.0" V 5762 7229 50  0000 L CNN
F 2 "Connector_USB:USB_C_Receptacle_GCT_USB4085" H 5850 6500 50  0001 C CNN
F 3 "https://www.usb.org/sites/default/files/documents/usb_type-c.zip" H 5850 6500 50  0001 C CNN
	1    5700 6500
	0    -1   -1   0   
$EndComp
Wire Wire Line
	5700 5900 5650 5900
Wire Wire Line
	5800 5900 5850 5900
Text GLabel 4400 5450 3    50   Input ~ 0
D+
Text GLabel 5850 5600 1    50   Input ~ 0
D+
Text GLabel 4500 5450 3    50   Input ~ 0
D-
Text GLabel 5650 5600 1    50   Input ~ 0
D-
$Comp
L power:+5V #PWR0101
U 1 1 6159A78B
P 5100 5900
F 0 "#PWR0101" H 5100 5750 50  0001 C CNN
F 1 "+5V" H 5115 6073 50  0000 C CNN
F 2 "" H 5100 5900 50  0001 C CNN
F 3 "" H 5100 5900 50  0001 C CNN
	1    5100 5900
	1    0    0    -1  
$EndComp
$Comp
L power:+5V #PWR0102
U 1 1 6159B3D0
P 2600 4750
F 0 "#PWR0102" H 2600 4600 50  0001 C CNN
F 1 "+5V" H 2615 4923 50  0000 C CNN
F 2 "" H 2600 4750 50  0001 C CNN
F 3 "" H 2600 4750 50  0001 C CNN
	1    2600 4750
	-1   0    0    1   
$EndComp
Wire Wire Line
	6600 6500 6600 6650
$Comp
L power:GND #PWR0103
U 1 1 6159E31C
P 6600 6650
F 0 "#PWR0103" H 6600 6400 50  0001 C CNN
F 1 "GND" V 6605 6522 50  0000 R CNN
F 2 "" H 6600 6650 50  0001 C CNN
F 3 "" H 6600 6650 50  0001 C CNN
	1    6600 6650
	0    -1   -1   0   
$EndComp
Connection ~ 6600 6650
Wire Wire Line
	6600 6650 6600 6800
$Comp
L power:GND #PWR0104
U 1 1 6159F116
P 6700 4850
F 0 "#PWR0104" H 6700 4600 50  0001 C CNN
F 1 "GND" V 6705 4722 50  0000 R CNN
F 2 "" H 6700 4850 50  0001 C CNN
F 3 "" H 6700 4850 50  0001 C CNN
	1    6700 4850
	0    -1   -1   0   
$EndComp
Wire Wire Line
	6700 4950 6700 4850
Connection ~ 6700 4850
Wire Wire Line
	3100 4750 3100 4850
Connection ~ 3100 4850
Wire Wire Line
	3100 4850 3100 4950
$Comp
L power:+5V #PWR0105
U 1 1 615A3B7E
P 4200 5450
F 0 "#PWR0105" H 4200 5300 50  0001 C CNN
F 1 "+5V" H 4215 5623 50  0000 C CNN
F 2 "" H 4200 5450 50  0001 C CNN
F 3 "" H 4200 5450 50  0001 C CNN
	1    4200 5450
	-1   0    0    1   
$EndComp
$Comp
L Device:C C3
U 1 1 615A59C7
P 2900 4600
F 0 "C3" H 3015 4646 50  0000 L CNN
F 1 ".1uf" H 3015 4555 50  0000 L CNN
F 2 "Capacitor_SMD:C_0603_1608Metric_Pad1.08x0.95mm_HandSolder" H 2938 4450 50  0001 C CNN
F 3 "~" H 2900 4600 50  0001 C CNN
	1    2900 4600
	1    0    0    -1  
$EndComp
$Comp
L Device:C C2
U 1 1 615A70F4
P 2600 4600
F 0 "C2" H 2715 4646 50  0000 L CNN
F 1 ".1uf" H 2715 4555 50  0000 L CNN
F 2 "Capacitor_SMD:C_0603_1608Metric_Pad1.08x0.95mm_HandSolder" H 2638 4450 50  0001 C CNN
F 3 "~" H 2600 4600 50  0001 C CNN
	1    2600 4600
	1    0    0    -1  
$EndComp
$Comp
L Device:C C1
U 1 1 615A7C4E
P 2300 4600
F 0 "C1" H 2415 4646 50  0000 L CNN
F 1 ".1uf" H 2415 4555 50  0000 L CNN
F 2 "Capacitor_SMD:C_0603_1608Metric_Pad1.08x0.95mm_HandSolder" H 2338 4450 50  0001 C CNN
F 3 "~" H 2300 4600 50  0001 C CNN
	1    2300 4600
	1    0    0    -1  
$EndComp
Wire Wire Line
	3100 4750 2900 4750
Connection ~ 3100 4750
Connection ~ 2600 4750
Wire Wire Line
	2600 4750 2300 4750
Connection ~ 2900 4750
Wire Wire Line
	2900 4750 2600 4750
Wire Wire Line
	2300 4450 2600 4450
Connection ~ 2600 4450
Wire Wire Line
	2600 4450 2900 4450
$Comp
L power:GND #PWR0106
U 1 1 615AE905
P 2600 4450
F 0 "#PWR0106" H 2600 4200 50  0001 C CNN
F 1 "GND" H 2605 4277 50  0000 C CNN
F 2 "" H 2600 4450 50  0001 C CNN
F 3 "" H 2600 4450 50  0001 C CNN
	1    2600 4450
	-1   0    0    1   
$EndComp
$Comp
L Device:Crystal_GND24_Small Y1
U 1 1 615B1AC7
P 3700 5800
F 0 "Y1" H 3844 5846 50  0000 L CNN
F 1 "Crystal_GND24_Small 9pf" H 3844 5755 50  0000 L CNN
F 2 "Crystal:Crystal_SMD_3225-4Pin_3.2x2.5mm_HandSoldering" H 3700 5800 50  0001 C CNN
F 3 "~" H 3700 5800 50  0001 C CNN
	1    3700 5800
	1    0    0    -1  
$EndComp
Wire Wire Line
	3800 5450 3800 5650
Wire Wire Line
	3600 5800 3600 5650
Wire Wire Line
	3700 5700 3900 5700
Wire Wire Line
	3900 5700 3900 5800
Wire Wire Line
	3900 5900 3850 5900
$Comp
L power:GND #PWR0107
U 1 1 615C0A54
P 3900 5800
F 0 "#PWR0107" H 3900 5550 50  0001 C CNN
F 1 "GND" V 3905 5672 50  0000 R CNN
F 2 "" H 3900 5800 50  0001 C CNN
F 3 "" H 3900 5800 50  0001 C CNN
	1    3900 5800
	0    -1   -1   0   
$EndComp
Connection ~ 3900 5800
Wire Wire Line
	3900 5800 3900 5900
$Comp
L Device:C C4
U 1 1 615C2A53
P 3350 5850
F 0 "C4" H 3465 5896 50  0000 L CNN
F 1 "12pf" H 3465 5805 50  0000 L CNN
F 2 "Capacitor_SMD:C_0603_1608Metric_Pad1.08x0.95mm_HandSolder" H 3388 5700 50  0001 C CNN
F 3 "~" H 3350 5850 50  0001 C CNN
	1    3350 5850
	1    0    0    -1  
$EndComp
$Comp
L Device:C C5
U 1 1 615C3730
P 4250 5850
F 0 "C5" H 4365 5896 50  0000 L CNN
F 1 "12pf" H 4365 5805 50  0000 L CNN
F 2 "Capacitor_SMD:C_0603_1608Metric_Pad1.08x0.95mm_HandSolder" H 4288 5700 50  0001 C CNN
F 3 "~" H 4250 5850 50  0001 C CNN
	1    4250 5850
	1    0    0    -1  
$EndComp
Wire Wire Line
	4250 5700 3950 5700
Wire Wire Line
	3950 5700 3950 5650
Wire Wire Line
	3950 5650 3800 5650
Connection ~ 3800 5650
Wire Wire Line
	3800 5650 3800 5800
Wire Wire Line
	3600 5650 3350 5650
Wire Wire Line
	3350 5650 3350 5700
Connection ~ 3600 5650
Wire Wire Line
	3600 5650 3600 5450
Wire Wire Line
	4250 6000 3850 6000
Wire Wire Line
	3850 5900 3850 6000
Connection ~ 3850 5900
Wire Wire Line
	3850 5900 3700 5900
Connection ~ 3850 6000
Wire Wire Line
	3850 6000 3350 6000
$Comp
L Device:C C7
U 1 1 615D23E4
P 4700 6050
F 0 "C7" H 4815 6096 50  0000 L CNN
F 1 "1uf" H 4815 6005 50  0000 L CNN
F 2 "Capacitor_SMD:C_0603_1608Metric_Pad1.08x0.95mm_HandSolder" H 4738 5900 50  0001 C CNN
F 3 "~" H 4700 6050 50  0001 C CNN
	1    4700 6050
	1    0    0    -1  
$EndComp
Wire Wire Line
	4700 5450 4700 5900
$Comp
L power:GND #PWR0108
U 1 1 615D66B1
P 4700 6200
F 0 "#PWR0108" H 4700 5950 50  0001 C CNN
F 1 "GND" H 4705 6027 50  0000 C CNN
F 2 "" H 4700 6200 50  0001 C CNN
F 3 "" H 4700 6200 50  0001 C CNN
	1    4700 6200
	1    0    0    -1  
$EndComp
Connection ~ 4700 5900
Wire Wire Line
	4700 5900 4700 5950
Wire Wire Line
	4000 5450 4000 5650
Wire Wire Line
	4000 5650 4300 5650
Wire Wire Line
	4300 5650 4300 6050
$Comp
L Device:C C6
U 1 1 615DE23B
P 4300 6200
F 0 "C6" H 4415 6246 50  0000 L CNN
F 1 ".1uf" H 4415 6155 50  0000 L CNN
F 2 "Capacitor_SMD:C_0603_1608Metric_Pad1.08x0.95mm_HandSolder" H 4338 6050 50  0001 C CNN
F 3 "~" H 4300 6200 50  0001 C CNN
	1    4300 6200
	1    0    0    -1  
$EndComp
Wire Wire Line
	4700 6150 4550 6150
Wire Wire Line
	4550 6150 4550 6350
Wire Wire Line
	4550 6350 4300 6350
Wire Wire Line
	4700 6150 4700 6200
Connection ~ 4700 6200
$Comp
L Device:R R2
U 1 1 615EA693
P 5350 5750
F 0 "R2" H 5420 5796 50  0000 L CNN
F 1 "5.1KOhm" H 5420 5705 50  0000 L CNN
F 2 "Resistor_SMD:R_0603_1608Metric_Pad0.98x0.95mm_HandSolder" V 5280 5750 50  0001 C CNN
F 3 "~" H 5350 5750 50  0001 C CNN
	1    5350 5750
	1    0    0    -1  
$EndComp
Wire Wire Line
	5300 5900 5350 5900
Connection ~ 5350 5900
Wire Wire Line
	5350 5900 5400 5900
$Comp
L power:GND #PWR0109
U 1 1 615F8CC6
P 5350 5600
F 0 "#PWR0109" H 5350 5350 50  0001 C CNN
F 1 "GND" H 5355 5427 50  0000 C CNN
F 2 "" H 5350 5600 50  0001 C CNN
F 3 "" H 5350 5600 50  0001 C CNN
	1    5350 5600
	-1   0    0    1   
$EndComp
$Comp
L Device:R R1
U 1 1 615885B9
P 3000 5500
F 0 "R1" H 3070 5546 50  0000 L CNN
F 1 "5.1KOhm" H 3070 5455 50  0000 L CNN
F 2 "Resistor_SMD:R_0603_1608Metric_Pad0.98x0.95mm_HandSolder" V 2930 5500 50  0001 C CNN
F 3 "~" H 3000 5500 50  0001 C CNN
	1    3000 5500
	0    -1   -1   0   
$EndComp
Wire Wire Line
	3400 5450 3400 5500
Wire Wire Line
	3400 5500 3200 5500
$Comp
L power:+5V #PWR0110
U 1 1 615906EA
P 2850 5500
F 0 "#PWR0110" H 2850 5350 50  0001 C CNN
F 1 "+5V" V 2865 5628 50  0000 L CNN
F 2 "" H 2850 5500 50  0001 C CNN
F 3 "" H 2850 5500 50  0001 C CNN
	1    2850 5500
	0    -1   -1   0   
$EndComp
$Comp
L Device:R R4
U 1 1 6159132D
P 5850 5750
F 0 "R4" H 5920 5796 50  0000 L CNN
F 1 "22Ohms" H 5920 5705 50  0000 L CNN
F 2 "Resistor_SMD:R_0603_1608Metric_Pad0.98x0.95mm_HandSolder" V 5780 5750 50  0001 C CNN
F 3 "~" H 5850 5750 50  0001 C CNN
	1    5850 5750
	1    0    0    -1  
$EndComp
Connection ~ 5850 5900
Wire Wire Line
	5850 5900 5900 5900
$Comp
L Device:R R3
U 1 1 61591C2B
P 5650 5750
F 0 "R3" H 5720 5796 50  0000 L CNN
F 1 "22Ohms" H 5720 5705 50  0000 L CNN
F 2 "Resistor_SMD:R_0603_1608Metric_Pad0.98x0.95mm_HandSolder" V 5580 5750 50  0001 C CNN
F 3 "~" H 5650 5750 50  0001 C CNN
	1    5650 5750
	1    0    0    -1  
$EndComp
Connection ~ 5650 5900
Wire Wire Line
	5650 5900 5600 5900
$Comp
L Switch:SW_Push SW45
U 1 1 61597405
P 2900 5900
F 0 "SW45" H 2900 6185 50  0000 C CNN
F 1 "SW_Push" H 2900 6094 50  0000 C CNN
F 2 "Button_Switch_SMD:SW_SPST_TL3342" H 2900 6100 50  0001 C CNN
F 3 "~" H 2900 6100 50  0001 C CNN
	1    2900 5900
	1    0    0    -1  
$EndComp
Wire Wire Line
	3100 5900 3200 5900
Wire Wire Line
	3200 5900 3200 5500
Connection ~ 3200 5500
Wire Wire Line
	3200 5500 3150 5500
$Comp
L power:GND #PWR0111
U 1 1 6159FF90
P 2700 5900
F 0 "#PWR0111" H 2700 5650 50  0001 C CNN
F 1 "GND" V 2705 5772 50  0000 R CNN
F 2 "" H 2700 5900 50  0001 C CNN
F 3 "" H 2700 5900 50  0001 C CNN
	1    2700 5900
	0    1    1    0   
$EndComp
$Comp
L Connector:AVR-ISP-6 J2
U 1 1 616166E4
P 1350 5350
F 0 "J2" H 1021 5446 50  0000 R CNN
F 1 "AVR-ISP-6" H 1021 5355 50  0000 R CNN
F 2 "Connector_PinHeader_2.54mm:PinHeader_2x03_P2.54mm_Vertical" V 1100 5400 50  0001 C CNN
F 3 " ~" H 75  4800 50  0001 C CNN
	1    1350 5350
	1    0    0    -1  
$EndComp
$Comp
L power:+5V #PWR0112
U 1 1 61617647
P 1250 4850
F 0 "#PWR0112" H 1250 4700 50  0001 C CNN
F 1 "+5V" H 1265 5023 50  0000 C CNN
F 2 "" H 1250 4850 50  0001 C CNN
F 3 "" H 1250 4850 50  0001 C CNN
	1    1250 4850
	1    0    0    -1  
$EndComp
$Comp
L power:GND #PWR0113
U 1 1 61618391
P 1250 5750
F 0 "#PWR0113" H 1250 5500 50  0001 C CNN
F 1 "GND" H 1255 5577 50  0000 C CNN
F 2 "" H 1250 5750 50  0001 C CNN
F 3 "" H 1250 5750 50  0001 C CNN
	1    1250 5750
	1    0    0    -1  
$EndComp
Text GLabel 3250 5500 3    50   Input ~ 0
rst
Text GLabel 1750 5450 2    50   Input ~ 0
rst
Text GLabel 3500 4250 1    50   Input ~ 0
SCK
Text GLabel 3600 4250 1    50   Input ~ 0
MOSI
Text GLabel 3700 4250 1    50   Input ~ 0
MISO
Text GLabel 1750 5350 2    50   Input ~ 0
SCK
Text GLabel 1750 5250 2    50   Input ~ 0
MOSI
Text GLabel 1750 5150 2    50   Input ~ 0
MISO
Text GLabel 4800 4250 1    50   Input ~ 0
PS2_DATA
Text GLabel 5800 4250 1    50   Input ~ 0
LEDs
Text GLabel 7400 6000 0    50   Input ~ 0
LEDs
$Comp
L power:+5V #PWR0134
U 1 1 61695953
P 900 7250
F 0 "#PWR0134" H 900 7100 50  0001 C CNN
F 1 "+5V" V 915 7378 50  0000 L CNN
F 2 "" H 900 7250 50  0001 C CNN
F 3 "" H 900 7250 50  0001 C CNN
	1    900  7250
	0    -1   -1   0   
$EndComp
$Comp
L power:GND #PWR0135
U 1 1 61696820
P 1000 6750
F 0 "#PWR0135" H 1000 6500 50  0001 C CNN
F 1 "GND" V 1005 6622 50  0000 R CNN
F 2 "" H 1000 6750 50  0001 C CNN
F 3 "" H 1000 6750 50  0001 C CNN
	1    1000 6750
	0    1    1    0   
$EndComp
Text GLabel 5100 4250 1    50   Input ~ 0
PS2_CLK
Text GLabel 950  6950 0    50   Input ~ 0
PS2_CLK
Text GLabel 950  6850 0    50   Input ~ 0
PS2_DATA
$Comp
L LED:SK6812MINI D45
U 1 1 617839E4
P 7700 6000
F 0 "D45" H 8044 6046 50  0000 L CNN
F 1 "SK6812MINI" H 8044 5955 50  0000 L CNN
F 2 "LED_SMD:LED_SK6812MINI_PLCC4_3.5x3.5mm_P1.75mm" H 7750 5700 50  0001 L TNN
F 3 "https://cdn-shop.adafruit.com/product-files/2686/SK6812MINI_REV.01-1-2.pdf" H 7800 5625 50  0001 L TNN
	1    7700 6000
	1    0    0    -1  
$EndComp
$Comp
L power:GND #PWR0114
U 1 1 6178EB9E
P 7700 6300
F 0 "#PWR0114" H 7700 6050 50  0001 C CNN
F 1 "GND" H 7705 6127 50  0000 C CNN
F 2 "" H 7700 6300 50  0001 C CNN
F 3 "" H 7700 6300 50  0001 C CNN
	1    7700 6300
	1    0    0    -1  
$EndComp
$Comp
L power:+5V #PWR0115
U 1 1 61791F7D
P 7700 5700
F 0 "#PWR0115" H 7700 5550 50  0001 C CNN
F 1 "+5V" H 7715 5873 50  0000 C CNN
F 2 "" H 7700 5700 50  0001 C CNN
F 3 "" H 7700 5700 50  0001 C CNN
	1    7700 5700
	1    0    0    -1  
$EndComp
$Comp
L LED:SK6812MINI D48
U 1 1 61792E2E
P 8300 6000
F 0 "D48" H 8644 6046 50  0000 L CNN
F 1 "SK6812MINI" H 8644 5955 50  0000 L CNN
F 2 "LED_SMD:LED_SK6812MINI_PLCC4_3.5x3.5mm_P1.75mm" H 8350 5700 50  0001 L TNN
F 3 "https://cdn-shop.adafruit.com/product-files/2686/SK6812MINI_REV.01-1-2.pdf" H 8400 5625 50  0001 L TNN
	1    8300 6000
	1    0    0    -1  
$EndComp
$Comp
L power:GND #PWR0116
U 1 1 61792E34
P 8300 6300
F 0 "#PWR0116" H 8300 6050 50  0001 C CNN
F 1 "GND" H 8305 6127 50  0000 C CNN
F 2 "" H 8300 6300 50  0001 C CNN
F 3 "" H 8300 6300 50  0001 C CNN
	1    8300 6300
	1    0    0    -1  
$EndComp
$Comp
L power:+5V #PWR0117
U 1 1 61792E3A
P 8300 5700
F 0 "#PWR0117" H 8300 5550 50  0001 C CNN
F 1 "+5V" H 8315 5873 50  0000 C CNN
F 2 "" H 8300 5700 50  0001 C CNN
F 3 "" H 8300 5700 50  0001 C CNN
	1    8300 5700
	1    0    0    -1  
$EndComp
$Comp
L LED:SK6812MINI D49
U 1 1 6179769A
P 8900 6000
F 0 "D49" H 9244 6046 50  0000 L CNN
F 1 "SK6812MINI" H 9244 5955 50  0000 L CNN
F 2 "LED_SMD:LED_SK6812MINI_PLCC4_3.5x3.5mm_P1.75mm" H 8950 5700 50  0001 L TNN
F 3 "https://cdn-shop.adafruit.com/product-files/2686/SK6812MINI_REV.01-1-2.pdf" H 9000 5625 50  0001 L TNN
	1    8900 6000
	1    0    0    -1  
$EndComp
$Comp
L power:GND #PWR0118
U 1 1 617976A0
P 8900 6300
F 0 "#PWR0118" H 8900 6050 50  0001 C CNN
F 1 "GND" H 8905 6127 50  0000 C CNN
F 2 "" H 8900 6300 50  0001 C CNN
F 3 "" H 8900 6300 50  0001 C CNN
	1    8900 6300
	1    0    0    -1  
$EndComp
$Comp
L power:+5V #PWR0119
U 1 1 617976A6
P 8900 5700
F 0 "#PWR0119" H 8900 5550 50  0001 C CNN
F 1 "+5V" H 8915 5873 50  0000 C CNN
F 2 "" H 8900 5700 50  0001 C CNN
F 3 "" H 8900 5700 50  0001 C CNN
	1    8900 5700
	1    0    0    -1  
$EndComp
$Comp
L LED:SK6812MINI D51
U 1 1 617A2E2F
P 9500 6000
F 0 "D51" H 9844 6046 50  0000 L CNN
F 1 "SK6812MINI" H 9844 5955 50  0000 L CNN
F 2 "LED_SMD:LED_SK6812MINI_PLCC4_3.5x3.5mm_P1.75mm" H 9550 5700 50  0001 L TNN
F 3 "https://cdn-shop.adafruit.com/product-files/2686/SK6812MINI_REV.01-1-2.pdf" H 9600 5625 50  0001 L TNN
	1    9500 6000
	1    0    0    -1  
$EndComp
$Comp
L power:GND #PWR0120
U 1 1 617A2E35
P 9500 6300
F 0 "#PWR0120" H 9500 6050 50  0001 C CNN
F 1 "GND" H 9505 6127 50  0000 C CNN
F 2 "" H 9500 6300 50  0001 C CNN
F 3 "" H 9500 6300 50  0001 C CNN
	1    9500 6300
	1    0    0    -1  
$EndComp
$Comp
L power:+5V #PWR0121
U 1 1 617A2E3B
P 9500 5700
F 0 "#PWR0121" H 9500 5550 50  0001 C CNN
F 1 "+5V" H 9515 5873 50  0000 C CNN
F 2 "" H 9500 5700 50  0001 C CNN
F 3 "" H 9500 5700 50  0001 C CNN
	1    9500 5700
	1    0    0    -1  
$EndComp
$Comp
L LED:SK6812MINI D54
U 1 1 617A2E41
P 10100 6000
F 0 "D54" H 10444 6046 50  0000 L CNN
F 1 "SK6812MINI" H 10444 5955 50  0000 L CNN
F 2 "LED_SMD:LED_SK6812MINI_PLCC4_3.5x3.5mm_P1.75mm" H 10150 5700 50  0001 L TNN
F 3 "https://cdn-shop.adafruit.com/product-files/2686/SK6812MINI_REV.01-1-2.pdf" H 10200 5625 50  0001 L TNN
	1    10100 6000
	1    0    0    -1  
$EndComp
$Comp
L power:GND #PWR0122
U 1 1 617A2E47
P 10100 6300
F 0 "#PWR0122" H 10100 6050 50  0001 C CNN
F 1 "GND" H 10105 6127 50  0000 C CNN
F 2 "" H 10100 6300 50  0001 C CNN
F 3 "" H 10100 6300 50  0001 C CNN
	1    10100 6300
	1    0    0    -1  
$EndComp
$Comp
L power:+5V #PWR0123
U 1 1 617A2E4D
P 10100 5700
F 0 "#PWR0123" H 10100 5550 50  0001 C CNN
F 1 "+5V" H 10115 5873 50  0000 C CNN
F 2 "" H 10100 5700 50  0001 C CNN
F 3 "" H 10100 5700 50  0001 C CNN
	1    10100 5700
	1    0    0    -1  
$EndComp
$Comp
L LED:SK6812MINI D55
U 1 1 617A2E53
P 10700 6000
F 0 "D55" H 11044 6046 50  0000 L CNN
F 1 "SK6812MINI" H 11044 5955 50  0000 L CNN
F 2 "LED_SMD:LED_SK6812MINI_PLCC4_3.5x3.5mm_P1.75mm" H 10750 5700 50  0001 L TNN
F 3 "https://cdn-shop.adafruit.com/product-files/2686/SK6812MINI_REV.01-1-2.pdf" H 10800 5625 50  0001 L TNN
	1    10700 6000
	1    0    0    -1  
$EndComp
$Comp
L power:GND #PWR0124
U 1 1 617A2E59
P 10700 6300
F 0 "#PWR0124" H 10700 6050 50  0001 C CNN
F 1 "GND" H 10705 6127 50  0000 C CNN
F 2 "" H 10700 6300 50  0001 C CNN
F 3 "" H 10700 6300 50  0001 C CNN
	1    10700 6300
	1    0    0    -1  
$EndComp
$Comp
L power:+5V #PWR0125
U 1 1 617A2E5F
P 10700 5700
F 0 "#PWR0125" H 10700 5550 50  0001 C CNN
F 1 "+5V" H 10715 5873 50  0000 C CNN
F 2 "" H 10700 5700 50  0001 C CNN
F 3 "" H 10700 5700 50  0001 C CNN
	1    10700 5700
	1    0    0    -1  
$EndComp
$Comp
L power:GND #PWR0126
U 1 1 617AC08F
P 10700 4600
F 0 "#PWR0126" H 10700 4350 50  0001 C CNN
F 1 "GND" H 10705 4427 50  0000 C CNN
F 2 "" H 10700 4600 50  0001 C CNN
F 3 "" H 10700 4600 50  0001 C CNN
	1    10700 4600
	-1   0    0    1   
$EndComp
$Comp
L power:+5V #PWR0127
U 1 1 617AC095
P 10700 5200
F 0 "#PWR0127" H 10700 5050 50  0001 C CNN
F 1 "+5V" H 10715 5373 50  0000 C CNN
F 2 "" H 10700 5200 50  0001 C CNN
F 3 "" H 10700 5200 50  0001 C CNN
	1    10700 5200
	-1   0    0    1   
$EndComp
$Comp
L LED:SK6812MINI D53
U 1 1 617AC09B
P 10100 4900
F 0 "D53" H 10444 4946 50  0000 L CNN
F 1 "SK6812MINI" H 10444 4855 50  0000 L CNN
F 2 "LED_SMD:LED_SK6812MINI_PLCC4_3.5x3.5mm_P1.75mm" H 10150 4600 50  0001 L TNN
F 3 "https://cdn-shop.adafruit.com/product-files/2686/SK6812MINI_REV.01-1-2.pdf" H 10200 4525 50  0001 L TNN
	1    10100 4900
	-1   0    0    1   
$EndComp
$Comp
L power:GND #PWR0128
U 1 1 617AC0A1
P 10100 4600
F 0 "#PWR0128" H 10100 4350 50  0001 C CNN
F 1 "GND" H 10105 4427 50  0000 C CNN
F 2 "" H 10100 4600 50  0001 C CNN
F 3 "" H 10100 4600 50  0001 C CNN
	1    10100 4600
	-1   0    0    1   
$EndComp
$Comp
L power:+5V #PWR0129
U 1 1 617AC0A7
P 10100 5200
F 0 "#PWR0129" H 10100 5050 50  0001 C CNN
F 1 "+5V" H 10115 5373 50  0000 C CNN
F 2 "" H 10100 5200 50  0001 C CNN
F 3 "" H 10100 5200 50  0001 C CNN
	1    10100 5200
	-1   0    0    1   
$EndComp
$Comp
L LED:SK6812MINI D52
U 1 1 617AC0AD
P 9500 4900
F 0 "D52" H 9844 4946 50  0000 L CNN
F 1 "SK6812MINI" H 9844 4855 50  0000 L CNN
F 2 "LED_SMD:LED_SK6812MINI_PLCC4_3.5x3.5mm_P1.75mm" H 9550 4600 50  0001 L TNN
F 3 "https://cdn-shop.adafruit.com/product-files/2686/SK6812MINI_REV.01-1-2.pdf" H 9600 4525 50  0001 L TNN
	1    9500 4900
	-1   0    0    1   
$EndComp
$Comp
L power:GND #PWR0130
U 1 1 617AC0B3
P 9500 4600
F 0 "#PWR0130" H 9500 4350 50  0001 C CNN
F 1 "GND" H 9505 4427 50  0000 C CNN
F 2 "" H 9500 4600 50  0001 C CNN
F 3 "" H 9500 4600 50  0001 C CNN
	1    9500 4600
	-1   0    0    1   
$EndComp
$Comp
L power:+5V #PWR0131
U 1 1 617AC0B9
P 9500 5200
F 0 "#PWR0131" H 9500 5050 50  0001 C CNN
F 1 "+5V" H 9515 5373 50  0000 C CNN
F 2 "" H 9500 5200 50  0001 C CNN
F 3 "" H 9500 5200 50  0001 C CNN
	1    9500 5200
	-1   0    0    1   
$EndComp
$Comp
L LED:SK6812MINI D50
U 1 1 617AC0BF
P 8900 4900
F 0 "D50" H 9244 4946 50  0000 L CNN
F 1 "SK6812MINI" H 9244 4855 50  0000 L CNN
F 2 "LED_SMD:LED_SK6812MINI_PLCC4_3.5x3.5mm_P1.75mm" H 8950 4600 50  0001 L TNN
F 3 "https://cdn-shop.adafruit.com/product-files/2686/SK6812MINI_REV.01-1-2.pdf" H 9000 4525 50  0001 L TNN
	1    8900 4900
	-1   0    0    1   
$EndComp
$Comp
L power:GND #PWR0132
U 1 1 617AC0C5
P 8900 4600
F 0 "#PWR0132" H 8900 4350 50  0001 C CNN
F 1 "GND" H 8905 4427 50  0000 C CNN
F 2 "" H 8900 4600 50  0001 C CNN
F 3 "" H 8900 4600 50  0001 C CNN
	1    8900 4600
	-1   0    0    1   
$EndComp
$Comp
L power:+5V #PWR0133
U 1 1 617AC0CB
P 8900 5200
F 0 "#PWR0133" H 8900 5050 50  0001 C CNN
F 1 "+5V" H 8915 5373 50  0000 C CNN
F 2 "" H 8900 5200 50  0001 C CNN
F 3 "" H 8900 5200 50  0001 C CNN
	1    8900 5200
	-1   0    0    1   
$EndComp
$Comp
L LED:SK6812MINI D47
U 1 1 617AC0D1
P 8300 4900
F 0 "D47" H 8644 4946 50  0000 L CNN
F 1 "SK6812MINI" H 8644 4855 50  0000 L CNN
F 2 "LED_SMD:LED_SK6812MINI_PLCC4_3.5x3.5mm_P1.75mm" H 8350 4600 50  0001 L TNN
F 3 "https://cdn-shop.adafruit.com/product-files/2686/SK6812MINI_REV.01-1-2.pdf" H 8400 4525 50  0001 L TNN
	1    8300 4900
	-1   0    0    1   
$EndComp
$Comp
L power:GND #PWR0136
U 1 1 617AC0D7
P 8300 4600
F 0 "#PWR0136" H 8300 4350 50  0001 C CNN
F 1 "GND" H 8305 4427 50  0000 C CNN
F 2 "" H 8300 4600 50  0001 C CNN
F 3 "" H 8300 4600 50  0001 C CNN
	1    8300 4600
	-1   0    0    1   
$EndComp
$Comp
L power:+5V #PWR0137
U 1 1 617AC0DD
P 8300 5200
F 0 "#PWR0137" H 8300 5050 50  0001 C CNN
F 1 "+5V" H 8315 5373 50  0000 C CNN
F 2 "" H 8300 5200 50  0001 C CNN
F 3 "" H 8300 5200 50  0001 C CNN
	1    8300 5200
	-1   0    0    1   
$EndComp
$Comp
L LED:SK6812MINI D46
U 1 1 617AC0E3
P 7700 4900
F 0 "D46" H 8044 4946 50  0000 L CNN
F 1 "SK6812MINI" H 8044 4855 50  0000 L CNN
F 2 "LED_SMD:LED_SK6812MINI_PLCC4_3.5x3.5mm_P1.75mm" H 7750 4600 50  0001 L TNN
F 3 "https://cdn-shop.adafruit.com/product-files/2686/SK6812MINI_REV.01-1-2.pdf" H 7800 4525 50  0001 L TNN
	1    7700 4900
	-1   0    0    1   
$EndComp
$Comp
L power:GND #PWR0138
U 1 1 617AC0E9
P 7700 4600
F 0 "#PWR0138" H 7700 4350 50  0001 C CNN
F 1 "GND" H 7705 4427 50  0000 C CNN
F 2 "" H 7700 4600 50  0001 C CNN
F 3 "" H 7700 4600 50  0001 C CNN
	1    7700 4600
	-1   0    0    1   
$EndComp
$Comp
L power:+5V #PWR0139
U 1 1 617AC0EF
P 7700 5200
F 0 "#PWR0139" H 7700 5050 50  0001 C CNN
F 1 "+5V" H 7715 5373 50  0000 C CNN
F 2 "" H 7700 5200 50  0001 C CNN
F 3 "" H 7700 5200 50  0001 C CNN
	1    7700 5200
	-1   0    0    1   
$EndComp
Wire Wire Line
	11050 4900 11050 6000
Wire Wire Line
	11050 6000 11000 6000
Wire Wire Line
	11050 4900 11000 4900
$Comp
L LED:SK6812MINI D56
U 1 1 617571E4
P 10700 4900
F 0 "D56" H 11044 4946 50  0000 L CNN
F 1 "SK6812MINI" H 11044 4855 50  0000 L CNN
F 2 "LED_SMD:LED_SK6812MINI_PLCC4_3.5x3.5mm_P1.75mm" H 10750 4600 50  0001 L TNN
F 3 "https://cdn-shop.adafruit.com/product-files/2686/SK6812MINI_REV.01-1-2.pdf" H 10800 4525 50  0001 L TNN
	1    10700 4900
	-1   0    0    1   
$EndComp
$Comp
L Device:R R6
U 1 1 6179AE7B
P 1250 7000
F 0 "R6" H 1320 7046 50  0000 L CNN
F 1 "5.1KOhm" H 1320 6955 50  0000 L CNN
F 2 "Resistor_SMD:R_0603_1608Metric_Pad0.98x0.95mm_HandSolder" V 1180 7000 50  0001 C CNN
F 3 "~" H 1250 7000 50  0001 C CNN
	1    1250 7000
	1    0    0    -1  
$EndComp
$Comp
L Connector:Conn_01x05_Female J3
U 1 1 617A8530
P 2300 6950
F 0 "J3" H 2328 6976 50  0000 L CNN
F 1 "Conn_01x05_Female" H 2328 6885 50  0000 L CNN
F 2 "Connector_PinHeader_2.00mm:PinHeader_1x05_P2.00mm_Vertical" H 2300 6950 50  0001 C CNN
F 3 "~" H 2300 6950 50  0001 C CNN
	1    2300 6950
	1    0    0    -1  
$EndComp
Wire Wire Line
	1250 7250 1250 7150
Connection ~ 1250 6850
Text GLabel 950  7050 0    50   Input ~ 0
trackRST
Wire Wire Line
	950  6850 1250 6850
Wire Wire Line
	950  7050 1500 7050
Connection ~ 1500 7050
Wire Wire Line
	900  7250 1000 7250
$Comp
L Device:R R5
U 1 1 6183236C
P 1000 7100
F 0 "R5" H 1070 7146 50  0000 L CNN
F 1 "5.1KOhm" H 1070 7055 50  0000 L CNN
F 2 "Resistor_SMD:R_0603_1608Metric_Pad0.98x0.95mm_HandSolder" V 930 7100 50  0001 C CNN
F 3 "~" H 1000 7100 50  0001 C CNN
	1    1000 7100
	1    0    0    -1  
$EndComp
Wire Wire Line
	950  6950 1000 6950
Connection ~ 1250 7150
$Comp
L Device:R R7
U 1 1 6185BC59
P 1850 6900
F 0 "R7" H 1920 6946 50  0000 L CNN
F 1 "100K" H 1920 6855 50  0000 L CNN
F 2 "Resistor_SMD:R_0603_1608Metric_Pad0.98x0.95mm_HandSolder" V 1780 6900 50  0001 C CNN
F 3 "~" H 1850 6900 50  0001 C CNN
	1    1850 6900
	1    0    0    -1  
$EndComp
Wire Wire Line
	1850 6750 2100 6750
Connection ~ 1850 6750
Wire Wire Line
	1250 6850 2100 6850
Wire Wire Line
	1500 7050 1850 7050
Wire Wire Line
	1250 7150 2000 7150
Connection ~ 1000 6950
Connection ~ 1000 7250
Wire Wire Line
	1000 7250 1250 7250
Wire Wire Line
	1000 6950 2100 6950
Connection ~ 1850 7050
Wire Wire Line
	1850 7050 2100 7050
$Comp
L Connector:Conn_01x06_Female J4
U 1 1 618CDF06
P 7250 3950
F 0 "J4" H 7278 3926 50  0000 L CNN
F 1 "Conn_01x06_Female" H 7278 3835 50  0000 L CNN
F 2 "Connector_PinHeader_2.00mm:PinHeader_1x06_P2.00mm_Vertical" H 7250 3950 50  0001 C CNN
F 3 "~" H 7250 3950 50  0001 C CNN
	1    7250 3950
	1    0    0    -1  
$EndComp
Text GLabel 3400 4250 1    50   Input ~ 0
PB0
Text GLabel 4100 4250 1    50   Input ~ 0
PB7
Text GLabel 4600 4250 1    50   Input ~ 0
PD0
Text GLabel 5600 4250 1    50   Input ~ 0
PE6
Text GLabel 7050 4150 0    50   Input ~ 0
PB0
Text GLabel 7050 4050 0    50   Input ~ 0
PB7
Text GLabel 7050 3950 0    50   Input ~ 0
PD0
Text GLabel 7050 3850 0    50   Input ~ 0
PE6
$Comp
L power:GND #PWR0140
U 1 1 618E8E2E
P 7050 4250
F 0 "#PWR0140" H 7050 4000 50  0001 C CNN
F 1 "GND" V 7055 4122 50  0000 R CNN
F 2 "" H 7050 4250 50  0001 C CNN
F 3 "" H 7050 4250 50  0001 C CNN
	1    7050 4250
	0    1    1    0   
$EndComp
$Comp
L power:+5V #PWR0141
U 1 1 618EA16F
P 7050 3750
F 0 "#PWR0141" H 7050 3600 50  0001 C CNN
F 1 "+5V" V 7065 3878 50  0000 L CNN
F 2 "" H 7050 3750 50  0001 C CNN
F 3 "" H 7050 3750 50  0001 C CNN
	1    7050 3750
	0    -1   -1   0   
$EndComp
Wire Wire Line
	1000 6750 1850 6750
$Comp
L Device:C C8
U 1 1 61804706
P 1500 7200
F 0 "C8" H 1615 7246 50  0000 L CNN
F 1 "2.2Uf" H 1615 7155 50  0000 L CNN
F 2 "Capacitor_SMD:C_0603_1608Metric_Pad1.08x0.95mm_HandSolder" H 1538 7050 50  0001 C CNN
F 3 "~" H 1500 7200 50  0001 C CNN
	1    1500 7200
	1    0    0    -1  
$EndComp
Wire Wire Line
	1500 7350 2000 7350
Wire Wire Line
	2000 7350 2000 7150
Connection ~ 2000 7150
Wire Wire Line
	2000 7150 2100 7150
$Comp
L Device:C C9
U 1 1 61BD98F1
P 2000 4600
F 0 "C9" H 2115 4646 50  0000 L CNN
F 1 ".1uf" H 2115 4555 50  0000 L CNN
F 2 "Capacitor_SMD:C_0603_1608Metric_Pad1.08x0.95mm_HandSolder" H 2038 4450 50  0001 C CNN
F 3 "~" H 2000 4600 50  0001 C CNN
	1    2000 4600
	1    0    0    -1  
$EndComp
Wire Wire Line
	2300 4750 2000 4750
Wire Wire Line
	2000 4450 2300 4450
$EndSCHEMATC
