EESchema Schematic File Version 4
EELAYER 30 0
EELAYER END
$Descr A4 11693 8268
encoding utf-8
Sheet 1 1
Title ""
Date ""
Rev ""
Comp ""
Comment1 ""
Comment2 ""
Comment3 ""
Comment4 ""
$EndDescr
$Comp
L power:GND #PWR0101
U 1 1 615CE8C6
P 3050 3800
F 0 "#PWR0101" H 3050 3550 50  0001 C CNN
F 1 "GND" H 3055 3627 50  0000 C CNN
F 2 "" H 3050 3800 50  0001 C CNN
F 3 "" H 3050 3800 50  0001 C CNN
	1    3050 3800
	1    0    0    -1  
$EndComp
$Comp
L power:GND #PWR0102
U 1 1 615D056A
P 3650 3800
F 0 "#PWR0102" H 3650 3550 50  0001 C CNN
F 1 "GND" H 3655 3627 50  0000 C CNN
F 2 "" H 3650 3800 50  0001 C CNN
F 3 "" H 3650 3800 50  0001 C CNN
	1    3650 3800
	1    0    0    -1  
$EndComp
$Comp
L power:GND #PWR0103
U 1 1 615D09B2
P 4250 3800
F 0 "#PWR0103" H 4250 3550 50  0001 C CNN
F 1 "GND" H 4255 3627 50  0000 C CNN
F 2 "" H 4250 3800 50  0001 C CNN
F 3 "" H 4250 3800 50  0001 C CNN
	1    4250 3800
	1    0    0    -1  
$EndComp
$Comp
L power:GND #PWR0104
U 1 1 615D11B3
P 4850 3800
F 0 "#PWR0104" H 4850 3550 50  0001 C CNN
F 1 "GND" H 4855 3627 50  0000 C CNN
F 2 "" H 4850 3800 50  0001 C CNN
F 3 "" H 4850 3800 50  0001 C CNN
	1    4850 3800
	1    0    0    -1  
$EndComp
$Comp
L power:GND #PWR0105
U 1 1 615D11B9
P 5450 3800
F 0 "#PWR0105" H 5450 3550 50  0001 C CNN
F 1 "GND" H 5455 3627 50  0000 C CNN
F 2 "" H 5450 3800 50  0001 C CNN
F 3 "" H 5450 3800 50  0001 C CNN
	1    5450 3800
	1    0    0    -1  
$EndComp
$Comp
L power:GND #PWR0106
U 1 1 615D11BF
P 6050 3800
F 0 "#PWR0106" H 6050 3550 50  0001 C CNN
F 1 "GND" H 6055 3627 50  0000 C CNN
F 2 "" H 6050 3800 50  0001 C CNN
F 3 "" H 6050 3800 50  0001 C CNN
	1    6050 3800
	1    0    0    -1  
$EndComp
$Comp
L power:GND #PWR0107
U 1 1 615D2DC0
P 6650 3800
F 0 "#PWR0107" H 6650 3550 50  0001 C CNN
F 1 "GND" H 6655 3627 50  0000 C CNN
F 2 "" H 6650 3800 50  0001 C CNN
F 3 "" H 6650 3800 50  0001 C CNN
	1    6650 3800
	1    0    0    -1  
$EndComp
$Comp
L power:GND #PWR0108
U 1 1 615D2DC6
P 7250 3800
F 0 "#PWR0108" H 7250 3550 50  0001 C CNN
F 1 "GND" H 7255 3627 50  0000 C CNN
F 2 "" H 7250 3800 50  0001 C CNN
F 3 "" H 7250 3800 50  0001 C CNN
	1    7250 3800
	1    0    0    -1  
$EndComp
$Comp
L power:GND #PWR0109
U 1 1 615D2DCC
P 7850 3800
F 0 "#PWR0109" H 7850 3550 50  0001 C CNN
F 1 "GND" H 7855 3627 50  0000 C CNN
F 2 "" H 7850 3800 50  0001 C CNN
F 3 "" H 7850 3800 50  0001 C CNN
	1    7850 3800
	1    0    0    -1  
$EndComp
$Comp
L power:GND #PWR0110
U 1 1 615D3B79
P 8450 3800
F 0 "#PWR0110" H 8450 3550 50  0001 C CNN
F 1 "GND" H 8455 3627 50  0000 C CNN
F 2 "" H 8450 3800 50  0001 C CNN
F 3 "" H 8450 3800 50  0001 C CNN
	1    8450 3800
	1    0    0    -1  
$EndComp
$Comp
L power:GND #PWR0111
U 1 1 615D3B7F
P 9050 3800
F 0 "#PWR0111" H 9050 3550 50  0001 C CNN
F 1 "GND" H 9055 3627 50  0000 C CNN
F 2 "" H 9050 3800 50  0001 C CNN
F 3 "" H 9050 3800 50  0001 C CNN
	1    9050 3800
	1    0    0    -1  
$EndComp
$Comp
L power:GND #PWR0112
U 1 1 615D3B85
P 9650 3800
F 0 "#PWR0112" H 9650 3550 50  0001 C CNN
F 1 "GND" H 9655 3627 50  0000 C CNN
F 2 "" H 9650 3800 50  0001 C CNN
F 3 "" H 9650 3800 50  0001 C CNN
	1    9650 3800
	1    0    0    -1  
$EndComp
$Comp
L power:+5V #PWR0113
U 1 1 615D3F8B
P 9650 3200
F 0 "#PWR0113" H 9650 3050 50  0001 C CNN
F 1 "+5V" H 9665 3373 50  0000 C CNN
F 2 "" H 9650 3200 50  0001 C CNN
F 3 "" H 9650 3200 50  0001 C CNN
	1    9650 3200
	1    0    0    -1  
$EndComp
$Comp
L power:+5V #PWR0114
U 1 1 615D4CC5
P 9050 3200
F 0 "#PWR0114" H 9050 3050 50  0001 C CNN
F 1 "+5V" H 9065 3373 50  0000 C CNN
F 2 "" H 9050 3200 50  0001 C CNN
F 3 "" H 9050 3200 50  0001 C CNN
	1    9050 3200
	1    0    0    -1  
$EndComp
$Comp
L power:+5V #PWR0115
U 1 1 615D5092
P 8450 3200
F 0 "#PWR0115" H 8450 3050 50  0001 C CNN
F 1 "+5V" H 8465 3373 50  0000 C CNN
F 2 "" H 8450 3200 50  0001 C CNN
F 3 "" H 8450 3200 50  0001 C CNN
	1    8450 3200
	1    0    0    -1  
$EndComp
$Comp
L power:+5V #PWR0116
U 1 1 615D5540
P 7850 3200
F 0 "#PWR0116" H 7850 3050 50  0001 C CNN
F 1 "+5V" H 7865 3373 50  0000 C CNN
F 2 "" H 7850 3200 50  0001 C CNN
F 3 "" H 7850 3200 50  0001 C CNN
	1    7850 3200
	1    0    0    -1  
$EndComp
$Comp
L power:+5V #PWR0117
U 1 1 615D6896
P 7250 3200
F 0 "#PWR0117" H 7250 3050 50  0001 C CNN
F 1 "+5V" H 7265 3373 50  0000 C CNN
F 2 "" H 7250 3200 50  0001 C CNN
F 3 "" H 7250 3200 50  0001 C CNN
	1    7250 3200
	1    0    0    -1  
$EndComp
$Comp
L power:+5V #PWR0118
U 1 1 615D689C
P 6650 3200
F 0 "#PWR0118" H 6650 3050 50  0001 C CNN
F 1 "+5V" H 6665 3373 50  0000 C CNN
F 2 "" H 6650 3200 50  0001 C CNN
F 3 "" H 6650 3200 50  0001 C CNN
	1    6650 3200
	1    0    0    -1  
$EndComp
$Comp
L power:+5V #PWR0119
U 1 1 615D68A2
P 6050 3200
F 0 "#PWR0119" H 6050 3050 50  0001 C CNN
F 1 "+5V" H 6065 3373 50  0000 C CNN
F 2 "" H 6050 3200 50  0001 C CNN
F 3 "" H 6050 3200 50  0001 C CNN
	1    6050 3200
	1    0    0    -1  
$EndComp
$Comp
L power:+5V #PWR0120
U 1 1 615D68A8
P 5450 3200
F 0 "#PWR0120" H 5450 3050 50  0001 C CNN
F 1 "+5V" H 5465 3373 50  0000 C CNN
F 2 "" H 5450 3200 50  0001 C CNN
F 3 "" H 5450 3200 50  0001 C CNN
	1    5450 3200
	1    0    0    -1  
$EndComp
$Comp
L power:+5V #PWR0121
U 1 1 615D814E
P 4850 3200
F 0 "#PWR0121" H 4850 3050 50  0001 C CNN
F 1 "+5V" H 4865 3373 50  0000 C CNN
F 2 "" H 4850 3200 50  0001 C CNN
F 3 "" H 4850 3200 50  0001 C CNN
	1    4850 3200
	1    0    0    -1  
$EndComp
$Comp
L power:+5V #PWR0122
U 1 1 615D8154
P 4250 3200
F 0 "#PWR0122" H 4250 3050 50  0001 C CNN
F 1 "+5V" H 4265 3373 50  0000 C CNN
F 2 "" H 4250 3200 50  0001 C CNN
F 3 "" H 4250 3200 50  0001 C CNN
	1    4250 3200
	1    0    0    -1  
$EndComp
$Comp
L power:+5V #PWR0123
U 1 1 615D815A
P 3650 3200
F 0 "#PWR0123" H 3650 3050 50  0001 C CNN
F 1 "+5V" H 3665 3373 50  0000 C CNN
F 2 "" H 3650 3200 50  0001 C CNN
F 3 "" H 3650 3200 50  0001 C CNN
	1    3650 3200
	1    0    0    -1  
$EndComp
$Comp
L power:+5V #PWR0124
U 1 1 615D8160
P 3050 3200
F 0 "#PWR0124" H 3050 3050 50  0001 C CNN
F 1 "+5V" H 3065 3373 50  0000 C CNN
F 2 "" H 3050 3200 50  0001 C CNN
F 3 "" H 3050 3200 50  0001 C CNN
	1    3050 3200
	1    0    0    -1  
$EndComp
Text GLabel 2750 3500 0    50   Input ~ 0
LED_in
$Comp
L Connector:TestPoint TP1
U 1 1 615D90CA
P 2550 4350
F 0 "TP1" H 2492 4376 50  0000 R CNN
F 1 "TestPoint" H 2492 4467 50  0000 R CNN
F 2 "TestPoint:TestPoint_Pad_1.0x1.0mm" H 2750 4350 50  0001 C CNN
F 3 "~" H 2750 4350 50  0001 C CNN
	1    2550 4350
	-1   0    0    1   
$EndComp
$Comp
L Connector:TestPoint TP2
U 1 1 615D982D
P 3050 4350
F 0 "TP2" H 2992 4376 50  0000 R CNN
F 1 "TestPoint" H 2992 4467 50  0000 R CNN
F 2 "TestPoint:TestPoint_Pad_1.0x1.0mm" H 3250 4350 50  0001 C CNN
F 3 "~" H 3250 4350 50  0001 C CNN
	1    3050 4350
	-1   0    0    1   
$EndComp
$Comp
L Connector:TestPoint TP3
U 1 1 615D9E09
P 3550 4350
F 0 "TP3" H 3492 4376 50  0000 R CNN
F 1 "TestPoint" H 3492 4467 50  0000 R CNN
F 2 "TestPoint:TestPoint_Pad_1.0x1.0mm" H 3750 4350 50  0001 C CNN
F 3 "~" H 3750 4350 50  0001 C CNN
	1    3550 4350
	-1   0    0    1   
$EndComp
$Comp
L power:GND #PWR0125
U 1 1 615DA4F3
P 2550 4350
F 0 "#PWR0125" H 2550 4100 50  0001 C CNN
F 1 "GND" H 2555 4177 50  0000 C CNN
F 2 "" H 2550 4350 50  0001 C CNN
F 3 "" H 2550 4350 50  0001 C CNN
	1    2550 4350
	-1   0    0    1   
$EndComp
$Comp
L power:+5V #PWR0126
U 1 1 615DAA3C
P 3050 4350
F 0 "#PWR0126" H 3050 4200 50  0001 C CNN
F 1 "+5V" H 3065 4523 50  0000 C CNN
F 2 "" H 3050 4350 50  0001 C CNN
F 3 "" H 3050 4350 50  0001 C CNN
	1    3050 4350
	1    0    0    -1  
$EndComp
Text GLabel 3550 4350 2    50   Input ~ 0
LED_in
$Comp
L LED:WS2812B D1
U 1 1 615C51D3
P 3050 3500
F 0 "D1" H 3394 3546 50  0000 L CNN
F 1 "WS2812B" H 3394 3455 50  0000 L CNN
F 2 "LED_SMD:LED_SK6812MINI_PLCC4_3.5x3.5mm_P1.75mm" H 3100 3200 50  0001 L TNN
F 3 "https://cdn-shop.adafruit.com/datasheets/WS2812B.pdf" H 3150 3125 50  0001 L TNN
	1    3050 3500
	1    0    0    -1  
$EndComp
$Comp
L LED:WS2812B D2
U 1 1 615C6239
P 3650 3500
F 0 "D2" H 3994 3546 50  0000 L CNN
F 1 "WS2812B" H 3994 3455 50  0000 L CNN
F 2 "LED_SMD:LED_SK6812MINI_PLCC4_3.5x3.5mm_P1.75mm" H 3700 3200 50  0001 L TNN
F 3 "https://cdn-shop.adafruit.com/datasheets/WS2812B.pdf" H 3750 3125 50  0001 L TNN
	1    3650 3500
	1    0    0    -1  
$EndComp
$Comp
L LED:WS2812B D3
U 1 1 615C690F
P 4250 3500
F 0 "D3" H 4594 3546 50  0000 L CNN
F 1 "WS2812B" H 4594 3455 50  0000 L CNN
F 2 "LED_SMD:LED_SK6812MINI_PLCC4_3.5x3.5mm_P1.75mm" H 4300 3200 50  0001 L TNN
F 3 "https://cdn-shop.adafruit.com/datasheets/WS2812B.pdf" H 4350 3125 50  0001 L TNN
	1    4250 3500
	1    0    0    -1  
$EndComp
$Comp
L LED:WS2812B D4
U 1 1 615C6E51
P 4850 3500
F 0 "D4" H 5194 3546 50  0000 L CNN
F 1 "WS2812B" H 5194 3455 50  0000 L CNN
F 2 "LED_SMD:LED_SK6812MINI_PLCC4_3.5x3.5mm_P1.75mm" H 4900 3200 50  0001 L TNN
F 3 "https://cdn-shop.adafruit.com/datasheets/WS2812B.pdf" H 4950 3125 50  0001 L TNN
	1    4850 3500
	1    0    0    -1  
$EndComp
$Comp
L LED:WS2812B D5
U 1 1 615C933E
P 5450 3500
F 0 "D5" H 5794 3546 50  0000 L CNN
F 1 "WS2812B" H 5794 3455 50  0000 L CNN
F 2 "LED_SMD:LED_SK6812MINI_PLCC4_3.5x3.5mm_P1.75mm" H 5500 3200 50  0001 L TNN
F 3 "https://cdn-shop.adafruit.com/datasheets/WS2812B.pdf" H 5550 3125 50  0001 L TNN
	1    5450 3500
	1    0    0    -1  
$EndComp
$Comp
L LED:WS2812B D6
U 1 1 615C9344
P 6050 3500
F 0 "D6" H 6394 3546 50  0000 L CNN
F 1 "WS2812B" H 6394 3455 50  0000 L CNN
F 2 "LED_SMD:LED_SK6812MINI_PLCC4_3.5x3.5mm_P1.75mm" H 6100 3200 50  0001 L TNN
F 3 "https://cdn-shop.adafruit.com/datasheets/WS2812B.pdf" H 6150 3125 50  0001 L TNN
	1    6050 3500
	1    0    0    -1  
$EndComp
$Comp
L LED:WS2812B D7
U 1 1 615C934A
P 6650 3500
F 0 "D7" H 6994 3546 50  0000 L CNN
F 1 "WS2812B" H 6994 3455 50  0000 L CNN
F 2 "LED_SMD:LED_SK6812MINI_PLCC4_3.5x3.5mm_P1.75mm" H 6700 3200 50  0001 L TNN
F 3 "https://cdn-shop.adafruit.com/datasheets/WS2812B.pdf" H 6750 3125 50  0001 L TNN
	1    6650 3500
	1    0    0    -1  
$EndComp
$Comp
L LED:WS2812B D8
U 1 1 615C9350
P 7250 3500
F 0 "D8" H 7594 3546 50  0000 L CNN
F 1 "WS2812B" H 7594 3455 50  0000 L CNN
F 2 "LED_SMD:LED_SK6812MINI_PLCC4_3.5x3.5mm_P1.75mm" H 7300 3200 50  0001 L TNN
F 3 "https://cdn-shop.adafruit.com/datasheets/WS2812B.pdf" H 7350 3125 50  0001 L TNN
	1    7250 3500
	1    0    0    -1  
$EndComp
$Comp
L LED:WS2812B D9
U 1 1 615CB534
P 7850 3500
F 0 "D9" H 8194 3546 50  0000 L CNN
F 1 "WS2812B" H 8194 3455 50  0000 L CNN
F 2 "LED_SMD:LED_SK6812MINI_PLCC4_3.5x3.5mm_P1.75mm" H 7900 3200 50  0001 L TNN
F 3 "https://cdn-shop.adafruit.com/datasheets/WS2812B.pdf" H 7950 3125 50  0001 L TNN
	1    7850 3500
	1    0    0    -1  
$EndComp
$Comp
L LED:WS2812B D10
U 1 1 615CB53A
P 8450 3500
F 0 "D10" H 8794 3546 50  0000 L CNN
F 1 "WS2812B" H 8794 3455 50  0000 L CNN
F 2 "LED_SMD:LED_SK6812MINI_PLCC4_3.5x3.5mm_P1.75mm" H 8500 3200 50  0001 L TNN
F 3 "https://cdn-shop.adafruit.com/datasheets/WS2812B.pdf" H 8550 3125 50  0001 L TNN
	1    8450 3500
	1    0    0    -1  
$EndComp
$Comp
L LED:WS2812B D11
U 1 1 615CB540
P 9050 3500
F 0 "D11" H 9394 3546 50  0000 L CNN
F 1 "WS2812B" H 9394 3455 50  0000 L CNN
F 2 "LED_SMD:LED_SK6812MINI_PLCC4_3.5x3.5mm_P1.75mm" H 9100 3200 50  0001 L TNN
F 3 "https://cdn-shop.adafruit.com/datasheets/WS2812B.pdf" H 9150 3125 50  0001 L TNN
	1    9050 3500
	1    0    0    -1  
$EndComp
$Comp
L LED:WS2812B D12
U 1 1 615CB546
P 9650 3500
F 0 "D12" H 9994 3546 50  0000 L CNN
F 1 "WS2812B" H 9994 3455 50  0000 L CNN
F 2 "LED_SMD:LED_SK6812MINI_PLCC4_3.5x3.5mm_P1.75mm" H 9700 3200 50  0001 L TNN
F 3 "https://cdn-shop.adafruit.com/datasheets/WS2812B.pdf" H 9750 3125 50  0001 L TNN
	1    9650 3500
	1    0    0    -1  
$EndComp
$EndSCHEMATC
