G04 #@! TF.GenerationSoftware,KiCad,Pcbnew,(6.0.6)*
G04 #@! TF.CreationDate,2022-07-12T13:23:19+02:00*
G04 #@! TF.ProjectId,LED_PCB,4c45445f-5043-4422-9e6b-696361645f70,rev?*
G04 #@! TF.SameCoordinates,Original*
G04 #@! TF.FileFunction,Copper,L2,Bot*
G04 #@! TF.FilePolarity,Positive*
%FSLAX46Y46*%
G04 Gerber Fmt 4.6, Leading zero omitted, Abs format (unit mm)*
G04 Created by KiCad (PCBNEW (6.0.6)) date 2022-07-12 13:23:19*
%MOMM*%
%LPD*%
G01*
G04 APERTURE LIST*
G04 #@! TA.AperFunction,ComponentPad*
%ADD10R,2.000000X2.000000*%
G04 #@! TD*
G04 #@! TA.AperFunction,ViaPad*
%ADD11C,0.600000*%
G04 #@! TD*
G04 #@! TA.AperFunction,Conductor*
%ADD12C,0.200000*%
G04 #@! TD*
G04 #@! TA.AperFunction,Conductor*
%ADD13C,0.150000*%
G04 #@! TD*
G04 #@! TA.AperFunction,Conductor*
%ADD14C,0.300000*%
G04 #@! TD*
G04 APERTURE END LIST*
D10*
X25023000Y-4450000D03*
X-25277000Y-4350000D03*
X-22227000Y-4350000D03*
D11*
X1900000Y710000D03*
X1940000Y-2140000D03*
X-1930000Y2730000D03*
X-1930000Y-1390000D03*
X-25800000Y-2100000D03*
X22280000Y-3800000D03*
X23100000Y-3800000D03*
X26141646Y-3016440D03*
D12*
X26141646Y-3016440D02*
X26047656Y-3110430D01*
X26047656Y-3110430D02*
X23789570Y-3110430D01*
X23789570Y-3110430D02*
X23100000Y-3800000D01*
D13*
X-25800000Y-2100000D02*
X-24291851Y-2100000D01*
X-24291851Y-2100000D02*
X-22227000Y-4164851D01*
D14*
X1940000Y-2140000D02*
X1940000Y670000D01*
X1940000Y670000D02*
X1900000Y710000D01*
X-1930000Y2730000D02*
X-1930000Y-1390000D01*
D12*
X-20986669Y-2900000D02*
X-22227000Y-4140331D01*
X22180000Y-2900000D02*
X-20986669Y-2900000D01*
X22280000Y-3000000D02*
X22180000Y-2900000D01*
X22280000Y-3800000D02*
X22280000Y-3000000D01*
G04 #@! TA.AperFunction,NonConductor*
G36*
X-7017010Y3241292D02*
G01*
X-6970517Y3187636D01*
X-6959131Y3135294D01*
X-6959131Y-2473500D01*
X-6979133Y-2541621D01*
X-7032789Y-2588114D01*
X-7085131Y-2599500D01*
X-20934303Y-2599500D01*
X-20936976Y-2599304D01*
X-20942011Y-2597575D01*
X-20953633Y-2598011D01*
X-20953635Y-2598011D01*
X-20990924Y-2599411D01*
X-20995650Y-2599500D01*
X-21014617Y-2599500D01*
X-21019352Y-2600382D01*
X-21022878Y-2600610D01*
X-21026618Y-2600751D01*
X-21053877Y-2601774D01*
X-21064562Y-2606364D01*
X-21069162Y-2607401D01*
X-21080883Y-2610962D01*
X-21085286Y-2612661D01*
X-21096722Y-2614791D01*
X-21117708Y-2627727D01*
X-21134075Y-2636229D01*
X-21139290Y-2638470D01*
X-21189036Y-2648706D01*
X-23301339Y-2648706D01*
X-23369460Y-2628704D01*
X-23390434Y-2611801D01*
X-24069079Y-1933156D01*
X-24084749Y-1914064D01*
X-24086336Y-1911689D01*
X-24093227Y-1901376D01*
X-24116228Y-1886007D01*
X-24114639Y-1883630D01*
X-24114641Y-1883629D01*
X-24116229Y-1886006D01*
X-24142383Y-1868531D01*
X-24142385Y-1868528D01*
X-24142386Y-1868529D01*
X-24174040Y-1847378D01*
X-24184356Y-1840485D01*
X-24196525Y-1838064D01*
X-24196526Y-1838064D01*
X-24264718Y-1824500D01*
X-24279679Y-1821524D01*
X-24279680Y-1821524D01*
X-24291851Y-1819103D01*
X-24304022Y-1821524D01*
X-24306812Y-1822079D01*
X-24331394Y-1824500D01*
X-25318909Y-1824500D01*
X-25387030Y-1804498D01*
X-25414362Y-1780748D01*
X-25461740Y-1725763D01*
X-25461743Y-1725760D01*
X-25467600Y-1718963D01*
X-25587905Y-1640985D01*
X-25725261Y-1599907D01*
X-25734237Y-1599852D01*
X-25734238Y-1599852D01*
X-25838110Y-1599217D01*
X-25906108Y-1578798D01*
X-25952272Y-1524860D01*
X-25961457Y-1451519D01*
X-25390505Y1813910D01*
X-25390040Y1816419D01*
X-25365825Y1940052D01*
X-25361389Y1956624D01*
X-25279401Y2196243D01*
X-25271666Y2214174D01*
X-25154199Y2437180D01*
X-25143786Y2453701D01*
X-24993269Y2655879D01*
X-24980429Y2670592D01*
X-24800478Y2847087D01*
X-24785519Y2859639D01*
X-24580463Y3006205D01*
X-24563743Y3016296D01*
X-24338489Y3129422D01*
X-24320412Y3136807D01*
X-24147710Y3192182D01*
X-24080398Y3213765D01*
X-24061400Y3218267D01*
X-23959826Y3234153D01*
X-23811186Y3257400D01*
X-23794096Y3258891D01*
X-23668034Y3261272D01*
X-23665655Y3261294D01*
X-7085131Y3261294D01*
X-7017010Y3241292D01*
G37*
G04 #@! TD.AperFunction*
G04 #@! TA.AperFunction,NonConductor*
G36*
X-24390036Y-2395502D02*
G01*
X-24369062Y-2412405D01*
X-24347856Y-2433611D01*
X-24313830Y-2495923D01*
X-24318895Y-2566738D01*
X-24361442Y-2623574D01*
X-24427962Y-2648385D01*
X-24436951Y-2648706D01*
X-25337526Y-2648706D01*
X-25405647Y-2628704D01*
X-25452140Y-2575048D01*
X-25462244Y-2504774D01*
X-25430943Y-2438152D01*
X-25411749Y-2416946D01*
X-25351206Y-2379864D01*
X-25318332Y-2375500D01*
X-24458157Y-2375500D01*
X-24390036Y-2395502D01*
G37*
G04 #@! TD.AperFunction*
G04 #@! TA.AperFunction,NonConductor*
G36*
X23669936Y3260922D02*
G01*
X23795994Y3258545D01*
X23813088Y3257054D01*
X23900694Y3243353D01*
X24063300Y3217922D01*
X24082297Y3213419D01*
X24114588Y3203065D01*
X24322313Y3136460D01*
X24340390Y3129075D01*
X24565644Y3015949D01*
X24582364Y3005858D01*
X24787416Y2859295D01*
X24802375Y2846743D01*
X24982333Y2670241D01*
X24995173Y2655528D01*
X25145687Y2453353D01*
X25156100Y2436832D01*
X25273568Y2213823D01*
X25281303Y2195892D01*
X25363288Y1956277D01*
X25367724Y1939706D01*
X25391940Y1816070D01*
X25392405Y1813560D01*
X26126165Y-2383011D01*
X26118195Y-2453557D01*
X26073349Y-2508597D01*
X26036672Y-2525860D01*
X25943805Y-2552401D01*
X25943802Y-2552402D01*
X25935175Y-2554868D01*
X25927588Y-2559655D01*
X25927586Y-2559656D01*
X25816703Y-2629618D01*
X25749468Y-2649056D01*
X22386253Y-2649056D01*
X22339576Y-2640091D01*
X22335464Y-2638451D01*
X22317777Y-2629008D01*
X22313449Y-2627090D01*
X22303854Y-2620508D01*
X22292535Y-2617822D01*
X22292533Y-2617821D01*
X22279873Y-2614817D01*
X22262276Y-2609252D01*
X22247638Y-2603412D01*
X22247635Y-2603411D01*
X22239378Y-2600117D01*
X22233085Y-2599500D01*
X22230006Y-2599500D01*
X22226933Y-2599350D01*
X22226944Y-2599134D01*
X22215569Y-2597802D01*
X22206254Y-2597346D01*
X22194934Y-2594660D01*
X22183405Y-2596229D01*
X22183404Y-2596229D01*
X22167827Y-2598349D01*
X22150836Y-2599500D01*
X7087031Y-2599500D01*
X7018910Y-2579498D01*
X6972417Y-2525842D01*
X6961031Y-2473500D01*
X6961031Y3134944D01*
X6981033Y3203065D01*
X7034689Y3249558D01*
X7087031Y3260944D01*
X23667561Y3260944D01*
X23669936Y3260922D01*
G37*
G04 #@! TD.AperFunction*
M02*
