999
dxflib 3.26.4.0
  0
SECTION
  2
HEADER
  9
$ACADVER
  1
AC1015
  9
$HANDSEED
  5
FFFF
  9
$DIMADEC
 70
0
  9
$DIMASZ
 40
2.5
  9
$DIMATFIT
 70
0
  9
$DIMAUNIT
 70
0
  9
$DIMAZIN
 70
2
  9
$DIMBLK
  1
0
  9
$DIMBLK1
  1
0
  9
$DIMBLK2
  1
0
  9
$DIMDEC
 70
4
  9
$DIMDLI
 40
5.0
  9
$DIMDSEP
 70
46
  9
$DIMEXE
 40
1.25
  9
$DIMEXO
 40
0.625
  9
$DIMGAP
 40
0.625
  9
$DIMLFAC
 40
1.0
  9
$DIMLUNIT
 70
2
  9
$DIMSCALE
 40
1.0
  9
$DIMTAD
 70
1
  9
$DIMTIH
 70
0
  9
$DIMTSZ
 40
0.0
  9
$DIMTXT
 40
2.5
  9
$DIMZIN
 70
8
  9
$DWGCODEPAGE
  3
ANSI_1252
  9
$INSUNITS
 70
4
  9
$LTSCALE
 40
1.0
  9
$MAXACTVP
 70
64
  9
$MEASUREMENT
 70
1
  9
$MIRRTEXT
 70
0
  9
$PDMODE
 70
0
  9
$PDSIZE
 40
0.0
  0
ENDSEC
  0
SECTION
  2
TABLES
  0
TABLE
  2
VPORT
  5
8
100
AcDbSymbolTable
 70
1
  0
VPORT
  5
30
100
AcDbSymbolTableRecord
100
AcDbViewportTableRecord
  2
*Active
 70
0
 10
0.0
 20
0.0
 11
1.0
 21
1.0
 12
286.3055555555554861
 22
148.5
 13
0.0
 23
0.0
 14
10.0
 24
10.0
 15
10.0
 25
10.0
 16
0.0
 26
0.0
 36
1.0
 17
0.0
 27
0.0
 37
0.0
 40
297.0
 41
1.92798353909465
 42
50.0
 43
0.0
 44
0.0
 50
0.0
 51
0.0
 71
0
 72
100
 73
1
 74
3
 75
1
 76
1
 77
0
 78
0
281
0
 65
1
110
0.0
120
0.0
130
0.0
111
1.0
121
0.0
131
0.0
112
0.0
122
1.0
132
0.0
 79
0
146
0.0
  0
ENDTAB
  0
TABLE
  2
LTYPE
  5
5
100
AcDbSymbolTable
 70
41
  0
LTYPE
  5
16
100
AcDbSymbolTableRecord
100
AcDbLinetypeTableRecord
  2
Continuous
 70
0
  3
Solid line
 72
65
 73
0
 40
0.0
  0
LTYPE
  5
31
100
AcDbSymbolTableRecord
100
AcDbLinetypeTableRecord
  2
DASHDOT
 70
0
  3
Dash dot __ . __ . __ . __ . __ . __ . __ . __
 72
65
 73
4
 40
25.4000000000000021
 49
12.6999999999999993
 74
0
 49
-6.2999999999999998
 74
0
 49
0.1
 74
0
 49
-6.2999999999999998
 74
0
  0
LTYPE
  5
32
100
AcDbSymbolTableRecord
100
AcDbLinetypeTableRecord
  2
ACAD_ISO07W100
 70
0
  3
ISO dot . . . . . . . . . . . . . . . . . . . . 
 72
65
 73
2
 40
3.0
 49
0.1
 74
0
 49
-2.8999999999999999
 74
0
  0
LTYPE
  5
33
100
AcDbSymbolTableRecord
100
AcDbLinetypeTableRecord
  2
BORDER
 70
0
  3
Border __ __ . __ __ . __ __ . __ __ . __ __ .
 72
65
 73
6
 40
44.4499999999999957
 49
12.6999999999999993
 74
0
 49
-6.3499999999999996
 74
0
 49
12.6999999999999993
 74
0
 49
-6.2999999999999998
 74
0
 49
0.1
 74
0
 49
-6.2999999999999998
 74
0
  0
LTYPE
  5
14
100
AcDbSymbolTableRecord
100
AcDbLinetypeTableRecord
  2
BYBLOCK
 70
0
  3

 72
65
 73
0
 40
0.0
  0
LTYPE
  5
34
100
AcDbSymbolTableRecord
100
AcDbLinetypeTableRecord
  2
DIVIDE
 70
0
  3
Divide ____ . . ____ . . ____ . . ____ . . ____
 72
65
 73
6
 40
31.7500000000000036
 49
12.6999999999999993
 74
0
 49
-6.2999999999999998
 74
0
 49
0.1
 74
0
 49
-6.25
 74
0
 49
0.1
 74
0
 49
-6.2999999999999998
 74
0
  0
LTYPE
  5
15
100
AcDbSymbolTableRecord
100
AcDbLinetypeTableRecord
  2
BYLAYER
 70
0
  3

 72
65
 73
0
 40
0.0
  0
LTYPE
  5
35
100
AcDbSymbolTableRecord
100
AcDbLinetypeTableRecord
  2
DASHED2
 70
0
  3
Dashed (.5x) _ _ _ _ _ _ _ _ _ _ _ _ _ _ _ _ _ 
 72
65
 73
2
 40
9.5249999999999986
 49
6.3499999999999996
 74
0
 49
-3.1749999999999998
 74
0
  0
LTYPE
  5
36
100
AcDbSymbolTableRecord
100
AcDbLinetypeTableRecord
  2
PHANTOM
 70
0
  3
Phantom ______  __  __  ______  __  __  ______ 
 72
65
 73
6
 40
63.5000000000000071
 49
31.75
 74
0
 49
-6.3499999999999996
 74
0
 49
6.3499999999999996
 74
0
 49
-6.3499999999999996
 74
0
 49
6.3499999999999996
 74
0
 49
-6.3499999999999996
 74
0
  0
LTYPE
  5
37
100
AcDbSymbolTableRecord
100
AcDbLinetypeTableRecord
  2
ACAD_ISO14W100
 70
0
  3
ISO dash triple-dot __ . . . __ . . . __ . . . _
 72
65
 73
8
 40
24.0000000000000036
 49
12.0
 74
0
 49
-2.9500000000000002
 74
0
 49
0.1
 74
0
 49
-2.9000000000000004
 74
0
 49
0.1
 74
0
 49
-2.9000000000000004
 74
0
 49
0.1
 74
0
 49
-2.9500000000000002
 74
0
  0
LTYPE
  5
38
100
AcDbSymbolTableRecord
100
AcDbLinetypeTableRecord
  2
ACAD_ISO10W100
 70
0
  3
ISO dash dot __ . __ . __ . __ . __ . __ . __ . 
 72
65
 73
4
 40
18.0
 49
12.0
 74
0
 49
-2.9500000000000002
 74
0
 49
0.1
 74
0
 49
-2.9500000000000002
 74
0
  0
LTYPE
  5
39
100
AcDbSymbolTableRecord
100
AcDbLinetypeTableRecord
  2
HIDDEN2
 70
0
  3
Hidden (.5x) _ _ _ _ _ _ _ _ _ _ _ _ _ _ _ _ _ 
 72
65
 73
2
 40
4.7624999999999993
 49
3.1749999999999998
 74
0
 49
-1.5874999999999999
 74
0
  0
LTYPE
  5
3A
100
AcDbSymbolTableRecord
100
AcDbLinetypeTableRecord
  2
DIVIDE2
 70
0
  3
Divide (.5x) __..__..__..__..__..__..__..__.._
 72
65
 73
6
 40
15.8749999999999982
 49
6.3499999999999996
 74
0
 49
-3.125
 74
0
 49
0.1
 74
0
 49
-3.0750000000000002
 74
0
 49
0.1
 74
0
 49
-3.125
 74
0
  0
LTYPE
  5
3B
100
AcDbSymbolTableRecord
100
AcDbLinetypeTableRecord
  2
PHANTOM2
 70
0
  3
Phantom (.5x) ___ _ _ ___ _ _ ___ _ _ ___ _ _
 72
65
 73
6
 40
31.7500000000000036
 49
15.875
 74
0
 49
-3.1749999999999998
 74
0
 49
3.1749999999999998
 74
0
 49
-3.1749999999999998
 74
0
 49
3.1749999999999998
 74
0
 49
-3.1749999999999998
 74
0
  0
LTYPE
  5
3C
100
AcDbSymbolTableRecord
100
AcDbLinetypeTableRecord
  2
BORDERX2
 70
0
  3
Border (2x) ____  ____  .  ____  ____  .  ___
 72
65
 73
6
 40
88.8999999999999773
 49
25.3999999999999986
 74
0
 49
-12.6999999999999993
 74
0
 49
25.3999999999999986
 74
0
 49
-12.6499999999999986
 74
0
 49
0.1
 74
0
 49
-12.6499999999999986
 74
0
  0
LTYPE
  5
3D
100
AcDbSymbolTableRecord
100
AcDbLinetypeTableRecord
  2
DASHDOTX2
 70
0
  3
Dash dot (2x) ____  .  ____  .  ____  .  ___
 72
65
 73
4
 40
50.7999999999999972
 49
25.3999999999999986
 74
0
 49
-12.6499999999999986
 74
0
 49
0.1
 74
0
 49
-12.6499999999999986
 74
0
  0
LTYPE
  5
3E
100
AcDbSymbolTableRecord
100
AcDbLinetypeTableRecord
  2
ACAD_ISO04W100
 70
0
  3
ISO long-dash dot ____ . ____ . ____ . ____ . _
 72
65
 73
4
 40
30.0
 49
24.0
 74
0
 49
-2.9500000000000002
 74
0
 49
0.1
 74
0
 49
-2.9500000000000002
 74
0
  0
LTYPE
  5
3F
100
AcDbSymbolTableRecord
100
AcDbLinetypeTableRecord
  2
CENTER
 70
0
  3
Center ____ _ ____ _ ____ _ ____ _ ____ _ ____
 72
65
 73
4
 40
50.8000000000000043
 49
31.75
 74
0
 49
-6.3499999999999996
 74
0
 49
6.3499999999999996
 74
0
 49
-6.3499999999999996
 74
0
  0
LTYPE
  5
40
100
AcDbSymbolTableRecord
100
AcDbLinetypeTableRecord
  2
ACAD_ISO05W100
 70
0
  3
ISO long-dash double-dot ____ .. ____ .. ____ . 
 72
65
 73
6
 40
33.0000000000000071
 49
24.0
 74
0
 49
-2.9500000000000002
 74
0
 49
0.1
 74
0
 49
-2.9000000000000004
 74
0
 49
0.1
 74
0
 49
-2.9500000000000002
 74
0
  0
LTYPE
  5
41
100
AcDbSymbolTableRecord
100
AcDbLinetypeTableRecord
  2
DASHED
 70
0
  3
Dashed __ __ __ __ __ __ __ __ __ __ __ __ __ _
 72
65
 73
2
 40
19.0499999999999972
 49
12.6999999999999993
 74
0
 49
-6.3499999999999996
 74
0
  0
LTYPE
  5
42
100
AcDbSymbolTableRecord
100
AcDbLinetypeTableRecord
  2
ACAD_ISO08W100
 70
0
  3
ISO long-dash short-dash ____ __ ____ __ ____ _
 72
65
 73
4
 40
36.0
 49
24.0
 74
0
 49
-3.0
 74
0
 49
6.0
 74
0
 49
-3.0
 74
0
  0
LTYPE
  5
43
100
AcDbSymbolTableRecord
100
AcDbLinetypeTableRecord
  2
DASHEDX2
 70
0
  3
Dashed (2x) ____  ____  ____  ____  ____  ___
 72
65
 73
2
 40
38.0999999999999943
 49
25.3999999999999986
 74
0
 49
-12.6999999999999993
 74
0
  0
LTYPE
  5
44
100
AcDbSymbolTableRecord
100
AcDbLinetypeTableRecord
  2
DOT2
 70
0
  3
Dot (.5x) ........................................
 72
65
 73
2
 40
3.1749999999999998
 49
0.1
 74
0
 49
-3.0749999999999997
 74
0
  0
LTYPE
  5
45
100
AcDbSymbolTableRecord
100
AcDbLinetypeTableRecord
  2
ACAD_ISO11W100
 70
0
  3
ISO double-dash dot __ __ . __ __ . __ __ . __ _
 72
65
 73
6
 40
33.0
 49
12.0
 74
0
 49
-3.0
 74
0
 49
12.0
 74
0
 49
-2.9500000000000002
 74
0
 49
0.1
 74
0
 49
-2.9500000000000002
 74
0
  0
LTYPE
  5
46
100
AcDbSymbolTableRecord
100
AcDbLinetypeTableRecord
  2
ACAD_ISO12W100
 70
0
  3
ISO dash double-dot __ . . __ . . __ . . __ . . 
 72
65
 73
6
 40
21.0
 49
12.0
 74
0
 49
-2.9500000000000002
 74
0
 49
0.1
 74
0
 49
-2.9000000000000004
 74
0
 49
0.1
 74
0
 49
-2.9500000000000002
 74
0
  0
LTYPE
  5
47
100
AcDbSymbolTableRecord
100
AcDbLinetypeTableRecord
  2
HIDDEN
 70
0
  3
Hidden __ __ __ __ __ __ __ __ __ __ __ __ __ __
 72
65
 73
2
 40
9.5249999999999986
 49
6.3499999999999996
 74
0
 49
-3.1749999999999998
 74
0
  0
LTYPE
  5
48
100
AcDbSymbolTableRecord
100
AcDbLinetypeTableRecord
  2
PHANTOMX2
 70
0
  3
Phantom (2x) ____________    ____    ____   _
 72
65
 73
6
 40
127.0000000000000142
 49
63.5
 74
0
 49
-12.6999999999999993
 74
0
 49
12.6999999999999993
 74
0
 49
-12.6999999999999993
 74
0
 49
12.6999999999999993
 74
0
 49
-12.6999999999999993
 74
0
  0
LTYPE
  5
49
100
AcDbSymbolTableRecord
100
AcDbLinetypeTableRecord
  2
DOTX2
 70
0
  3
Dot (2x) .  .  .  .  .  .  .  .  .  .  .  .  .  .
 72
65
 73
2
 40
12.6999999999999993
 49
0.1
 74
0
 49
-12.5999999999999996
 74
0
  0
LTYPE
  5
4A
100
AcDbSymbolTableRecord
100
AcDbLinetypeTableRecord
  2
HIDDENX2
 70
0
  3
Hidden (2x) ____ ____ ____ ____ ____ ____ ____ 
 72
65
 73
2
 40
19.0499999999999972
 49
12.6999999999999993
 74
0
 49
-6.3499999999999996
 74
0
  0
LTYPE
  5
4B
100
AcDbSymbolTableRecord
100
AcDbLinetypeTableRecord
  2
DOT
 70
0
  3
Dot . . . . . . . . . . . . . . . . . . . . . . . .
 72
65
 73
2
 40
6.3499999999999996
 49
0.1
 74
0
 49
-6.25
 74
0
  0
LTYPE
  5
4C
100
AcDbSymbolTableRecord
100
AcDbLinetypeTableRecord
  2
ACAD_ISO02W100
 70
0
  3
ISO dash __ __ __ __ __ __ __ __ __ __ __ __ __
 72
65
 73
2
 40
15.0
 49
12.0
 74
0
 49
-3.0
 74
0
  0
LTYPE
  5
4D
100
AcDbSymbolTableRecord
100
AcDbLinetypeTableRecord
  2
ACAD_ISO13W100
 70
0
  3
ISO double-dash double-dot __ __ . . __ __ . . _
 72
65
 73
8
 40
36.0000000000000071
 49
12.0
 74
0
 49
-3.0
 74
0
 49
12.0
 74
0
 49
-2.9500000000000002
 74
0
 49
0.1
 74
0
 49
-2.9000000000000004
 74
0
 49
0.1
 74
0
 49
-2.9500000000000002
 74
0
  0
LTYPE
  5
4E
100
AcDbSymbolTableRecord
100
AcDbLinetypeTableRecord
  2
ACAD_ISO09W100
 70
0
  3
ISO long-dash double-short-dash ____ __ __ ____
 72
65
 73
6
 40
45.0
 49
24.0
 74
0
 49
-3.0
 74
0
 49
6.0
 74
0
 49
-3.0
 74
0
 49
6.0
 74
0
 49
-3.0
 74
0
  0
LTYPE
  5
4F
100
AcDbSymbolTableRecord
100
AcDbLinetypeTableRecord
  2
BORDER2
 70
0
  3
Border (.5x) __.__.__.__.__.__.__.__.__.__.__.
 72
65
 73
6
 40
22.2250000000000014
 49
6.3499999999999996
 74
0
 49
-3.1749999999999998
 74
0
 49
6.3499999999999996
 74
0
 49
-3.125
 74
0
 49
0.1
 74
0
 49
-3.125
 74
0
  0
LTYPE
  5
50
100
AcDbSymbolTableRecord
100
AcDbLinetypeTableRecord
  2
DASHDOT2
 70
0
  3
Dash dot (.5x) _._._._._._._._._._._._._._._.
 72
65
 73
4
 40
12.6999999999999993
 49
6.3499999999999996
 74
0
 49
-3.125
 74
0
 49
0.1
 74
0
 49
-3.125
 74
0
  0
LTYPE
  5
51
100
AcDbSymbolTableRecord
100
AcDbLinetypeTableRecord
  2
ACAD_ISO15W100
 70
0
  3
ISO double-dash triple-dot __ __ . . . __ __ . .
 72
65
 73
10
 40
39.0000000000000071
 49
12.0
 74
0
 49
-3.0
 74
0
 49
12.0
 74
0
 49
-2.9500000000000002
 74
0
 49
0.1
 74
0
 49
-2.9000000000000004
 74
0
 49
0.1
 74
0
 49
-2.9000000000000004
 74
0
 49
0.1
 74
0
 49
-2.9500000000000002
 74
0
  0
LTYPE
  5
52
100
AcDbSymbolTableRecord
100
AcDbLinetypeTableRecord
  2
ACAD_ISO03W100
 70
0
  3
ISO dash space __    __    __    __    __    __
 72
65
 73
2
 40
30.0
 49
12.0
 74
0
 49
-18.0
 74
0
  0
LTYPE
  5
53
100
AcDbSymbolTableRecord
100
AcDbLinetypeTableRecord
  2
CENTERX2
 70
0
  3
Center (2x) ________  __  ________  __  _____
 72
65
 73
4
 40
101.6000000000000085
 49
63.5
 74
0
 49
-12.6999999999999993
 74
0
 49
12.6999999999999993
 74
0
 49
-12.6999999999999993
 74
0
  0
LTYPE
  5
54
100
AcDbSymbolTableRecord
100
AcDbLinetypeTableRecord
  2
CENTER2
 70
0
  3
Center (.5x) ___ _ ___ _ ___ _ ___ _ ___ _ ___
 72
65
 73
4
 40
28.5750000000000028
 49
19.0500000000000007
 74
0
 49
-3.1749999999999998
 74
0
 49
3.1749999999999998
 74
0
 49
-3.1749999999999998
 74
0
  0
LTYPE
  5
55
100
AcDbSymbolTableRecord
100
AcDbLinetypeTableRecord
  2
DIVIDEX2
 70
0
  3
Divide (2x) ________  .  .  ________  .  .  _
 72
65
 73
6
 40
63.5
 49
25.3999999999999986
 74
0
 49
-12.6499999999999986
 74
0
 49
0.1
 74
0
 49
-12.5999999999999979
 74
0
 49
0.1
 74
0
 49
-12.6499999999999986
 74
0
  0
LTYPE
  5
56
100
AcDbSymbolTableRecord
100
AcDbLinetypeTableRecord
  2
ACAD_ISO06W100
 70
0
  3
ISO long-dash triple-dot ____ ... ____ ... ____
 72
65
 73
8
 40
36.0000000000000071
 49
24.0
 74
0
 49
-2.9500000000000002
 74
0
 49
0.1
 74
0
 49
-2.9000000000000004
 74
0
 49
0.1
 74
0
 49
-2.9000000000000004
 74
0
 49
0.1
 74
0
 49
-2.9500000000000002
 74
0
  0
ENDTAB
  0
TABLE
  2
LAYER
  5
2
100
AcDbSymbolTable
 70
17
  0
LAYER
  5
57
100
AcDbSymbolTableRecord
100
AcDbLayerTableRecord
  2
plate_support
 70
0
 62
6
420
16711935
  6
Continuous
370
25
390
F
  0
LAYER
  5
58
100
AcDbSymbolTableRecord
100
AcDbLayerTableRecord
  2
pins
 70
0
 62
252
420
10526884
  6
Continuous
370
25
390
F
  0
LAYER
  5
10
100
AcDbSymbolTableRecord
100
AcDbLayerTableRecord
  2
0
 70
0
 62
7
420
16777215
  6
Continuous
370
25
390
F
  0
LAYER
  5
59
100
AcDbSymbolTableRecord
100
AcDbLayerTableRecord
  2
top_cutouts
 70
0
 62
4
420
65535
  6
Continuous
370
25
390
F
  0
LAYER
  5
5A
100
AcDbSymbolTableRecord
100
AcDbLayerTableRecord
  2
feet
 70
0
 62
1
420
16711680
  6
Continuous
370
25
390
F
  0
LAYER
  5
5B
100
AcDbSymbolTableRecord
100
AcDbLayerTableRecord
  2
holes
 70
0
 62
3
420
65280
  6
Continuous
370
25
390
F
  0
LAYER
  5
5C
100
AcDbSymbolTableRecord
100
AcDbLayerTableRecord
  2
debug_pocket
 70
0
 62
5
420
255
  6
Continuous
370
25
390
F
  0
LAYER
  5
5D
100
AcDbSymbolTableRecord
100
AcDbLayerTableRecord
  2
M2.5_nuts
 70
0
 62
30
420
16744192
  6
Continuous
370
25
390
F
  0
LAYER
  5
5E
100
AcDbSymbolTableRecord
100
AcDbLayerTableRecord
  2
outline
 70
0
 62
7
420
0
  6
Continuous
370
25
390
F
  0
LAYER
  5
5F
100
AcDbSymbolTableRecord
100
AcDbLayerTableRecord
  2
M2_nuts
 70
0
 62
2
420
16776960
  6
Continuous
370
25
390
F
  0
LAYER
  5
60
100
AcDbSymbolTableRecord
100
AcDbLayerTableRecord
  2
usb
 70
0
 62
5
420
255
  6
Continuous
370
25
390
F
  0
LAYER
  5
61
100
AcDbSymbolTableRecord
100
AcDbLayerTableRecord
  2
outside
 70
0
 62
134
420
32896
  6
Continuous
370
25
390
F
  0
LAYER
  5
62
100
AcDbSymbolTableRecord
100
AcDbLayerTableRecord
  2
switch_cutout
 70
0
 62
94
420
32768
  6
Continuous
370
25
390
F
  0
LAYER
  5
63
100
AcDbSymbolTableRecord
100
AcDbLayerTableRecord
  2
inside
 70
0
 62
214
420
8388736
  6
Continuous
370
25
390
F
  0
LAYER
  5
64
100
AcDbSymbolTableRecord
100
AcDbLayerTableRecord
  2
1
 70
0
 62
7
420
0
  6
Continuous
370
25
390
F
  0
LAYER
  5
65
100
AcDbSymbolTableRecord
100
AcDbLayerTableRecord
  2
underglow
 70
0
 62
9
420
12632256
  6
Continuous
370
25
390
F
  0
LAYER
  5
66
100
AcDbSymbolTableRecord
100
AcDbLayerTableRecord
  2
spacer_cutout
 70
0
 62
1
420
16711680
  6
Continuous
370
25
390
F
  0
ENDTAB
  0
TABLE
  2
STYLE
  5
3
100
AcDbSymbolTable
 70
1
  0
STYLE
  5
67
100
AcDbSymbolTableRecord
100
AcDbTextStyleTableRecord
  2
Standard
 70
0
 40
0.0
 41
1.0
 50
0.0
 71
0
 42
2.5
  3

  4

1001
ACAD
1000
txt
1071
0
  0
ENDTAB
  0
TABLE
  2
VIEW
  5
6
100
AcDbSymbolTable
 70
0
  0
ENDTAB
  0
TABLE
  2
UCS
  5
7
100
AcDbSymbolTable
 70
0
  0
ENDTAB
  0
TABLE
  2
APPID
  5
9
100
AcDbSymbolTable
 70
1
  0
APPID
  5
12
100
AcDbSymbolTableRecord
100
AcDbRegAppTableRecord
  2
ACAD
 70
0
  0
APPID
  5
68
100
AcDbSymbolTableRecord
100
AcDbRegAppTableRecord
  2
QCAD
 70
0
  0
ENDTAB
  0
TABLE
  2
DIMSTYLE
  5
A
100
AcDbSymbolTable
 70
1
100
AcDbDimStyleTable
 71
0
  0
DIMSTYLE
105
27
100
AcDbSymbolTableRecord
100
AcDbDimStyleTableRecord
  2
Standard
 41
2.5
 42
0.625
 43
3.75
 44
1.25
 70
0
 73
0
 74
0
 77
1
 78
8
140
2.5
141
2.5
143
0.03937007874016
147
0.625
171
3
172
1
271
2
272
2
274
3
278
44
283
0
284
8
340
67
  0
ENDTAB
  0
TABLE
  2
BLOCK_RECORD
  5
1
100
AcDbSymbolTable
 70
1
  0
BLOCK_RECORD
  5
1F
100
AcDbSymbolTableRecord
100
AcDbBlockTableRecord
  2
*Model_Space
340
22
  0
BLOCK_RECORD
  5
1B
100
AcDbSymbolTableRecord
100
AcDbBlockTableRecord
  2
*Paper_Space
340
1E
  0
BLOCK_RECORD
  5
23
100
AcDbSymbolTableRecord
100
AcDbBlockTableRecord
  2
*Paper_Space0
340
26
  0
BLOCK_RECORD
  5
69
100
AcDbSymbolTableRecord
100
AcDbBlockTableRecord
  2
socket_cutout
340
0
  0
BLOCK_RECORD
  5
6A
100
AcDbSymbolTableRecord
100
AcDbBlockTableRecord
  2
pcb_mount
340
0
  0
BLOCK_RECORD
  5
6B
100
AcDbSymbolTableRecord
100
AcDbBlockTableRecord
  2
block 1
340
0
  0
BLOCK_RECORD
  5
6C
100
AcDbSymbolTableRecord
100
AcDbBlockTableRecord
  2
nut_cutout
340
0
  0
BLOCK_RECORD
  5
6D
100
AcDbSymbolTableRecord
100
AcDbBlockTableRecord
  2
M2.5_nut
340
0
  0
BLOCK_RECORD
  5
6E
100
AcDbSymbolTableRecord
100
AcDbBlockTableRecord
  2
outside
340
0
  0
BLOCK_RECORD
  5
6F
100
AcDbSymbolTableRecord
100
AcDbBlockTableRecord
  2
platespace
340
0
  0
BLOCK_RECORD
  5
70
100
AcDbSymbolTableRecord
100
AcDbBlockTableRecord
  2
M2_nut
340
0
  0
BLOCK_RECORD
  5
71
100
AcDbSymbolTableRecord
100
AcDbBlockTableRecord
  2
INSIDES
340
0
  0
BLOCK_RECORD
  5
72
100
AcDbSymbolTableRecord
100
AcDbBlockTableRecord
  2
EC15LED
340
0
  0
BLOCK_RECORD
  5
73
100
AcDbSymbolTableRecord
100
AcDbBlockTableRecord
  2
socket_cutout_left
340
0
  0
ENDTAB
  0
ENDSEC
  0
SECTION
  2
BLOCKS
  0
BLOCK
  5
20
100
AcDbEntity
  8
0
100
AcDbBlockBegin
  2
*Model_Space
 70
0
 10
0.0
 20
0.0
 30
0.0
  3
*Model_Space
  1

  0
ENDBLK
  5
21
100
AcDbEntity
  8
0
100
AcDbBlockEnd
  0
BLOCK
  5
1C
100
AcDbEntity
 67
1
  8
0
100
AcDbBlockBegin
  2
*Paper_Space
 70
0
 10
0.0
 20
0.0
 30
0.0
  3
*Paper_Space
  1

  0
ENDBLK
  5
1D
100
AcDbEntity
 67
1
  8
0
100
AcDbBlockEnd
  0
BLOCK
  5
24
100
AcDbEntity
  8
0
100
AcDbBlockBegin
  2
*Paper_Space0
 70
0
 10
0.0
 20
0.0
 30
0.0
  3
*Paper_Space0
  1

  0
ENDBLK
  5
25
100
AcDbEntity
  8
0
100
AcDbBlockEnd
  0
BLOCK
  5
74
100
AcDbEntity
  8
0
100
AcDbBlockBegin
  2
socket_cutout
 70
0
 10
0.0
 20
0.0
 30
0.0
  3
socket_cutout
  1

  0
LINE
  5
75
100
AcDbEntity
  8
switch_cutout
 62
256
370
-1
 48
1.0
  6
BYLAYER
100
AcDbLine
 10
-13.9599999997019388
 20
0.1000000002968315
 30
0.0
 11
-1.261648177369068
 21
0.1000000002968298
 31
0.0
  0
LINE
  5
76
100
AcDbEntity
  8
switch_cutout
 62
256
370
-1
 48
1.0
  6
BYLAYER
100
AcDbLine
 10
-15.4599999997019388
 20
-5.8075636218724274
 30
0.0
 11
-15.4599999997019246
 21
-1.399999999703156
 31
0.0
  0
LINE
  5
77
100
AcDbEntity
  8
switch_cutout
 62
256
370
-1
 48
1.0
  6
BYLAYER
100
AcDbLine
 10
0.2120000002980902
 20
-3.199999999703083
 30
0.0
 11
0.2120000002980724
 21
-1.2571067808896155
 31
0.0
  0
LINE
  5
78
100
AcDbEntity
  8
switch_cutout
 62
256
370
-1
 48
1.0
  6
BYLAYER
100
AcDbLine
 10
0.1438516528762328
 20
-3.7176380899081067
 30
0.0
 11
-0.9588676248678283
 21
-7.2760879531626301
 31
0.0
  0
LINE
  5
79
100
AcDbEntity
  8
switch_cutout
 62
256
370
-1
 48
1.0
  6
BYLAYER
100
AcDbLine
 10
-6.5272176354941287
 20
-9.0460881786664338
 30
0.0
 11
-1.7920958475170323
 21
-7.9917865331131903
 31
0.0
  0
LINE
  5
7A
100
AcDbEntity
  8
switch_cutout
 62
256
370
-1
 48
1.0
  6
BYLAYER
100
AcDbLine
 10
-7.4727823639099391
 20
-9.0460881786664746
 30
0.0
 11
-12.2079041518866838
 21
-7.9917865331132738
 31
0.0
  0
LINE
  5
7B
100
AcDbEntity
  8
switch_cutout
 62
256
370
-1
 48
1.0
  6
BYLAYER
100
AcDbLine
 10
-15.1202230472698922
 20
-6.3960745667256411
 30
0.0
 11
-12.6444918625081222
 21
-7.8254386326890177
 31
0.0
  0
ARC
  5
7C
100
AcDbEntity
  8
switch_cutout
 62
256
370
-1
 48
1.0
  6
BYLAYER
100
AcDbCircle
 10
-6.9999999997033377
 20
-6.9999999997033466
 30
0.0
 40
2.099999999999941
100
AcDbArc
 50
256.989215032443326
 51
283.010784967594816
  0
ARC
  5
7D
100
AcDbEntity
  8
switch_cutout
 62
256
370
-1
 48
1.0
  6
BYLAYER
100
AcDbCircle
 10
-12.0031868209766408
 20
-6.7984002815233744
 30
0.0
 40
1.2108178769157352
100
AcDbArc
 50
238.0184494545610789
 51
260.2660397298492398
  0
ARC
  5
7E
100
AcDbEntity
  8
switch_cutout
 62
256
370
-1
 48
1.0
  6
BYLAYER
100
AcDbCircle
 10
-1.9199999997020711
 20
-6.9999999997030411
 30
0.0
 40
1.0000000000000031
100
AcDbArc
 50
277.3484980213714834
 51
343.973140426198654
  0
ARC
  5
7F
100
AcDbEntity
  8
switch_cutout
 62
256
370
-1
 48
1.0
  6
BYLAYER
100
AcDbCircle
 10
-13.9599999997019317
 20
-1.3999999997031658
 30
0.0
 40
1.5
100
AcDbArc
 50
90.0
 51
179.9999999999999147
  0
ARC
  5
80
100
AcDbEntity
  8
switch_cutout
 62
256
370
-1
 48
1.0
  6
BYLAYER
100
AcDbCircle
 10
-0.1415533902952077
 20
-0.9035533902963495
 30
0.0
 40
0.5000000000000004
100
AcDbArc
 50
315.0000000000009095
 51
81.8698976458503296
  0
ARC
  5
81
100
AcDbEntity
  8
switch_cutout
 62
256
370
-1
 48
1.0
  6
BYLAYER
100
AcDbCircle
 10
-1.1748240885354697
 20
-0.3924038762093671
 30
0.0
 40
0.500000000000105
100
AcDbArc
 50
46.8698976458556231
 51
100.0000000000054428
  0
ARC
  5
82
100
AcDbEntity
  8
switch_cutout
 62
256
370
-1
 48
1.0
  6
BYLAYER
100
AcDbCircle
 10
-1.7879999997019063
 20
-3.1999999997030866
 30
0.0
 40
1.9999999999999969
100
AcDbArc
 50
345.0
 51
0.0000000000000509
  0
ARC
  5
83
100
AcDbEntity
  8
switch_cutout
 62
256
370
-1
 48
1.0
  6
BYLAYER
100
AcDbCircle
 10
-14.7804460948378455
 20
-5.8075636218724362
 30
0.0
 40
0.679553904864085
100
AcDbArc
 50
179.9999999999999716
 51
240.0
  0
LINE
  5
84
100
AcDbEntity
  8
switch_cutout
 62
256
370
-1
 48
1.0
  6
BYLAYER
100
AcDbLine
 10
-15.1202230472698922
 20
-6.3960745667256411
 30
0.0
 11
-15.1202230472698922
 21
-6.3960745667256411
 31
0.0
  0
LINE
  5
85
100
AcDbEntity
  8
switch_cutout
 62
256
370
-1
 48
1.0
  6
BYLAYER
100
AcDbLine
 10
-0.8329954406306577
 20
-0.0275022792387887
 30
0.0
 11
-0.0708427121766135
 21
-0.4085786434657575
 31
0.0
  0
CIRCLE
  5
86
100
AcDbEntity
  8
pins
 62
256
370
-1
 48
1.0
  6
BYLAYER
100
AcDbCircle
 10
-4.46
 20
-1.9199999999999999
 30
0.0
 40
1.0
  0
CIRCLE
  5
87
100
AcDbEntity
  8
pins
 62
256
370
-1
 48
1.0
  6
BYLAYER
100
AcDbCircle
 10
-10.8100000000000005
 20
-4.46
 30
0.0
 40
1.0
  0
ENDBLK
  5
88
100
AcDbEntity
  8
0
100
AcDbBlockEnd
  0
BLOCK
  5
89
100
AcDbEntity
  8
0
100
AcDbBlockBegin
  2
pcb_mount
 70
0
 10
0.0
 20
0.0
 30
0.0
  3
pcb_mount
  1

  0
CIRCLE
  5
8A
100
AcDbEntity
  8
M2.5_nuts
 62
256
370
-1
 48
1.0
  6
BYLAYER
100
AcDbCircle
 10
0.0
 20
0.0
 30
0.0
 40
2.1000000000000001
  0
CIRCLE
  5
8B
100
AcDbEntity
  8
holes
 62
256
370
-1
 48
1.0
  6
BYLAYER
100
AcDbCircle
 10
0.0
 20
0.0
 30
0.0
 40
1.1000000000000001
  0
ENDBLK
  5
8C
100
AcDbEntity
  8
0
100
AcDbBlockEnd
  0
BLOCK
  5
8D
100
AcDbEntity
  8
0
100
AcDbBlockBegin
  2
block 1
 70
0
 10
0.0
 20
0.0
 30
0.0
  3
block 1
  1

  0
ENDBLK
  5
8E
100
AcDbEntity
  8
0
100
AcDbBlockEnd
  0
BLOCK
  5
8F
100
AcDbEntity
  8
0
100
AcDbBlockBegin
  2
nut_cutout
 70
0
 10
0.0
 20
0.0
 30
0.0
  3
nut_cutout
  1

  0
CIRCLE
  5
90
100
AcDbEntity
  8
holes
 62
256
370
-1
 48
1.0
  6
BYLAYER
100
AcDbCircle
 10
0.0
 20
0.0
 30
0.0
 40
1.3500000000000001
  0
INSERT
  5
91
100
AcDbEntity
  8
0
 62
256
370
-1
 48
1.0
  6
BYLAYER
100
AcDbBlockReference
  2
M2.5_nut
 10
0.0
 20
0.0
 30
0.0
  0
ENDBLK
  5
92
100
AcDbEntity
  8
0
100
AcDbBlockEnd
  0
BLOCK
  5
93
100
AcDbEntity
  8
0
100
AcDbBlockBegin
  2
M2.5_nut
 70
0
 10
0.0
 20
0.0
 30
0.0
  3
M2.5_nut
  1

  0
LINE
  5
94
100
AcDbEntity
  8
M2.5_nuts
 62
256
370
-1
 48
1.0
  6
BYLAYER
100
AcDbLine
 10
1.7433756760778609
 20
-2.1535898384861829
 30
0.0
 11
2.7367513510778374
 21
-0.4330126983831406
 31
0.0
  0
LINE
  5
95
100
AcDbEntity
  8
M2.5_nuts
 62
256
370
-1
 48
1.0
  6
BYLAYER
100
AcDbLine
 10
-1.7433756739221236
 20
-2.1535898384861971
 30
0.0
 11
-2.7367513489220512
 21
-0.4330126983831275
 31
0.0
  0
LINE
  5
96
100
AcDbEntity
  8
M2.5_nuts
 62
256
370
-1
 48
1.0
  6
BYLAYER
100
AcDbLine
 10
-0.9933756739220934
 20
2.5866025473965064
 30
0.0
 11
0.99337567607793
 21
2.5866025473965446
 31
0.0
  0
LINE
  5
97
100
AcDbEntity
  8
M2.5_nuts
 62
256
370
-1
 48
1.0
  6
BYLAYER
100
AcDbLine
 10
-1.7433756739221218
 20
2.1535898455042255
 30
0.0
 11
-2.7367513489220263
 21
0.4330127054013016
 31
0.0
  0
LINE
  5
98
100
AcDbEntity
  8
M2.5_nuts
 62
256
370
-1
 48
1.0
  6
BYLAYER
100
AcDbLine
 10
1.7433756760779162
 20
2.1535898455042828
 30
0.0
 11
2.736751351077837
 21
0.4330127054012984
 31
0.0
  0
LINE
  5
99
100
AcDbEntity
  8
M2.5_nuts
 62
256
370
-1
 48
1.0
  6
BYLAYER
100
AcDbLine
 10
-0.9933756739221236
 20
-2.5866025403784167
 30
0.0
 11
0.9933756760778765
 21
-2.5866025403784167
 31
0.0
  0
ARC
  5
9A
100
AcDbEntity
  8
M2.5_nuts
 62
256
370
-1
 48
1.0
  6
BYLAYER
100
AcDbCircle
 10
-2.4867513489220512
 20
0.0000000035090917
 30
0.0
 40
0.5
100
AcDbArc
 50
119.9999999999999716
 51
240.0
  0
ARC
  5
9B
100
AcDbEntity
  8
M2.5_nuts
 62
256
370
-1
 48
1.0
  6
BYLAYER
100
AcDbCircle
 10
-1.2433756739221236
 20
-2.1535898384861971
 30
0.0
 40
0.5
100
AcDbArc
 50
180.0
 51
300.0
  0
ARC
  5
9C
100
AcDbEntity
  8
M2.5_nuts
 62
256
370
-1
 48
1.0
  6
BYLAYER
100
AcDbCircle
 10
1.2433756760779304
 20
2.1535898455043254
 30
0.0
 40
0.5
100
AcDbArc
 50
0.0
 51
120.0000000000000711
  0
ARC
  5
9D
100
AcDbEntity
  8
M2.5_nuts
 62
256
370
-1
 48
1.0
  6
BYLAYER
100
AcDbCircle
 10
-1.2433756739221218
 20
2.1535898455042255
 30
0.0
 40
0.5
100
AcDbArc
 50
59.9999999999999858
 51
180.0
  0
ARC
  5
9E
100
AcDbEntity
  8
M2.5_nuts
 62
256
370
-1
 48
1.0
  6
BYLAYER
100
AcDbCircle
 10
1.2433756760778789
 20
-2.1535898384861971
 30
0.0
 40
0.5
100
AcDbArc
 50
240.0000000000000284
 51
0.0
  0
ARC
  5
9F
100
AcDbEntity
  8
M2.5_nuts
 62
256
370
-1
 48
1.0
  6
BYLAYER
100
AcDbCircle
 10
2.4867513510778374
 20
0.0000000035090789
 30
0.0
 40
0.5
100
AcDbArc
 50
300.0
 51
60.0000000000000355
  0
ENDBLK
  5
A0
100
AcDbEntity
  8
0
100
AcDbBlockEnd
  0
BLOCK
  5
A1
100
AcDbEntity
  8
0
100
AcDbBlockBegin
  2
outside
 70
0
 10
0.0
 20
0.0
 30
0.0
  3
outside
  1

  0
ENDBLK
  5
A2
100
AcDbEntity
  8
0
100
AcDbBlockEnd
  0
BLOCK
  5
A3
100
AcDbEntity
  8
0
100
AcDbBlockBegin
  2
platespace
 70
0
 10
0.0
 20
0.0
 30
0.0
  3
platespace
  1

  0
ENDBLK
  5
A4
100
AcDbEntity
  8
0
100
AcDbBlockEnd
  0
BLOCK
  5
A5
100
AcDbEntity
  8
0
100
AcDbBlockBegin
  2
M2_nut
 70
0
 10
0.0
 20
0.0
 30
0.0
  3
M2_nut
  1

  0
LINE
  5
A6
100
AcDbEntity
  8
M2_nuts
 62
256
370
-1
 48
1.0
  6
BYLAYER
100
AcDbLine
 10
1.3947005399999703
 20
-1.7228718735962225
 30
0.0
 11
2.1894010799999517
 21
-0.3464101615137842
 31
0.0
  0
LINE
  5
A7
100
AcDbEntity
  8
M2_nuts
 62
256
370
-1
 48
1.0
  6
BYLAYER
100
AcDbLine
 10
-1.3947005400000183
 20
-1.7228718735962296
 30
0.0
 11
-2.1894010799999588
 21
-0.34641016151377
 31
0.0
  0
LINE
  5
A8
100
AcDbEntity
  8
M2_nuts
 62
256
370
-1
 48
1.0
  6
BYLAYER
100
AcDbLine
 10
-0.7947005399999938
 20
2.0692820351099321
 30
0.0
 11
0.7947005400000258
 21
2.0692820351099641
 31
0.0
  0
LINE
  5
A9
100
AcDbEntity
  8
M2_nuts
 62
256
370
-1
 48
1.0
  6
BYLAYER
100
AcDbLine
 10
-1.3947005400000165
 20
1.7228718735961088
 30
0.0
 11
-2.189401079999941
 21
0.34641016151377
 31
0.0
  0
LINE
  5
AA
100
AcDbEntity
  8
M2_nuts
 62
256
370
-1
 48
1.0
  6
BYLAYER
100
AcDbLine
 10
1.3947005400000148
 20
1.722871873596155
 30
0.0
 11
2.1894010799999517
 21
0.3464101615137665
 31
0.0
  0
LINE
  5
AB
100
AcDbEntity
  8
M2_nuts
 62
256
370
-1
 48
1.0
  6
BYLAYER
100
AcDbLine
 10
-0.7947005400000169
 20
-2.0692820351100032
 30
0.0
 11
0.7947005399999831
 21
-2.0692820351100032
 31
0.0
  0
ARC
  5
AC
100
AcDbEntity
  8
M2_nuts
 62
256
370
-1
 48
1.0
  6
BYLAYER
100
AcDbCircle
 10
-1.9894010799999595
 20
0.0000000000000036
 30
0.0
 40
0.4
100
AcDbArc
 50
119.9999999999999716
 51
240.0
  0
ARC
  5
AD
100
AcDbEntity
  8
M2_nuts
 62
256
370
-1
 48
1.0
  6
BYLAYER
100
AcDbCircle
 10
-0.994700540000018
 20
-1.7228718735962296
 30
0.0
 40
0.4
100
AcDbArc
 50
180.0
 51
300.0
  0
ARC
  5
AE
100
AcDbEntity
  8
M2_nuts
 62
256
370
-1
 48
1.0
  6
BYLAYER
100
AcDbCircle
 10
0.9947005400000251
 20
1.7228718735961905
 30
0.0
 40
0.4
100
AcDbArc
 50
0.0
 51
120.0000000000000711
  0
ARC
  5
AF
100
AcDbEntity
  8
M2_nuts
 62
256
370
-1
 48
1.0
  6
BYLAYER
100
AcDbCircle
 10
-0.9947005400000162
 20
1.7228718735961088
 30
0.0
 40
0.4
100
AcDbArc
 50
59.9999999999999858
 51
180.0
  0
ARC
  5
B0
100
AcDbEntity
  8
M2_nuts
 62
256
370
-1
 48
1.0
  6
BYLAYER
100
AcDbCircle
 10
0.9947005399999842
 20
-1.7228718735962296
 30
0.0
 40
0.4
100
AcDbArc
 50
240.0000000000000284
 51
0.0
  0
ARC
  5
B1
100
AcDbEntity
  8
M2_nuts
 62
256
370
-1
 48
1.0
  6
BYLAYER
100
AcDbCircle
 10
1.9894010799999524
 20
-0.0000000000000107
 30
0.0
 40
0.4
100
AcDbArc
 50
300.0
 51
60.0000000000000355
  0
ENDBLK
  5
B2
100
AcDbEntity
  8
0
100
AcDbBlockEnd
  0
BLOCK
  5
B3
100
AcDbEntity
  8
0
100
AcDbBlockBegin
  2
INSIDES
 70
0
 10
0.0
 20
0.0
 30
0.0
  3
INSIDES
  1

  0
ARC
  5
B4
100
AcDbEntity
  8
0
 62
256
370
-1
 48
1.0
  6
BYLAYER
100
AcDbCircle
 10
-23.1739988198088867
 20
89.8734363518221073
 30
0.0
 40
6.5270998029014846
100
AcDbArc
 50
89.2656120957048103
 51
93.4490716750840846
  0
ARC
  5
B5
100
AcDbEntity
  8
0
 62
256
370
-1
 48
1.0
  6
BYLAYER
100
AcDbCircle
 10
23.173998819809043
 20
89.8734363518220647
 30
0.0
 40
6.5270998029014846
100
AcDbArc
 50
86.5509283249158017
 51
90.7343879042950618
  0
LINE
  5
B6
100
AcDbEntity
  8
0
 62
256
370
-1
 48
1.0
  6
BYLAYER
100
AcDbLine
 10
-28.5535538867359904
 20
95.8798575470234056
 30
0.0
 11
-61.0499491775779077
 21
90.1498662814804845
 31
0.0
  0
LINE
  5
B7
100
AcDbEntity
  8
0
 62
256
370
-1
 48
1.0
  6
BYLAYER
100
AcDbLine
 10
28.5535538867361574
 20
95.8798575470233203
 30
0.0
 11
61.0499491775780641
 21
90.1498662814803708
 31
0.0
  0
ARC
  5
B8
100
AcDbEntity
  8
0
 62
256
370
-1
 48
1.0
  6
BYLAYER
100
AcDbCircle
 10
114.9955099691500209
 20
76.3803041779982266
 30
0.0
 40
4.2000000000000002
100
AcDbArc
 50
349.9999999979687573
 51
79.9999999979687146
  0
ARC
  5
B9
100
AcDbEntity
  8
0
 62
256
370
-1
 48
1.0
  6
BYLAYER
100
AcDbCircle
 10
-114.9955099664490774
 20
76.3803041820753919
 30
0.0
 40
4.2000000000000002
100
AcDbArc
 50
99.9999999999998579
 51
189.9999999999998579
  0
ARC
  5
BA
100
AcDbEntity
  8
0
 62
256
370
-1
 48
1.0
  6
BYLAYER
100
AcDbCircle
 10
114.9955099664492053
 20
76.3803041820751645
 30
0.0
 40
4.2000000000000002
100
AcDbArc
 50
350.0000000000001137
 51
80.0
  0
LINE
  5
BB
100
AcDbEntity
  8
0
 62
256
370
-1
 48
1.0
  6
BYLAYER
100
AcDbLine
 10
-119.1317025291003517
 20
75.6509818358742905
 30
0.0
 11
-116.4271995545556422
 21
60.3692360939563102
 31
0.0
  0
LINE
  5
BC
100
AcDbEntity
  8
0
 62
256
370
-1
 48
1.0
  6
BYLAYER
100
AcDbLine
 10
119.1317025291004654
 20
75.6509818358740205
 30
0.0
 11
116.4271995545557559
 21
60.3692360939561539
 31
0.0
  0
ARC
  5
BD
100
AcDbEntity
  8
0
 62
256
370
-1
 48
1.0
  6
BYLAYER
100
AcDbCircle
 10
102.4445018442909117
 20
5.1999999963678905
 30
0.0
 40
4.2000000000000002
100
AcDbArc
 50
269.9999999979686436
 51
349.9999999979685299
  0
ARC
  5
BE
100
AcDbEntity
  8
0
 62
256
370
-1
 48
1.0
  6
BYLAYER
100
AcDbCircle
 10
-102.4445018441136597
 20
5.2000000000000286
 30
0.0
 40
4.2000000000000002
100
AcDbArc
 50
190.0000000000000853
 51
270.0
  0
ARC
  5
BF
100
AcDbEntity
  8
0
 62
256
370
-1
 48
1.0
  6
BYLAYER
100
AcDbCircle
 10
102.4445018441137023
 20
5.1999999999998936
 30
0.0
 40
4.2000000000000002
100
AcDbArc
 50
269.9999999999998863
 51
349.9999999999997726
  0
ARC
  5
C0
100
AcDbEntity
  8
0
 62
256
370
-1
 48
1.0
  6
BYLAYER
100
AcDbCircle
 10
-23.899999999113632
 20
83.7800000000000153
 30
0.0
 40
2.5
100
AcDbArc
 50
189.9999999999999147
 51
9.9999999999999751
  0
ARC
  5
C1
100
AcDbEntity
  8
0
 62
256
370
-1
 48
1.0
  6
BYLAYER
100
AcDbCircle
 10
23.8999999991137848
 20
83.7799999999999869
 30
0.0
 40
2.5
100
AcDbArc
 50
169.9999999999999147
 51
350.0
  0
ARC
  5
C2
100
AcDbEntity
  8
0
 62
256
370
-1
 48
1.0
  6
BYLAYER
100
AcDbCircle
 10
-32.3599999991136684
 20
22.3800000000000274
 30
0.0
 40
2.5
100
AcDbArc
 50
9.999999999999865
 51
189.9999999999998579
  0
ARC
  5
C3
100
AcDbEntity
  8
0
 62
256
370
-1
 48
1.0
  6
BYLAYER
100
AcDbCircle
 10
32.3599999991137253
 20
22.3799999999999848
 30
0.0
 40
2.5
100
AcDbArc
 50
350.0000000000001137
 51
170.0
  0
ARC
  5
C4
100
AcDbEntity
  8
0
 62
256
370
-1
 48
1.0
  6
BYLAYER
100
AcDbCircle
 10
-68.7399999991136355
 20
9.8700000000000294
 30
0.0
 40
2.5
100
AcDbArc
 50
9.999999999999865
 51
189.9999999999998579
  0
ARC
  5
C5
100
AcDbEntity
  8
0
 62
256
370
-1
 48
1.0
  6
BYLAYER
100
AcDbCircle
 10
68.7399999991136212
 20
9.8699999999998802
 30
0.0
 40
2.5
100
AcDbArc
 50
350.0000000000001137
 51
170.0
  0
ARC
  5
C6
100
AcDbEntity
  8
0
 62
256
370
-1
 48
1.0
  6
BYLAYER
100
AcDbCircle
 10
-102.8099999991136571
 20
21.6300000000000985
 30
0.0
 40
2.5
100
AcDbArc
 50
279.9999999999999432
 51
99.9999999999998579
  0
ARC
  5
C7
100
AcDbEntity
  8
0
 62
256
370
-1
 48
1.0
  6
BYLAYER
100
AcDbCircle
 10
102.8099999991137281
 20
21.6299999999999564
 30
0.0
 40
2.5
100
AcDbArc
 50
80.0
 51
259.9999999999999432
  0
ARC
  5
C8
100
AcDbEntity
  8
0
 62
256
370
-1
 48
1.0
  6
BYLAYER
100
AcDbCircle
 10
-109.3999999991136463
 20
59.059999999999846
 30
0.0
 40
2.5
100
AcDbArc
 50
279.9999999999999432
 51
99.9999999999998579
  0
ARC
  5
C9
100
AcDbEntity
  8
0
 62
256
370
-1
 48
1.0
  6
BYLAYER
100
AcDbCircle
 10
109.3999999991137315
 20
59.0599999999996044
 30
0.0
 40
2.5
100
AcDbArc
 50
80.0
 51
259.9999999999999432
  0
ARC
  5
CA
100
AcDbEntity
  8
0
 62
256
370
-1
 48
1.0
  6
BYLAYER
100
AcDbCircle
 10
-60.889999999113634
 20
74.7199999999999847
 30
0.0
 40
2.5
100
AcDbArc
 50
189.9999999999999147
 51
9.9999999999999751
  0
ARC
  5
CB
100
AcDbEntity
  8
0
 62
256
370
-1
 48
1.0
  6
BYLAYER
100
AcDbCircle
 10
60.8899999991137548
 20
74.7199999999998425
 30
0.0
 40
2.5
100
AcDbArc
 50
169.9999999999999147
 51
350.0
  0
LINE
  5
CC
100
AcDbEntity
  8
0
 62
256
370
-1
 48
1.0
  6
BYLAYER
100
AcDbLine
 10
-26.3620193816441457
 20
83.3458795558326955
 30
0.0
 11
-28.5535538867359904
 21
95.8798575470234056
 31
0.0
  0
LINE
  5
CD
100
AcDbEntity
  8
0
 62
256
370
-1
 48
1.0
  6
BYLAYER
100
AcDbLine
 10
26.3620193816442878
 20
83.3458795558326386
 30
0.0
 11
28.5535538867361574
 21
95.8798575470233203
 31
0.0
  0
LINE
  5
CE
100
AcDbEntity
  8
0
 62
256
370
-1
 48
1.0
  6
BYLAYER
100
AcDbLine
 10
-21.4379806165831113
 20
84.2141204441673352
 30
0.0
 11
-23.5666776715986472
 21
96.3887134108882577
 31
0.0
  0
LINE
  5
CF
100
AcDbEntity
  8
0
 62
256
370
-1
 48
1.0
  6
BYLAYER
100
AcDbLine
 10
21.4379806165832498
 20
84.2141204441672784
 30
0.0
 11
23.5666776715988142
 21
96.3887134108882435
 31
0.0
  0
LINE
  5
D0
100
AcDbEntity
  8
0
 62
256
370
-1
 48
1.0
  6
BYLAYER
100
AcDbLine
 10
-29.8979806165831228
 20
22.8141204441673295
 30
0.0
 11
-26.083836560585798
 21
1.0000000000000075
 31
0.0
  0
LINE
  5
D1
100
AcDbEntity
  8
0
 62
256
370
-1
 48
1.0
  6
BYLAYER
100
AcDbLine
 10
29.8979806165831263
 20
22.8141204441672762
 30
0.0
 11
26.0838365605857305
 21
0.9999999999999476
 31
0.0
  0
LINE
  5
D2
100
AcDbEntity
  8
0
 62
256
370
-1
 48
1.0
  6
BYLAYER
100
AcDbLine
 10
-34.8220193816441679
 20
21.9458795558326862
 30
0.0
 11
-31.2121391066743854
 21
1.0000000000000073
 31
0.0
  0
LINE
  5
D3
100
AcDbEntity
  8
0
 62
256
370
-1
 48
1.0
  6
BYLAYER
100
AcDbLine
 10
34.8220193816441963
 20
21.9458795558326365
 30
0.0
 11
31.2121391066743996
 21
0.9999999999999618
 31
0.0
  0
LINE
  5
D4
100
AcDbEntity
  8
0
 62
256
370
-1
 48
1.0
  6
BYLAYER
100
AcDbLine
 10
-66.277980616583136
 20
10.3041204441673564
 30
0.0
 11
-64.6511785743356597
 21
1.0000000000000075
 31
0.0
  0
LINE
  5
D5
100
AcDbEntity
  8
0
 62
256
370
-1
 48
1.0
  6
BYLAYER
100
AcDbLine
 10
66.2779806165831502
 20
10.3041204441672427
 30
0.0
 11
64.6511785743356455
 21
0.9999999999998765
 31
0.0
  0
LINE
  5
D6
100
AcDbEntity
  8
0
 62
256
370
-1
 48
1.0
  6
BYLAYER
100
AcDbLine
 10
-71.2020193816441918
 20
9.4358795558327451
 30
0.0
 11
-69.7794812403031699
 21
1.0000000000000284
 31
0.0
  0
LINE
  5
D7
100
AcDbEntity
  8
0
 62
256
370
-1
 48
1.0
  6
BYLAYER
100
AcDbLine
 10
71.202019381644206
 20
9.4358795558326172
 30
0.0
 11
69.7794812403031699
 21
0.999999999999905
 31
0.0
  0
LINE
  5
D8
100
AcDbEntity
  8
0
 62
256
370
-1
 48
1.0
  6
BYLAYER
100
AcDbLine
 10
-102.3758795549463088
 20
19.1679806174694818
 30
0.0
 11
-108.9689586662210701
 21
18.0151973288949527
 31
0.0
  0
LINE
  5
D9
100
AcDbEntity
  8
0
 62
256
370
-1
 48
1.0
  6
BYLAYER
100
AcDbLine
 10
102.375879554946323
 20
19.1679806174692722
 30
0.0
 11
108.9689586662211269
 21
18.0151973288948035
 31
0.0
  0
LINE
  5
DA
100
AcDbEntity
  8
0
 62
256
370
-1
 48
1.0
  6
BYLAYER
100
AcDbLine
 10
-103.2441204432809769
 20
24.0920193825305411
 30
0.0
 11
-109.8441533307392888
 21
22.9380202436921543
 31
0.0
  0
LINE
  5
DB
100
AcDbEntity
  8
0
 62
256
370
-1
 48
1.0
  6
BYLAYER
100
AcDbLine
 10
103.2441204432810054
 20
24.0920193825303421
 30
0.0
 11
109.8441533307393314
 21
22.9380202436919838
 31
0.0
  0
LINE
  5
DC
100
AcDbEntity
  8
0
 62
256
370
-1
 48
1.0
  6
BYLAYER
100
AcDbLine
 10
-108.9658795549463264
 20
56.5979806174695383
 30
0.0
 11
-115.5660276590151341
 21
55.4439613333116839
 31
0.0
  0
LINE
  5
DD
100
AcDbEntity
  8
0
 62
256
370
-1
 48
1.0
  6
BYLAYER
100
AcDbLine
 10
108.9658795549464259
 20
56.5979806174693678
 30
0.0
 11
115.5660276590152193
 21
55.4439613333114494
 31
0.0
  0
LINE
  5
DE
100
AcDbEntity
  8
0
 62
256
370
-1
 48
1.0
  6
BYLAYER
100
AcDbLine
 10
-109.8341204432809519
 20
61.5220193825306154
 30
0.0
 11
-116.4271995545556422
 21
60.3692360939563102
 31
0.0
  0
LINE
  5
DF
100
AcDbEntity
  8
0
 62
256
370
-1
 48
1.0
  6
BYLAYER
100
AcDbLine
 10
109.8341204432810514
 20
61.5220193825303809
 30
0.0
 11
116.4271995545557559
 21
60.3692360939561539
 31
0.0
  0
LINE
  5
E0
100
AcDbEntity
  8
0
 62
256
370
-1
 48
1.0
  6
BYLAYER
100
AcDbLine
 10
-63.3520193816441335
 20
74.2858795558327358
 30
0.0
 11
-65.9744765790036638
 21
89.2821956156903696
 31
0.0
  0
LINE
  5
E1
100
AcDbEntity
  8
0
 62
256
370
-1
 48
1.0
  6
BYLAYER
100
AcDbLine
 10
63.3520193816442685
 20
74.2858795558326079
 30
0.0
 11
65.9744765790038201
 21
89.2821956156902701
 31
0.0
  0
LINE
  5
E2
100
AcDbEntity
  8
0
 62
256
370
-1
 48
1.0
  6
BYLAYER
100
AcDbLine
 10
-58.4279806165831346
 20
75.1541204441673045
 30
0.0
 11
-61.0499491775778935
 21
90.1498662814804987
 31
0.0
  0
LINE
  5
E3
100
AcDbEntity
  8
0
 62
256
370
-1
 48
1.0
  6
BYLAYER
100
AcDbLine
 10
58.4279806165832625
 20
75.1541204441672193
 30
0.0
 11
61.0499491775780498
 21
90.1498662814803708
 31
0.0
  0
LINE
  5
E4
100
AcDbEntity
  8
0
 62
256
370
-1
 48
1.0
  6
BYLAYER
100
AcDbLine
 10
-115.7248323126501788
 20
80.5164967447266662
 30
0.0
 11
-65.974476579003678
 21
89.2821956156903553
 31
0.0
  0
LINE
  5
E5
100
AcDbEntity
  8
0
 62
256
370
-1
 48
1.0
  6
BYLAYER
100
AcDbLine
 10
115.7248323126503351
 20
80.5164967447264956
 30
0.0
 11
65.9744765790038343
 21
89.2821956156902701
 31
0.0
  0
LINE
  5
E6
100
AcDbEntity
  8
0
 62
256
370
-1
 48
1.0
  6
BYLAYER
100
AcDbLine
 10
-115.5660276590122066
 20
55.443961333297537
 30
0.0
 11
-109.8441533307392888
 21
22.9380202436921543
 31
0.0
  0
LINE
  5
E7
100
AcDbEntity
  8
0
 62
256
370
-1
 48
1.0
  6
BYLAYER
100
AcDbLine
 10
115.5660276590122919
 20
55.4439613332972954
 30
0.0
 11
109.8441533307393314
 21
22.9380202436919838
 31
0.0
  0
LINE
  5
E8
100
AcDbEntity
  8
0
 62
256
370
-1
 48
1.0
  6
BYLAYER
100
AcDbLine
 10
-108.9689586662210701
 20
18.0151973288949527
 30
0.0
 11
-106.580694406764934
 21
4.4706776537989148
 31
0.0
  0
LINE
  5
E9
100
AcDbEntity
  8
0
 62
256
370
-1
 48
1.0
  6
BYLAYER
100
AcDbLine
 10
108.9689586662211269
 20
18.0151973288948035
 30
0.0
 11
106.5806944067649056
 21
4.4706776537986928
 31
0.0
  0
LINE
  5
EA
100
AcDbEntity
  8
0
 62
256
370
-1
 48
1.0
  6
BYLAYER
100
AcDbLine
 10
-102.4445018441136597
 20
1.0000000000000284
 30
0.0
 11
-69.7794812403031557
 21
1.0000000000000284
 31
0.0
  0
LINE
  5
EB
100
AcDbEntity
  8
0
 62
256
370
-1
 48
1.0
  6
BYLAYER
100
AcDbLine
 10
102.4445018441137165
 20
0.9999999999998765
 30
0.0
 11
69.7794812403031557
 21
0.9999999999999192
 31
0.0
  0
LINE
  5
EC
100
AcDbEntity
  8
0
 62
256
370
-1
 48
1.0
  6
BYLAYER
100
AcDbLine
 10
-64.6511785743356597
 20
1.0000000000000073
 30
0.0
 11
-31.2121391066743854
 21
1.0000000000000073
 31
0.0
  0
LINE
  5
ED
100
AcDbEntity
  8
0
 62
256
370
-1
 48
1.0
  6
BYLAYER
100
AcDbLine
 10
64.6511785743356455
 20
0.9999999999998765
 30
0.0
 11
31.2121391066743996
 21
0.9999999999999618
 31
0.0
  0
LINE
  5
EE
100
AcDbEntity
  8
0
 62
256
370
-1
 48
1.0
  6
BYLAYER
100
AcDbLine
 10
-23.0903400976115449
 20
96.4000000000001052
 30
0.0
 11
23.0903400942011778
 21
96.4000000000000199
 31
0.0
  0
LINE
  5
EF
100
AcDbEntity
  8
0
 62
256
370
-1
 48
1.0
  6
BYLAYER
100
AcDbLine
 10
-7.0262271205857978
 20
1.0000000000000051
 30
0.0
 11
-26.083836560585798
 21
1.0000000000000075
 31
0.0
  0
LINE
  5
F0
100
AcDbEntity
  8
0
 62
256
370
-1
 48
1.0
  6
BYLAYER
100
AcDbLine
 10
26.0838365605857305
 20
0.9999999999999476
 30
0.0
 11
7.0262271205857303
 21
0.9999999999999503
 31
0.0
  0
LINE
  5
F1
100
AcDbEntity
  8
0
 62
256
370
-1
 48
1.0
  6
BYLAYER
100
AcDbLine
 10
7.0262271205857303
 20
0.9999999999999503
 30
0.0
 11
7.0262271205857161
 21
0.1999999999999998
 31
0.0
  0
LINE
  5
F2
100
AcDbEntity
  8
0
 62
256
370
-1
 48
1.0
  6
BYLAYER
100
AcDbLine
 10
-7.0262271205857978
 20
1.0000000000000051
 30
0.0
 11
-7.0262271205858156
 21
0.2000000000000006
 31
0.0
  0
LINE
  5
F3
100
AcDbEntity
  8
0
 62
256
370
-1
 48
1.0
  6
BYLAYER
100
AcDbLine
 10
-7.0262271205858156
 20
0.2000000000000006
 30
0.0
 11
7.026227120585717
 21
0.1999999999999997
 31
0.0
  0
ENDBLK
  5
F4
100
AcDbEntity
  8
0
100
AcDbBlockEnd
  0
BLOCK
  5
F5
100
AcDbEntity
  8
0
100
AcDbBlockBegin
  2
EC15LED
 70
0
 10
0.0
 20
0.0
 30
0.0
  3
EC15LED
  1

  0
ARC
  5
F6
100
AcDbEntity
  8
underglow
 62
256
370
-1
 48
1.0
  6
BYLAYER
100
AcDbCircle
 10
0.6464466094067269
 20
-0.6464466094067287
 30
0.0
 40
0.5000000000000002
100
AcDbArc
 50
224.9999999999995737
 51
45.0000000000004263
  0
ARC
  5
F7
100
AcDbEntity
  8
underglow
 62
256
370
-1
 48
1.0
  6
BYLAYER
100
AcDbCircle
 10
-0.6464466094067269
 20
-0.6464466094067269
 30
0.0
 40
0.5000000000000002
100
AcDbArc
 50
134.9999999999996021
 51
315.0000000000004547
  0
ARC
  5
F8
100
AcDbEntity
  8
underglow
 62
256
370
-1
 48
1.0
  6
BYLAYER
100
AcDbCircle
 10
0.6464466094067252
 20
0.6464466094067305
 30
0.0
 40
0.5000000000000002
100
AcDbArc
 50
314.9999999999995453
 51
135.0000000000004547
  0
ARC
  5
F9
100
AcDbEntity
  8
underglow
 62
256
370
-1
 48
1.0
  6
BYLAYER
100
AcDbCircle
 10
-0.6464466094067287
 20
0.6464466094067269
 30
0.0
 40
0.5000000000000002
100
AcDbArc
 50
44.9999999999995524
 51
225.0000000000004263
  0
LINE
  5
FA
100
AcDbEntity
  8
underglow
 62
256
370
-1
 48
1.0
  6
BYLAYER
100
AcDbLine
 10
-0.2928932188134521
 20
0.9999999999999964
 30
0.0
 11
0.2928932188134485
 21
1.0
 31
0.0
  0
LINE
  5
FB
100
AcDbEntity
  8
underglow
 62
256
370
-1
 48
1.0
  6
BYLAYER
100
AcDbLine
 10
0.9999999999999964
 20
0.2928932188134539
 30
0.0
 11
0.9999999999999982
 21
-0.2928932188134521
 31
0.0
  0
LINE
  5
FC
100
AcDbEntity
  8
underglow
 62
256
370
-1
 48
1.0
  6
BYLAYER
100
AcDbLine
 10
-0.2928932188134503
 20
-0.9999999999999982
 30
0.0
 11
0.2928932188134503
 21
-1.0
 31
0.0
  0
LINE
  5
FD
100
AcDbEntity
  8
underglow
 62
256
370
-1
 48
1.0
  6
BYLAYER
100
AcDbLine
 10
-0.9999999999999982
 20
-0.2928932188134503
 30
0.0
 11
-1.0
 21
0.2928932188134503
 31
0.0
  0
ENDBLK
  5
FE
100
AcDbEntity
  8
0
100
AcDbBlockEnd
  0
BLOCK
  5
FF
100
AcDbEntity
  8
0
100
AcDbBlockBegin
  2
socket_cutout_left
 70
0
 10
0.0
 20
0.0
 30
0.0
  3
socket_cutout_left
  1

  0
LINE
  5
100
100
AcDbEntity
  8
switch_cutout
 62
256
370
-1
 48
1.0
  6
BYLAYER
100
AcDbLine
 10
0.0399999997040368
 20
0.1000000002967667
 30
0.0
 11
12.7383518220368899
 21
0.1000000002967667
 31
0.0
  0
LINE
  5
101
100
AcDbEntity
  8
switch_cutout
 62
256
370
-1
 48
1.0
  6
BYLAYER
100
AcDbLine
 10
-1.4600000002959916
 20
-5.8075636218724824
 30
0.0
 11
-1.4600000002959632
 21
-1.3999999997032262
 31
0.0
  0
LINE
  5
102
100
AcDbEntity
  8
switch_cutout
 62
256
370
-1
 48
1.0
  6
BYLAYER
100
AcDbLine
 10
14.2119999997040622
 20
-3.1999999997031381
 30
0.0
 11
14.2119999997040338
 21
-1.2571067808896785
 31
0.0
  0
LINE
  5
103
100
AcDbEntity
  8
switch_cutout
 62
256
370
-1
 48
1.0
  6
BYLAYER
100
AcDbLine
 10
14.1438516522821942
 20
-3.717638089908192
 30
0.0
 11
13.0411323745381367
 21
-7.2760879531627012
 31
0.0
  0
LINE
  5
104
100
AcDbEntity
  8
switch_cutout
 62
256
370
-1
 48
1.0
  6
BYLAYER
100
AcDbLine
 10
7.4727823639118469
 20
-9.0460881786665013
 30
0.0
 11
12.2079041518889255
 21
-7.991786533113256
 31
0.0
  0
LINE
  5
105
100
AcDbEntity
  8
switch_cutout
 62
256
370
-1
 48
1.0
  6
BYLAYER
100
AcDbLine
 10
6.5272176354960152
 20
-9.0460881786665439
 30
0.0
 11
1.7920958475192776
 21
-7.9917865331133342
 31
0.0
  0
LINE
  5
106
100
AcDbEntity
  8
switch_cutout
 62
256
370
-1
 48
1.0
  6
BYLAYER
100
AcDbLine
 10
-1.1202230478639308
 20
-6.3960745667257086
 30
0.0
 11
1.3555081368978392
 21
-7.8254386326890852
 31
0.0
  0
ARC
  5
107
100
AcDbEntity
  8
switch_cutout
 62
256
370
-1
 48
1.0
  6
BYLAYER
100
AcDbCircle
 10
6.9999999997026237
 20
-6.9999999997034124
 30
0.0
 40
2.099999999999941
100
AcDbArc
 50
256.989215032443326
 51
283.010784967594816
  0
ARC
  5
108
100
AcDbEntity
  8
switch_cutout
 62
256
370
-1
 48
1.0
  6
BYLAYER
100
AcDbCircle
 10
1.9968131784293064
 20
-6.7984002815234348
 30
0.0
 40
1.2108178769157352
100
AcDbArc
 50
238.0184494545610789
 51
260.2660397298492398
  0
ARC
  5
109
100
AcDbEntity
  8
switch_cutout
 62
256
370
-1
 48
1.0
  6
BYLAYER
100
AcDbCircle
 10
12.0799999997038867
 20
-6.9999999997031139
 30
0.0
 40
1.0000000000000031
100
AcDbArc
 50
277.3484980213714834
 51
343.973140426198654
  0
ARC
  5
10A
100
AcDbEntity
  8
switch_cutout
 62
256
370
-1
 48
1.0
  6
BYLAYER
100
AcDbCircle
 10
0.0399999997040368
 20
-1.3999999997032333
 30
0.0
 40
1.5
100
AcDbArc
 50
90.0
 51
179.9999999999999147
  0
ARC
  5
10B
100
AcDbEntity
  8
switch_cutout
 62
256
370
-1
 48
1.0
  6
BYLAYER
100
AcDbCircle
 10
13.8584466091107572
 20
-0.9035533902964161
 30
0.0
 40
0.5000000000000004
100
AcDbArc
 50
315.0000000000009095
 51
81.8698976458503296
  0
ARC
  5
10C
100
AcDbEntity
  8
switch_cutout
 62
256
370
-1
 48
1.0
  6
BYLAYER
100
AcDbCircle
 10
12.8251759108704846
 20
-0.3924038762094355
 30
0.0
 40
0.500000000000105
100
AcDbArc
 50
46.8698976458556231
 51
100.0000000000054428
  0
ARC
  5
10D
100
AcDbEntity
  8
switch_cutout
 62
256
370
-1
 48
1.0
  6
BYLAYER
100
AcDbCircle
 10
12.2119999997040622
 20
-3.1999999997031523
 30
0.0
 40
1.9999999999999969
100
AcDbArc
 50
345.0
 51
0.0000000000000509
  0
ARC
  5
10E
100
AcDbEntity
  8
switch_cutout
 62
256
370
-1
 48
1.0
  6
BYLAYER
100
AcDbCircle
 10
-0.7804460954318984
 20
-5.8075636218725037
 30
0.0
 40
0.679553904864085
100
AcDbArc
 50
179.9999999999999716
 51
240.0
  0
LINE
  5
10F
100
AcDbEntity
  8
switch_cutout
 62
256
370
-1
 48
1.0
  6
BYLAYER
100
AcDbLine
 10
-1.1202230478639308
 20
-6.3960745667257086
 30
0.0
 11
-1.1202230478639308
 21
-6.3960745667257086
 31
0.0
  0
LINE
  5
110
100
AcDbEntity
  8
switch_cutout
 62
256
370
-1
 48
1.0
  6
BYLAYER
100
AcDbLine
 10
13.1670045587753179
 20
-0.0275022792388597
 30
0.0
 11
13.9291572872293443
 21
-0.4085786434658303
 31
0.0
  0
CIRCLE
  5
111
100
AcDbEntity
  8
pins
 62
256
370
-1
 48
1.0
  6
BYLAYER
100
AcDbCircle
 10
9.5399999994059641
 20
-1.9200000000000661
 30
0.0
 40
1.0
  0
CIRCLE
  5
112
100
AcDbEntity
  8
pins
 62
256
370
-1
 48
1.0
  6
BYLAYER
100
AcDbCircle
 10
3.1899999994059618
 20
-4.4600000000000666
 30
0.0
 40
1.0
  0
ENDBLK
  5
113
100
AcDbEntity
  8
0
100
AcDbBlockEnd
  0
ENDSEC
  0
SECTION
  2
ENTITIES
  0
ARC
  5
114
100
AcDbEntity
  8
spacer_cutout
 62
256
370
-1
 48
1.0
  6
BYLAYER
100
AcDbCircle
 10
46.0443050000000014
 20
0.8582329999998244
 30
0.0
 40
2.75
100
AcDbArc
 50
50.0
 51
320.0
  0
ARC
  5
115
100
AcDbEntity
  8
spacer_cutout
 62
256
370
-1
 48
1.0
  6
BYLAYER
100
AcDbCircle
 10
-46.0443050000000014
 20
0.8582329999998196
 30
0.0
 40
2.75
100
AcDbArc
 50
219.9999999999999716
 51
130.0000000000000284
  0
ARC
  5
116
100
AcDbEntity
  8
spacer_cutout
 62
256
370
-1
 48
1.0
  6
BYLAYER
100
AcDbCircle
 10
48.5032035169722278
 20
-1.1009648371583749
 30
0.0
 40
0.4009776342371713
100
AcDbArc
 50
36.2316086200417899
 51
151.4671640023282464
  0
ARC
  5
117
100
AcDbEntity
  8
spacer_cutout
 62
256
370
-1
 48
1.0
  6
BYLAYER
100
AcDbCircle
 10
-48.5032035169722278
 20
-1.1009648371583003
 30
0.0
 40
0.4009776342371713
100
AcDbArc
 50
28.5328359976717323
 51
143.7683913799581603
  0
ARC
  5
118
100
AcDbEntity
  8
spacer_cutout
 62
256
370
-1
 48
1.0
  6
BYLAYER
100
AcDbCircle
 10
48.1474347736188406
 20
3.2153648694922805
 30
0.0
 40
0.4186777732730021
100
AcDbArc
 50
216.750758235827476
 51
327.7714862194047214
  0
ARC
  5
119
100
AcDbEntity
  8
spacer_cutout
 62
256
370
-1
 48
1.0
  6
BYLAYER
100
AcDbCircle
 10
-48.1474347736188406
 20
3.2153648694922858
 30
0.0
 40
0.4186777732730021
100
AcDbArc
 50
212.2285137805952502
 51
323.2492417641725524
  0
LINE
  5
11A
100
AcDbEntity
  8
spacer_cutout
 62
256
370
-1
 48
1.0
  6
BYLAYER
100
AcDbLine
 10
48.5016059707848868
 20
2.9920851325459754
 30
0.0
 11
49.5999999999999801
 21
3.9999999999999858
 31
0.0
  0
LINE
  5
11B
100
AcDbEntity
  8
spacer_cutout
 62
256
370
-1
 48
1.0
  6
BYLAYER
100
AcDbLine
 10
-48.5016059707848797
 20
2.9920851325460807
 30
0.0
 11
-49.599999999999973
 21
4.0000000000000107
 31
0.0
  0
LINE
  5
11C
100
AcDbEntity
  8
spacer_cutout
 62
256
370
-1
 48
1.0
  6
BYLAYER
100
AcDbLine
 10
50.9999999999999858
 20
3.9999999999999716
 30
0.0
 11
50.838693640819514
 21
-1.9735836417981325
 31
0.0
  0
LINE
  5
11D
100
AcDbEntity
  8
spacer_cutout
 62
256
370
-1
 48
1.0
  6
BYLAYER
100
AcDbLine
 10
-50.9999999999999858
 20
3.9999999999998908
 30
0.0
 11
-50.838693640819514
 21
-1.9735836417981396
 31
0.0
  0
LINE
  5
11E
100
AcDbEntity
  8
spacer_cutout
 62
256
370
-1
 48
1.0
  6
BYLAYER
100
AcDbLine
 10
50.838693640819514
 20
-1.9735836417981325
 30
0.0
 11
49.373429755154433
 21
-1.9516843892844058
 31
0.0
  0
LINE
  5
11F
100
AcDbEntity
  8
spacer_cutout
 62
256
370
-1
 48
1.0
  6
BYLAYER
100
AcDbLine
 10
-50.838693640819514
 20
-1.9735836417981396
 30
0.0
 11
-49.373429755154433
 21
-1.9516843892843903
 31
0.0
  0
LINE
  5
120
100
AcDbEntity
  8
spacer_cutout
 62
256
370
-1
 48
1.0
  6
BYLAYER
100
AcDbLine
 10
49.373429755154433
 20
-1.9516843892844058
 30
0.0
 11
48.8266458572592583
 21
-0.8639667028448628
 31
0.0
  0
LINE
  5
121
100
AcDbEntity
  8
spacer_cutout
 62
256
370
-1
 48
1.0
  6
BYLAYER
100
AcDbLine
 10
-49.373429755154433
 20
-1.9516843892843903
 30
0.0
 11
-48.8266458572592583
 21
-0.8639667028447124
 31
0.0
  0
LINE
  5
122
100
AcDbEntity
  8
spacer_cutout
 62
256
370
-1
 48
1.0
  6
BYLAYER
100
AcDbLine
 10
50.9999999999999858
 20
3.9999999999999716
 30
0.0
 11
49.5999999999999801
 21
3.9999999999999858
 31
0.0
  0
LINE
  5
123
100
AcDbEntity
  8
spacer_cutout
 62
256
370
-1
 48
1.0
  6
BYLAYER
100
AcDbLine
 10
-50.9999999999999858
 20
3.9999999999998908
 30
0.0
 11
-49.599999999999973
 21
4.0000000000000107
 31
0.0
  0
ENDSEC
  0
SECTION
  2
OBJECTS
  0
DICTIONARY
  5
C
100
AcDbDictionary
280
0
281
1
  3
ACAD_GROUP
350
D
  3
ACAD_LAYOUT
350
1A
  3
ACAD_MLINESTYLE
350
17
  3
ACAD_PLOTSETTINGS
350
19
  3
ACAD_PLOTSTYLENAME
350
E
  3
AcDbVariableDictionary
350
124
  3
QCAD_OBJECTS
350
125
  0
DICTIONARY
  5
D
100
AcDbDictionary
280
0
281
1
  0
ACDBDICTIONARYWDFLT
  5
E
100
AcDbDictionary
281
1
  3
Normal
350
F
100
AcDbDictionaryWithDefault
340
F
  0
ACDBPLACEHOLDER
  5
F
  0
DICTIONARY
  5
17
100
AcDbDictionary
280
0
281
1
  3
Standard
350
18
  0
MLINESTYLE
  5
18
100
AcDbMlineStyle
  2
STANDARD
 70
0
  3

 62
256
 51
90.0
 52
90.0
 71
2
 49
0.5
 62
256
  6
BYLAYER
 49
-0.5
 62
256
  6
BYLAYER
  0
DICTIONARY
  5
19
100
AcDbDictionary
280
0
281
1
  0
DICTIONARY
  5
1A
100
AcDbDictionary
281
1
  3
Layout1
350
1E
  3
Layout2
350
26
  3
Model
350
22
  0
LAYOUT
  5
1E
100
AcDbPlotSettings
  1

  2
none_device
  4

  6

 40
0.0
 41
0.0
 42
0.0
 43
0.0
 44
0.0
 45
0.0
 46
0.0
 47
0.0
 48
0.0
 49
0.0
140
0.0
141
0.0
142
1.0
143
1.0
 70
688
 72
0
 73
0
 74
5
  7

 75
16
147
1.0
148
0.0
149
0.0
100
AcDbLayout
  1
Layout1
 70
1
 71
1
 10
0.0
 20
0.0
 11
420.0
 21
297.0
 12
0.0
 22
0.0
 32
0.0
 14
100000000000000000000.0
 24
100000000000000000000.0
 34
100000000000000000000.0
 15
-100000000000000000000.0
 25
-100000000000000000000.0
 35
-100000000000000000000.0
146
0.0
 13
0.0
 23
0.0
 33
0.0
 16
1.0
 26
0.0
 36
0.0
 17
0.0
 27
1.0
 37
0.0
 76
0
330
1B
  0
LAYOUT
  5
22
100
AcDbPlotSettings
  1

  2
none_device
  4

  6

 40
0.0
 41
0.0
 42
0.0
 43
0.0
 44
0.0
 45
0.0
 46
0.0
 47
0.0
 48
0.0
 49
0.0
140
0.0
141
0.0
142
1.0
143
1.0
 70
1712
 72
0
 73
0
 74
0
  7

 75
0
147
1.0
148
0.0
149
0.0
100
AcDbLayout
  1
Model
 70
1
 71
0
 10
0.0
 20
0.0
 11
12.0
 21
9.0
 12
0.0
 22
0.0
 32
0.0
 14
0.0
 24
0.0
 34
0.0
 15
0.0
 25
0.0
 35
0.0
146
0.0
 13
0.0
 23
0.0
 33
0.0
 16
1.0
 26
0.0
 36
0.0
 17
0.0
 27
1.0
 37
0.0
 76
0
330
1F
  0
LAYOUT
  5
26
100
AcDbPlotSettings
  1

  2
none_device
  4

  6

 40
0.0
 41
0.0
 42
0.0
 43
0.0
 44
0.0
 45
0.0
 46
0.0
 47
0.0
 48
0.0
 49
0.0
140
0.0
141
0.0
142
1.0
143
1.0
 70
688
 72
0
 73
0
 74
5
  7

 75
16
147
1.0
148
0.0
149
0.0
100
AcDbLayout
  1
Layout2
 70
1
 71
2
 10
0.0
 20
0.0
 11
12.0
 21
9.0
 12
0.0
 22
0.0
 32
0.0
 14
0.0
 24
0.0
 34
0.0
 15
0.0
 25
0.0
 35
0.0
146
0.0
 13
0.0
 23
0.0
 33
0.0
 16
1.0
 26
0.0
 36
0.0
 17
0.0
 27
1.0
 37
0.0
 76
0
330
23
  0
DICTIONARY
  5
124
100
AcDbDictionary
281
1
  3
DIMASSOC
350
127
  3
HIDETEXT
350
126
  0
DICTIONARYVAR
  5
126
100
DictionaryVariables
280
0
  1
2
  0
DICTIONARYVAR
  5
127
100
DictionaryVariables
280
0
  1
1
  0
DICTIONARY
  5
125
100
AcDbDictionary
281
1
  3
ColorSettings/BackgroundColor
350
128
  3
ColorSettings/ColorMode
350
129
  3
Grid/DisplayGrid00
350
12A
  3
Grid/DisplayGrid01
350
12B
  3
Grid/DisplayGrid02
350
12C
  3
Grid/DisplayGrid03
350
12D
  3
Grid/GridSpacingX00
350
12E
  3
Grid/GridSpacingX01
350
12F
  3
Grid/GridSpacingX02
350
130
  3
Grid/GridSpacingX03
350
131
  3
Grid/GridSpacingY00
350
132
  3
Grid/GridSpacingY01
350
133
  3
Grid/GridSpacingY02
350
134
  3
Grid/GridSpacingY03
350
135
  3
Grid/IsometricGrid00
350
136
  3
Grid/IsometricGrid01
350
137
  3
Grid/IsometricGrid02
350
138
  3
Grid/IsometricGrid03
350
139
  3
Grid/IsometricProjection00
350
13A
  3
Grid/IsometricProjection01
350
13B
  3
Grid/IsometricProjection02
350
13C
  3
Grid/IsometricProjection03
350
13D
  3
Grid/MetaGridSpacingX00
350
13E
  3
Grid/MetaGridSpacingX01
350
13F
  3
Grid/MetaGridSpacingX02
350
140
  3
Grid/MetaGridSpacingX03
350
141
  3
Grid/MetaGridSpacingY00
350
142
  3
Grid/MetaGridSpacingY01
350
143
  3
Grid/MetaGridSpacingY02
350
144
  3
Grid/MetaGridSpacingY03
350
145
  3
MultiPageSettings/Columns
350
146
  3
MultiPageSettings/GlueMarginsBottom
350
147
  3
MultiPageSettings/GlueMarginsLeft
350
148
  3
MultiPageSettings/GlueMarginsRight
350
149
  3
MultiPageSettings/GlueMarginsTop
350
14A
  3
MultiPageSettings/PrintCropMarks
350
14B
  3
MultiPageSettings/Rows
350
14C
  3
PageSettings/OffsetX
350
14D
  3
PageSettings/OffsetY
350
14E
  3
PageSettings/PageOrientation
350
14F
  3
PageSettings/PaperHeight
350
150
  3
PageSettings/PaperWidth
350
151
  3
PageSettings/Scale
350
152
  3
PageSettings/ShowPaperBorders
350
153
  3
PageTagSettings/EnablePageTags
350
154
  3
PageTagSettings/TagAlignment
350
155
  3
PageTagSettings/TagFont
350
156
  3
PageTagSettings/TagPosition
350
157
  3
QCADVersion
350
158
  3
UnitSettings/PaperUnit
350
159
  3
ViewportCenter
350
15A
  3
ViewportHeight
350
15B
  3
ViewportWidth
350
15C
  0
XRECORD
  5
128
330
125
100
AcDbXrecord
280
1
1000
White
  0
XRECORD
  5
129
330
125
100
AcDbXrecord
280
1
1000
FullColor
  0
XRECORD
  5
12A
330
125
100
AcDbXrecord
280
1
290
1
  0
XRECORD
  5
12B
330
125
100
AcDbXrecord
280
1
290
1
  0
XRECORD
  5
12C
330
125
100
AcDbXrecord
280
1
290
1
  0
XRECORD
  5
12D
330
125
100
AcDbXrecord
280
1
290
1
  0
XRECORD
  5
12E
330
125
100
AcDbXrecord
280
1
1000
auto
  0
XRECORD
  5
12F
330
125
100
AcDbXrecord
280
1
1000
auto
  0
XRECORD
  5
130
330
125
100
AcDbXrecord
280
1
1000
auto
  0
XRECORD
  5
131
330
125
100
AcDbXrecord
280
1
1000
auto
  0
XRECORD
  5
132
330
125
100
AcDbXrecord
280
1
1000
auto
  0
XRECORD
  5
133
330
125
100
AcDbXrecord
280
1
1000
auto
  0
XRECORD
  5
134
330
125
100
AcDbXrecord
280
1
1000
auto
  0
XRECORD
  5
135
330
125
100
AcDbXrecord
280
1
1000
auto
  0
XRECORD
  5
136
330
125
100
AcDbXrecord
280
1
290
0
  0
XRECORD
  5
137
330
125
100
AcDbXrecord
280
1
290
0
  0
XRECORD
  5
138
330
125
100
AcDbXrecord
280
1
290
0
  0
XRECORD
  5
139
330
125
100
AcDbXrecord
280
1
290
0
  0
XRECORD
  5
13A
330
125
100
AcDbXrecord
280
1
 90
65537
  0
XRECORD
  5
13B
330
125
100
AcDbXrecord
280
1
 90
65537
  0
XRECORD
  5
13C
330
125
100
AcDbXrecord
280
1
 90
65537
  0
XRECORD
  5
13D
330
125
100
AcDbXrecord
280
1
 90
65537
  0
XRECORD
  5
13E
330
125
100
AcDbXrecord
280
1
1000
auto
  0
XRECORD
  5
13F
330
125
100
AcDbXrecord
280
1
1000
auto
  0
XRECORD
  5
140
330
125
100
AcDbXrecord
280
1
1000
auto
  0
XRECORD
  5
141
330
125
100
AcDbXrecord
280
1
1000
auto
  0
XRECORD
  5
142
330
125
100
AcDbXrecord
280
1
1000
auto
  0
XRECORD
  5
143
330
125
100
AcDbXrecord
280
1
1000
auto
  0
XRECORD
  5
144
330
125
100
AcDbXrecord
280
1
1000
auto
  0
XRECORD
  5
145
330
125
100
AcDbXrecord
280
1
1000
auto
  0
XRECORD
  5
146
330
125
100
AcDbXrecord
280
1
 90
1
  0
XRECORD
  5
147
330
125
100
AcDbXrecord
280
1
 40
10.0
  0
XRECORD
  5
148
330
125
100
AcDbXrecord
280
1
 40
10.0
  0
XRECORD
  5
149
330
125
100
AcDbXrecord
280
1
 40
10.0
  0
XRECORD
  5
14A
330
125
100
AcDbXrecord
280
1
 40
10.0
  0
XRECORD
  5
14B
330
125
100
AcDbXrecord
280
1
290
0
  0
XRECORD
  5
14C
330
125
100
AcDbXrecord
280
1
 90
1
  0
XRECORD
  5
14D
330
125
100
AcDbXrecord
280
1
 40
0.0
  0
XRECORD
  5
14E
330
125
100
AcDbXrecord
280
1
 40
0.0
  0
XRECORD
  5
14F
330
125
100
AcDbXrecord
280
1
1000
Portrait
  0
XRECORD
  5
150
330
125
100
AcDbXrecord
280
1
 40
297.0
  0
XRECORD
  5
151
330
125
100
AcDbXrecord
280
1
 40
210.0
  0
XRECORD
  5
152
330
125
100
AcDbXrecord
280
1
1000
1:1
  0
XRECORD
  5
153
330
125
100
AcDbXrecord
280
1
290
1
  0
XRECORD
  5
154
330
125
100
AcDbXrecord
280
1
290
0
  0
XRECORD
  5
155
330
125
100
AcDbXrecord
280
1
1000
Inside
  0
XRECORD
  5
156
330
125
100
AcDbXrecord
280
1
1000
Arial,10,-1,5,50,0,0,0,0,0
  0
XRECORD
  5
157
330
125
100
AcDbXrecord
280
1
1000
TopLeft
  0
XRECORD
  5
158
330
125
100
AcDbXrecord
280
1
1000
3.27.6.7
  0
XRECORD
  5
159
330
125
100
AcDbXrecord
280
1
 90
4
  0
XRECORD
  5
15B
330
125
100
AcDbXrecord
280
1
 40
142.0052413146091794
  0
XRECORD
  5
15C
330
125
100
AcDbXrecord
280
1
 40
286.8889672504603823
  0
ENDSEC
  0
EOF
